project/pd3/verif/sim/verilator/test_pd/test2.vcd
$version Generated by VerilatedVcd $end
$timescale 1ps $end
 $scope module TOP $end
  $scope module $unit $end
   $var wire 32 R" ZERO [31:0] $end
  $upscope $end
  $scope module top $end
   $var wire 1 L" clock $end
   $var wire 1 $ reset $end
   $scope module clkg $end
    $var wire 1 L" clk $end
    $var wire 1 $ rst $end
    $var wire 32 % counter [31:0] $end
   $upscope $end
   $scope module dut $end
    $var wire 1 L" clk $end
    $var wire 1 $ reset $end
    $scope module core $end
     $var wire 32 M" AWIDTH [31:0] $end
     $var wire 32 M" DWIDTH [31:0] $end
     $var wire 1 L" clk $end
     $var wire 1 $ reset $end
     $var wire 32 N" addr_i [31:0] $end
     $var wire 32 O" data_i [31:0] $end
     $var wire 1 P" write_en $end
     $var wire 1 Q" read_en $end
     $var wire 32 & f_pc [31:0] $end
     $var wire 32 ' f_insn [31:0] $end
     $var wire 32 ( d_pc [31:0] $end
     $var wire 32 ' d_insn [31:0] $end
     $var wire 7 ) d_opcode [6:0] $end
     $var wire 5 * d_rd [4:0] $end
     $var wire 5 + d_rs1 [4:0] $end
     $var wire 5 , d_rs2 [4:0] $end
     $var wire 7 - d_funct7 [6:0] $end
     $var wire 3 . d_funct3 [2:0] $end
     $var wire 5 / d_shamt [4:0] $end
     $var wire 32 0 d_imm [31:0] $end
     $var wire 32 0 igen_imm [31:0] $end
     $var wire 1 1 c_pcsel $end
     $var wire 1 2 c_immsel $end
     $var wire 1 3 c_regwren $end
     $var wire 1 4 c_rs1sel $end
     $var wire 1 5 c_rs2sel $end
     $var wire 1 6 c_memren $end
     $var wire 1 7 c_memwren $end
     $var wire 2 8 c_wbsel [1:0] $end
     $var wire 4 9 c_alusel [3:0] $end
     $var wire 5 + r_rs1 [4:0] $end
     $var wire 5 , r_rs2 [4:0] $end
     $var wire 5 * r_rd [4:0] $end
     $var wire 32 : r_rs1data [31:0] $end
     $var wire 32 ; r_rs2data [31:0] $end
     $var wire 32 R" r_rddata [31:0] $end
     $var wire 32 < e_rs1 [31:0] $end
     $var wire 32 = e_rs2 [31:0] $end
     $var wire 32 > e_res [31:0] $end
     $var wire 32 ( e_pc [31:0] $end
     $var wire 1 ? e_brtaken $end
     $var wire 1 @ breq $end
     $var wire 1 A brlt $end
     $scope module bc $end
      $var wire 32 M" DWIDTH [31:0] $end
      $var wire 7 ) opcode_i [6:0] $end
      $var wire 3 . funct3_i [2:0] $end
      $var wire 32 : rs1_i [31:0] $end
      $var wire 32 ; rs2_i [31:0] $end
      $var wire 1 @ breq_o $end
      $var wire 1 A brlt_o $end
     $upscope $end
     $scope module control1 $end
      $var wire 32 M" DWIDTH [31:0] $end
      $var wire 32 ' insn_i [31:0] $end
      $var wire 7 ) opcode_i [6:0] $end
      $var wire 7 - funct7_i [6:0] $end
      $var wire 3 . funct3_i [2:0] $end
      $var wire 1 1 pcsel_o $end
      $var wire 1 2 immsel_o $end
      $var wire 1 3 regwren_o $end
      $var wire 1 4 rs1sel_o $end
      $var wire 1 5 rs2sel_o $end
      $var wire 1 6 memren_o $end
      $var wire 1 7 memwren_o $end
      $var wire 2 8 wbsel_o [1:0] $end
      $var wire 4 9 alusel_o [3:0] $end
     $upscope $end
     $scope module decode1 $end
      $var wire 32 M" DWIDTH [31:0] $end
      $var wire 32 M" AWIDTH [31:0] $end
      $var wire 1 L" clk $end
      $var wire 1 $ rst $end
      $var wire 32 ' insn_i [31:0] $end
      $var wire 32 & pc_i [31:0] $end
      $var wire 32 ( pc_o [31:0] $end
      $var wire 32 ' insn_o [31:0] $end
      $var wire 7 ) opcode_o [6:0] $end
      $var wire 5 * rd_o [4:0] $end
      $var wire 5 + rs1_o [4:0] $end
      $var wire 5 , rs2_o [4:0] $end
      $var wire 7 - funct7_o [6:0] $end
      $var wire 3 . funct3_o [2:0] $end
      $var wire 5 / shamt_o [4:0] $end
      $var wire 32 0 imm_o [31:0] $end
     $upscope $end
     $scope module e_alu1 $end
      $var wire 32 M" DWIDTH [31:0] $end
      $var wire 32 M" AWIDTH [31:0] $end
      $var wire 32 ( pc_i [31:0] $end
      $var wire 32 < rs1_i [31:0] $end
      $var wire 32 = rs2_i [31:0] $end
      $var wire 3 . funct3_i [2:0] $end
      $var wire 7 - funct7_i [6:0] $end
      $var wire 7 ) opcode_i [6:0] $end
      $var wire 4 9 alusel_i [3:0] $end
      $var wire 32 > res_o [31:0] $end
      $var wire 1 S" brtaken_o $end
     $upscope $end
     $scope module fetch1 $end
      $var wire 32 M" DWIDTH [31:0] $end
      $var wire 32 M" AWIDTH [31:0] $end
      $var wire 32 T" BASEADDR [31:0] $end
      $var wire 1 L" clk $end
      $var wire 1 $ rst $end
      $var wire 32 & pc_o [31:0] $end
      $var wire 32 U" insn_o [31:0] $end
      $var wire 32 ( pc [31:0] $end
     $upscope $end
     $scope module igen1 $end
      $var wire 32 M" DWIDTH [31:0] $end
      $var wire 7 ) opcode_i [6:0] $end
      $var wire 32 ' insn_i [31:0] $end
      $var wire 32 0 imm_o [31:0] $end
     $upscope $end
     $scope module memory1 $end
      $var wire 32 M" AWIDTH [31:0] $end
      $var wire 32 M" DWIDTH [31:0] $end
      $var wire 32 V" BASE_ADDR [31:0] $end
      $var wire 1 L" clk $end
      $var wire 1 $ rst $end
      $var wire 32 & addr_i [31:0] $end
      $var wire 32 O" data_i [31:0] $end
      $var wire 1 Q" read_en_i $end
      $var wire 1 P" write_en_i $end
      $var wire 32 ' data_o [31:0] $end
      $var wire 32 W" MEM_BYTES [31:0] $end
      $var wire 32 B address [31:0] $end
      $var wire 32 # i [31:0] $end
     $upscope $end
     $scope module register_file1 $end
      $var wire 32 M" DWIDTH [31:0] $end
      $var wire 1 L" clk $end
      $var wire 1 $ rst $end
      $var wire 5 + rs1_i [4:0] $end
      $var wire 5 , rs2_i [4:0] $end
      $var wire 5 * rd_i [4:0] $end
      $var wire 32 R" datawb_i [31:0] $end
      $var wire 1 3 regwren_i $end
      $var wire 32 : rs1data_o [31:0] $end
      $var wire 32 ; rs2data_o [31:0] $end
      $var wire 32 C x[0] [31:0] $end
      $var wire 32 D x[1] [31:0] $end
      $var wire 32 E x[2] [31:0] $end
      $var wire 32 F x[3] [31:0] $end
      $var wire 32 G x[4] [31:0] $end
      $var wire 32 H x[5] [31:0] $end
      $var wire 32 I x[6] [31:0] $end
      $var wire 32 J x[7] [31:0] $end
      $var wire 32 K x[8] [31:0] $end
      $var wire 32 L x[9] [31:0] $end
      $var wire 32 M x[10] [31:0] $end
      $var wire 32 N x[11] [31:0] $end
      $var wire 32 O x[12] [31:0] $end
      $var wire 32 P x[13] [31:0] $end
      $var wire 32 Q x[14] [31:0] $end
      $var wire 32 R x[15] [31:0] $end
      $var wire 32 S x[16] [31:0] $end
      $var wire 32 T x[17] [31:0] $end
      $var wire 32 U x[18] [31:0] $end
      $var wire 32 V x[19] [31:0] $end
      $var wire 32 W x[20] [31:0] $end
      $var wire 32 X x[21] [31:0] $end
      $var wire 32 Y x[22] [31:0] $end
      $var wire 32 Z x[23] [31:0] $end
      $var wire 32 [ x[24] [31:0] $end
      $var wire 32 \ x[25] [31:0] $end
      $var wire 32 ] x[26] [31:0] $end
      $var wire 32 ^ x[27] [31:0] $end
      $var wire 32 _ x[28] [31:0] $end
      $var wire 32 ` x[29] [31:0] $end
      $var wire 32 a x[30] [31:0] $end
      $var wire 32 b x[31] [31:0] $end
      $scope module unnamedblk1 $end
       $var wire 32 c i [31:0] $end
      $upscope $end
     $upscope $end
    $upscope $end
   $upscope $end
   $scope module genblk3 $end
    $var wire 32 d tick [31:0] $end
    $scope module genblk3 $end
     $scope module check_D__Vstatic__check_D_func $end
      $var wire 32 e pc [31:0] $end
      $var wire 7 f opcode [6:0] $end
      $var wire 5 g rd [4:0] $end
      $var wire 5 h rs1 [4:0] $end
      $var wire 5 i rs2 [4:0] $end
      $var wire 3 j funct3 [2:0] $end
      $var wire 7 k funct7 [6:0] $end
      $var wire 32 l imm [31:0] $end
      $var wire 5 X" shamt [4:0] $end
      $var wire 128 m p [127:0] $end
      $var wire 224 Y" t [223:0] $end
     $upscope $end
     $scope module check_E__Vstatic__check_E_func $end
      $var wire 32 q pc [31:0] $end
      $var wire 32 r alu_res [31:0] $end
      $var wire 1 s br_taken [0:0] $end
      $var wire 128 t p [127:0] $end
     $upscope $end
     $scope module check_F__Vstatic__check_F_func $end
      $var wire 32 x pc [31:0] $end
      $var wire 32 y insn [31:0] $end
      $var wire 128 z p [127:0] $end
     $upscope $end
     $scope module check_R__Vstatic__check_R_func $end
      $var wire 5 ~ read_rs1 [4:0] $end
      $var wire 5 !! read_rs2 [4:0] $end
      $var wire 32 "! read_rs1_data [31:0] $end
      $var wire 32 #! read_rs2_data [31:0] $end
      $var wire 128 $! p [127:0] $end
     $upscope $end
    $upscope $end
    $scope module pre_check $end
     $var wire 32 `" res [31:0] $end
    $upscope $end
    $scope module tick_check $end
     $var wire 1 (! res $end
     $var wire 1 a" tick_ok $end
     $var wire 1 )! correct $end
     $var wire 4096 *! msg [4095:0] $end
    $upscope $end
   $upscope $end
  $upscope $end
 $upscope $end
$enddefinitions $end


#0
b00000000000000000000000000100111 #
1$
b00000000000000000000000000000000 %
b00000001000000000000000000000000 &
b11111110000000010000000100010011 '
b00000001000000000000000000000000 (
b0010011 )
b00010 *
b00010 +
b00000 ,
b1111111 -
b000 .
b00000 /
b11111111111111111111111111100000 0
01
12
13
14
05
06
07
b00 8
b0000 9
b00000000000000000000000000000000 :
b00000000000000000000000000000000 ;
b00000000000000000000000000000000 <
b11111111111111111111111111100000 =
b11111111111111111111111111100000 >
0?
0@
0A
b00000000000000000000000000000000 B
b00000000000000000000000000000000 C
b00000000000000000000000000000000 D
b00000000000000000000000000000000 E
b00000000000000000000000000000000 F
b00000000000000000000000000000000 G
b00000000000000000000000000000000 H
b00000000000000000000000000000000 I
b00000000000000000000000000000000 J
b00000000000000000000000000000000 K
b00000000000000000000000000000000 L
b00000000000000000000000000000000 M
b00000000000000000000000000000000 N
b00000000000000000000000000000000 O
b00000000000000000000000000000000 P
b00000000000000000000000000000000 Q
b00000000000000000000000000000000 R
b00000000000000000000000000000000 S
b00000000000000000000000000000000 T
b00000000000000000000000000000000 U
b00000000000000000000000000000000 V
b00000000000000000000000000000000 W
b00000000000000000000000000000000 X
b00000000000000000000000000000000 Y
b00000000000000000000000000000000 Z
b00000000000000000000000000000000 [
b00000000000000000000000000000000 \
b00000000000000000000000000000000 ]
b00000000000000000000000000000000 ^
b00000000000000000000000000000000 _
b00000000000000000000000000000000 `
b00000000000000000000000000000000 a
b00000000000000000000000000000000 b
b00000000000000000000000000000000 c
b00000000000000000000000000000000 d
b00000000000000000000000000000000 e
b0000000 f
b00000 g
b00000 h
b00000 i
b000 j
b0000000 k
b00000000000000000000000000000000 l
b00000000000000000000000000000000000000000000000000000000000000000000000000000000000000000000000000000000000000000000000000000000 m
b00000000000000000000000000000000 q
b00000000000000000000000000000000 r
0s
b00000000000000000000000000000000000000000000000000000000000000000000000000000000000000000000000000000000000000000000000000000000 t
b00000000000000000000000000000000 x
b00000000000000000000000000000000 y
b00000000000000000000000000000000000000000000000000000000000000000000000000000000000000000000000000000000000000000000000000000000 z
b00000 ~
b00000 !!
b00000000000000000000000000000000 "!
b00000000000000000000000000000000 #!
b00000000000000000000000000000000000000000000000000000000000000000000000000000000000000000000000000000000000000000000000000000000 $!
0(!
1)!
b0000000000000000000000000000000000000000000000000000000000000000000000000000000000000000000000000000000000000000000000000000000000000000000000000000000000000000000000000000000000000000000000000000000000000000000000000000000000000000000000000000000000000000000000000000000000000000000000000000000000000000000000000000000000000000000000000000000000000000000000000000000000000000000000000000000000000000000000000000000000000000000000000000000000000000000000000000000000000000000000000000000000000000000000000000000000000000000000000000000000000000000000000000000000000000000000000000000000000000000000000000000000000000000000000000000000000000000000000000000000000000000000000000000000000000000000000000000000000000000000000000000000000000000000000000000000000000000000000000000000000000000000000000000000000000000000000000000000000000000000000000000000000000000000000000000000000000000000000000000000000000000000000000000000000000000000000000000000000000000000000000000000000000000000000000000000000000000000000000000000000000000000000000000000000000000000000000000000000000000000000000000000000000000000000000000000000000000000000000000000000000000000000000000000000000000000000000000000000000000000000000000000000000000000000000000000000000000000000000000000000000000000000000000000000000000000000000000000000000000000000000000000000000000000000000000000000000000000000000000000000000000000000000000000000000000000000000000000000000000000000000000000000000000000000000000000000000000000000000000000000000000000000000000000000000000000000000000000000000000000000000000000000000000000000000000000000000000000000000000000000000000000000000000000000000000000000000000000000000000000000000000000000000000000000000000000000000000000000000000000000000000000000000000000000000000000000000000000000000000000000000000000000000000000000000000000000000000000000000000000000000000000000000000000000000000000000000000000000000000000000000000000000000000000000000000000000000000000000000000000000000000000000000000000000000000000000000000000000000000000000000000000000000000000000000000000000000000000000000000000000000000000000000000000000000000000000000000000000000000000000000000000000000000000000000000000000000000000000000000000000000000000000000000000000000000000000000000000000000000000000000000000000000000000000000000000000000000000000000000000000000000000000000000000000000000000000000000000000000000000000000000000000000000000000000000000000000000000000000000000000000000000000000000000000000000000000000000000000000000000000000000000000000000000000000000000000000000000000000000000000000000000000000000000000000000000000000000000000000000000000000000000000000000000000000000000000000000000000000000000000000000000000000000000000000000000000000000000000000000000000000000000000000000000000000000000000000000000000000000000000000000000000000000000000000000000000000000000000000000000000000000000000000000000000000000000000000000000000000000000000000000000000000000000000000000000000000000000000000000000000000000000000000000000000000000000000000000000000000000000000000000000000000000000000000000000000000000000000000000000000000000000000000000000000000000000000000000000000000000000000000000000000000000000000000000000000000000000000000000000000000000000000000000000000000000000000000000000000000000000000000000000000000000000000000000000000000000000000000000000000000000000000000000000000000000000000000000000000000000000000000000000000000000000000000000000000000000000000000000000000000000000000000000000000000000000000000000000000000000000000000000000000000000000000000000000000000000000000000000000000000000000000000000000000000000000000000000000000000000000000000000000000000000000000000000000000000000000000000000000000000000000000000000000000000000000000000000000000000000000000000000000000000000000000000000000000000000000000000000000000000000000000000000000000000000000000000000000000000000000000000000000000000000000000000000000000000000000000000000000000000000000000000000000000000000000000000000000000000000000000000000000000000000000000000000000000000000000000000000000000000000000000000 *!
0L"
b00000000000000000000000000100000 M"
b00000000000000000000000000000000 N"
b00000000000000000000000000000000 O"
0P"
1Q"
b00000000000000000000000000000000 R"
0S"
b00000001000000000000000000000000 T"
b00000000000000000000000000000000 U"
b00000001000000000000000000000000 V"
b00000000000000000000000010011100 W"
b00000 X"
b00000000000000000000000000000000000000000000000000000000000000000000000000000000000000000000000000000000000000000000000000000000000000000000000000000000000000000000000000000000000000000000000000000000000000000000000000000000 Y"
b00000000000000000000000000000000 `"
0a"
#1
b00000000000000000000000000000001 %
b00000001000100000000000000000000 :
b00000001000100000000000000000000 <
b00000001000011111111111111100000 >
b00000001000100000000000000000000 E
b00000000000000000000000000100000 c
1L"
#2
0L"
#3
b00000000000000000000000000000010 %
1L"
#4
0L"
#5
b00000000000000000000000000000011 %
1L"
#6
0L"
#7
b00000000000000000000000000000100 %
1L"
#8
0L"
#9
b00000000000000000000000000000101 %
1L"
#10
0L"
#11
0$
b00000000000000000000000000000110 %
1L"
#12
b00000000000000000000000000000001 d
b00000001000000000000000000000000 e
b0010011 f
b00010 g
b00010 h
b1111111 k
b11111111111111111111111111100000 l
b00000000000000000000000000000000111111111111111111111111111000001111111000000000001000010001001100000001000000000000000000000000 m
b00000001000000000000000000000000 q
b00000001000011111111111111100000 r
b00000000000000000000000000000000000000000000000000000000000000000000000100001111111111111110000000000001000000000000000000000000 t
b00000001000000000000000000000000 x
b11111110000000010000000100010011 y
b00000000000000000000000000000000000000000000000000000000000000001111111000000001000000010001001100000001000000000000000000000000 z
b00010 ~
b00000001000100000000000000000000 "!
b00000000000000000000000000000000000000000000000000000000000000000000000000000000000000000000010001000000000000000000000000000010 $!
1(!
0L"
#13
b00000000000000000000000000000111 %
b00000001000000000000000000000100 &
b00000000000100010010111000100011 '
b00000001000000000000000000000100 (
b0100011 )
b11100 *
b00001 ,
b0000000 -
b010 .
b11100 /
b00000000000000000000000000011100 0
03
17
b00000000000000000000000000000000 :
b00000000000000000000000000000000 <
b00000000000000000000000000011100 =
b00000000000000000000000000011100 >
b00000000000000000000000000000100 B
b00000000000000000000000000000000 E
1L"
#14
b00000000000000000000000000000010 d
b00000001000000000000000000000100 e
b0100011 f
b11100 g
b00001 i
b010 j
b0000000 k
b00000000000000000000000000011100 l
b00000000000000000000000000000001000000000000000000000000000111000000000010000010001011100010001100000001000000000000000000000100 m
b00000001000000000000000000000100 q
b00000000000000000000000000011100 r
b00000000000000000000000000000000000000000000000000000000000000000000000000000000000000000001110000000001000000000000000000000100 t
b00000001000000000000000000000100 x
b00000000000100010010111000100011 y
b00000000000000000000000000000000000000000000000000000000000000000000000000010001001011100010001100000001000000000000000000000100 z
b00001 !!
b00000000000000000000000000000000 "!
b00000000000000000000000000000000000000000000000000000000000000000000000000000000000000000000000000000000000000000000000000100010 $!
0L"
#15
b00000000000000000000000000001000 %
b00000001000000000000000000001000 &
b00000000001100000000011110010011 '
b00000001000000000000000000001000 (
b0010011 )
b01111 *
b00000 +
b00011 ,
b000 .
b00011 /
b00000000000000000000000000000011 0
13
07
b00000000000000000000000000000011 =
b00000000000000000000000000000011 >
b00000000000000000000000000001000 B
1L"
#16
b00000000000000000000000000000011 d
b00000001000000000000000000001000 e
b0010011 f
b01111 g
b00000 h
b00011 i
b000 j
b00000000000000000000000000000011 l
b00000000000000000000000000000011000000000000000000000000000000110000000000000110000001111001001100000001000000000000000000001000 m
b00000001000000000000000000001000 q
b00000000000000000000000000000011 r
b00000000000000000000000000000000000000000000000000000000000000000000000000000000000000000000001100000001000000000000000000001000 t
b00000001000000000000000000001000 x
b00000000001100000000011110010011 y
b00000000000000000000000000000000000000000000000000000000000000000000000000110000000001111001001100000001000000000000000000001000 z
b00000 ~
b00011 !!
b00000000000000000000000000000000000000000000000000000000000000000000000000000000000000000000000000000000000000000000000001100000 $!
0L"
#17
b00000000000000000000000000001001 %
b00000001000000000000000000001100 &
b00000000111100010010011000100011 '
b00000001000000000000000000001100 (
b0100011 )
b01100 *
b00010 +
b01111 ,
b010 .
b01100 /
b00000000000000000000000000001100 0
03
17
b00000000000000000000000000001100 =
b00000000000000000000000000001100 >
b00000000000000000000000000001100 B
1L"
#18
b00000000000000000000000000000100 d
b00000001000000000000000000001100 e
b0100011 f
b01100 g
b00010 h
b01111 i
b010 j
b00000000000000000000000000001100 l
b00000000000000000000000000001111000000000000000000000000000011000000000010011110001001100010001100000001000000000000000000001100 m
b00000001000000000000000000001100 q
b00000000000000000000000000001100 r
b00000000000000000000000000000000000000000000000000000000000000000000000000000000000000000000110000000001000000000000000000001100 t
b00000001000000000000000000001100 x
b00000000111100010010011000100011 y
b00000000000000000000000000000000000000000000000000000000000000000000000011110001001001100010001100000001000000000000000000001100 z
b00010 ~
b01111 !!
b00000000000000000000000000000000000000000000000000000000000000000000000000000000000000000000000000000000000000000000000111100010 $!
0L"
#19
b00000000000000000000000000001010 %
b00000001000000000000000000010000 &
b00000000001000000000011110010011 '
b00000001000000000000000000010000 (
b0010011 )
b01111 *
b00000 +
b00010 ,
b000 .
b00010 /
b00000000000000000000000000000010 0
13
07
b00000000000000000000000000000010 =
b00000000000000000000000000000010 >
b00000000000000000000000000010000 B
1L"
#20
b00000000000000000000000000000101 d
b00000001000000000000000000010000 e
b0010011 f
b01111 g
b00000 h
b00010 i
b000 j
b00000000000000000000000000000010 l
b00000000000000000000000000000010000000000000000000000000000000100000000000000100000001111001001100000001000000000000000000010000 m
b00000001000000000000000000010000 q
b00000000000000000000000000000010 r
b00000000000000000000000000000000000000000000000000000000000000000000000000000000000000000000001000000001000000000000000000010000 t
b00000001000000000000000000010000 x
b00000000001000000000011110010011 y
b00000000000000000000000000000000000000000000000000000000000000000000000000100000000001111001001100000001000000000000000000010000 z
b00000 ~
b00010 !!
b00000000000000000000000000000000000000000000000000000000000000000000000000000000000000000000000000000000000000000000000001000000 $!
0L"
#21
b00000000000000000000000000001011 %
b00000001000000000000000000010100 &
b00000000111100010010010000100011 '
b00000001000000000000000000010100 (
b0100011 )
b01000 *
b00010 +
b01111 ,
b010 .
b01000 /
b00000000000000000000000000001000 0
03
17
b00000000000000000000000000001000 =
b00000000000000000000000000001000 >
b00000000000000000000000000010100 B
1L"
#22
b00000000000000000000000000000110 d
b00000001000000000000000000010100 e
b0100011 f
b01000 g
b00010 h
b01111 i
b010 j
b00000000000000000000000000001000 l
b00000000000000000000000000001111000000000000000000000000000010000000000010011110001001000010001100000001000000000000000000010100 m
b00000001000000000000000000010100 q
b00000000000000000000000000001000 r
b00000000000000000000000000000000000000000000000000000000000000000000000000000000000000000000100000000001000000000000000000010100 t
b00000001000000000000000000010100 x
b00000000111100010010010000100011 y
b00000000000000000000000000000000000000000000000000000000000000000000000011110001001001000010001100000001000000000000000000010100 z
b00010 ~
b01111 !!
b00000000000000000000000000000000000000000000000000000000000000000000000000000000000000000000000000000000000000000000000111100010 $!
0L"
#23
b00000000000000000000000000001100 %
b00000001000000000000000000011000 &
b00000000000000010010001000100011 '
b00000001000000000000000000011000 (
b00100 *
b00000 ,
b00100 /
b00000000000000000000000000000100 0
b00000000000000000000000000000100 =
b00000000000000000000000000000100 >
b00000000000000000000000000011000 B
1L"
#24
b00000000000000000000000000000111 d
b00000001000000000000000000011000 e
b00100 g
b00000 i
b00000000000000000000000000000100 l
b00000000000000000000000000000000000000000000000000000000000001000000000010000000001000100010001100000001000000000000000000011000 m
b00000001000000000000000000011000 q
b00000000000000000000000000000100 r
b00000000000000000000000000000000000000000000000000000000000000000000000000000000000000000000010000000001000000000000000000011000 t
b00000001000000000000000000011000 x
b00000000000000010010001000100011 y
b00000000000000000000000000000000000000000000000000000000000000000000000000000001001000100010001100000001000000000000000000011000 z
b00000 !!
b00000000000000000000000000000000000000000000000000000000000000000000000000000000000000000000000000000000000000000000000000000010 $!
0L"
#25
b00000000000000000000000000001101 %
b00000001000000000000000000011100 &
b00000000110000010010011100000011 '
b00000001000000000000000000011100 (
b0000011 )
b01110 *
b01100 ,
b01100 /
b00000000000000000000000000001100 0
13
16
07
b01 8
b00000000000000000000000000001100 =
b00000000000000000000000000001100 >
b00000000000000000000000000011100 B
1L"
#26
b00000000000000000000000000001000 d
b00000001000000000000000000011100 e
b0000011 f
b01110 g
b01100 i
b00000000000000000000000000001100 l
b00000000000000000000000000001100000000000000000000000000000011000000000010011000001001110000001100000001000000000000000000011100 m
b00000001000000000000000000011100 q
b00000000000000000000000000001100 r
b00000000000000000000000000000000000000000000000000000000000000000000000000000000000000000000110000000001000000000000000000011100 t
b00000001000000000000000000011100 x
b00000000110000010010011100000011 y
b00000000000000000000000000000000000000000000000000000000000000000000000011000001001001110000001100000001000000000000000000011100 z
b01100 !!
b00000000000000000000000000000000000000000000000000000000000000000000000000000000000000000000000000000000000000000000000110000010 $!
0L"
#27
b00000000000000000000000000001110 %
b00000001000000000000000000100000 &
b00000000100000010010011110000011 '
b00000001000000000000000000100000 (
b01111 *
b01000 ,
b01000 /
b00000000000000000000000000001000 0
b00000000000000000000000000001000 =
b00000000000000000000000000001000 >
b00000000000000000000000000100000 B
1L"
#28
b00000000000000000000000000001001 d
b00000001000000000000000000100000 e
b01111 g
b01000 i
b00000000000000000000000000001000 l
b00000000000000000000000000001000000000000000000000000000000010000000000010010000001001111000001100000001000000000000000000100000 m
b00000001000000000000000000100000 q
b00000000000000000000000000001000 r
b00000000000000000000000000000000000000000000000000000000000000000000000000000000000000000000100000000001000000000000000000100000 t
b00000001000000000000000000100000 x
b00000000100000010010011110000011 y
b00000000000000000000000000000000000000000000000000000000000000000000000010000001001001111000001100000001000000000000000000100000 z
b01000 !!
b00000000000000000000000000000000000000000000000000000000000000000000000000000000000000000000000000000000000000000000000100000010 $!
0L"
#29
b00000000000000000000000000001111 %
b00000001000000000000000000100100 &
b00000000111101110000011110110011 '
b00000001000000000000000000100100 (
b0110011 )
b01110 +
b01111 ,
b000 .
b00000 /
b00000000000000000000000000000000 0
02
15
06
b00 8
b00000000000000000000000000000000 =
b00000000000000000000000000000000 >
b00000000000000000000000000100100 B
1L"
#30
b00000000000000000000000000001010 d
b00000001000000000000000000100100 e
b0110011 f
b01110 h
b01111 i
b000 j
b00000000000000000000000000000000 l
b00000000000000000000000000001111000000000000000000000000000000000000000000011110111001111011001100000001000000000000000000100100 m
b00000001000000000000000000100100 q
b00000000000000000000000000000000 r
b00000000000000000000000000000000000000000000000000000000000000000000000000000000000000000000000000000001000000000000000000100100 t
b00000001000000000000000000100100 x
b00000000111101110000011110110011 y
b00000000000000000000000000000000000000000000000000000000000000000000000011110111000001111011001100000001000000000000000000100100 z
b01110 ~
b01111 !!
b00000000000000000000000000000000000000000000000000000000000000000000000000000000000000000000000000000000000000000000000111101110 $!
0L"
#31
b00000000000000000000000000010000 %
b00000001000000000000000000101000 &
b00000000111100010010001000100011 '
b00000001000000000000000000101000 (
b0100011 )
b00100 *
b00010 +
b010 .
b00100 /
b00000000000000000000000000000100 0
12
03
05
17
b00000000000000000000000000000100 =
b00000000000000000000000000000100 >
b00000000000000000000000000101000 B
1L"
#32
b00000000000000000000000000001011 d
b00000001000000000000000000101000 e
b0100011 f
b00100 g
b00010 h
b010 j
b00000000000000000000000000000100 l
b00000000000000000000000000001111000000000000000000000000000001000000000010011110001000100010001100000001000000000000000000101000 m
b00000001000000000000000000101000 q
b00000000000000000000000000000100 r
b00000000000000000000000000000000000000000000000000000000000000000000000000000000000000000000010000000001000000000000000000101000 t
b00000001000000000000000000101000 x
b00000000111100010010001000100011 y
b00000000000000000000000000000000000000000000000000000000000000000000000011110001001000100010001100000001000000000000000000101000 z
b00010 ~
b00000000000000000000000000000000000000000000000000000000000000000000000000000000000000000000000000000000000000000000000111100010 $!
0L"
#33
b00000000000000000000000000010001 %
b00000001000000000000000000101100 &
b00000000010000010010010100000011 '
b00000001000000000000000000101100 (
b0000011 )
b01010 *
b00100 ,
13
16
07
b01 8
b00000000000000000000000000101100 B
1L"
#34
b00000000000000000000000000001100 d
b00000001000000000000000000101100 e
b0000011 f
b01010 g
b00100 i
b00000000000000000000000000000100000000000000000000000000000001000000000010001000001001010000001100000001000000000000000000101100 m
b00000001000000000000000000101100 q
b00000000000000000000000000000000000000000000000000000000000000000000000000000000000000000000010000000001000000000000000000101100 t
b00000001000000000000000000101100 x
b00000000010000010010010100000011 y
b00000000000000000000000000000000000000000000000000000000000000000000000001000001001001010000001100000001000000000000000000101100 z
b00100 !!
b00000000000000000000000000000000000000000000000000000000000000000000000000000000000000000000000000000000000000000000000010000010 $!
0L"
#35
b00000000000000000000000000010010 %
b00000001000000000000000000110000 &
b00000001100000000000000011101111 '
b00000001000000000000000000110000 (
b1101111 )
b00001 *
b00000 +
b11000 ,
b000 .
b11000 /
b00000000000000000000000000011000 0
11
04
06
b10 8
b00000001000000000000000000110000 <
b00000000000000000000000000011000 =
b00000001000000000000000001001000 >
b00000000000000000000000000110000 B
1L"
#36
b00000000000000000000000000001101 d
b00000001000000000000000000110000 e
b1101111 f
b00001 g
b00000 h
b11000 i
b000 j
b00000000000000000000000000011000 l
b00000000000000000000000000011000000000000000000000000000000110000000000000110000000000001110111100000001000000000000000000110000 m
b00000001000000000000000000110000 q
b00000001000000000000000001001000 r
b00000000000000000000000000000000000000000000000000000000000000000000000100000000000000000100100000000001000000000000000000110000 t
b00000001000000000000000000110000 x
b00000001100000000000000011101111 y
b00000000000000000000000000000000000000000000000000000000000000000000000110000000000000001110111100000001000000000000000000110000 z
b00000 ~
b11000 !!
b00000000000000000000000000000000000000000000000000000000000000000000000000000000000000000000000000000000000000000000001100000000 $!
0L"
#37
b00000000000000000000000000010011 %
b00000001000000000000000000110100 &
b00000000000001010000011110010011 '
b00000001000000000000000000110100 (
b0010011 )
b01111 *
b01010 +
b00000 ,
b00000 /
b00000000000000000000000000000000 0
01
14
b00 8
b00000000000000000000000000000000 <
b00000000000000000000000000000000 =
b00000000000000000000000000000000 >
b00000000000000000000000000110100 B
1L"
#38
b00000000000000000000000000001110 d
b00000001000000000000000000110100 e
b0010011 f
b01111 g
b01010 h
b00000 i
b00000000000000000000000000000000 l
b00000000000000000000000000000000000000000000000000000000000000000000000000000000101001111001001100000001000000000000000000110100 m
b00000001000000000000000000110100 q
b00000000000000000000000000000000 r
b00000000000000000000000000000000000000000000000000000000000000000000000000000000000000000000000000000001000000000000000000110100 t
b00000001000000000000000000110100 x
b00000000000001010000011110010011 y
b00000000000000000000000000000000000000000000000000000000000000000000000000000101000001111001001100000001000000000000000000110100 z
b01010 ~
b00000 !!
b00000000000000000000000000000000000000000000000000000000000000000000000000000000000000000000000000000000000000000000000000001010 $!
0L"
#39
b00000000000000000000000000010100 %
b00000001000000000000000000111000 &
b00000000000001111000010100010011 '
b00000001000000000000000000111000 (
b01010 *
b01111 +
b00000000000000000000000000111000 B
1L"
#40
b00000000000000000000000000001111 d
b00000001000000000000000000111000 e
b01010 g
b01111 h
b00000000000000000000000000000000000000000000000000000000000000000000000000000000111101010001001100000001000000000000000000111000 m
b00000001000000000000000000111000 q
b00000000000000000000000000000000000000000000000000000000000000000000000000000000000000000000000000000001000000000000000000111000 t
b00000001000000000000000000111000 x
b00000000000001111000010100010011 y
b00000000000000000000000000000000000000000000000000000000000000000000000000000111100001010001001100000001000000000000000000111000 z
b01111 ~
b00000000000000000000000000000000000000000000000000000000000000000000000000000000000000000000000000000000000000000000000000001111 $!
0L"
