project/pd5/verif/sim/verilator/test_pd/5-stage-pipeline.vcd
$version Generated by VerilatedVcd $end
$timescale 1ps $end
 $scope module TOP $end
  $scope module $unit $end
   $var wire 32 d! ZERO [31:0] $end
  $upscope $end
  $scope module top $end
   $var wire 1 ]! clock $end
   $var wire 1 2 reset $end
   $scope module clkg $end
    $var wire 1 ]! clk $end
    $var wire 1 2 rst $end
    $var wire 32 3 counter [31:0] $end
   $upscope $end
   $scope module dut $end
    $var wire 1 ]! clk $end
    $var wire 1 2 reset $end
    $scope module core $end
     $var wire 32 ^! AWIDTH [31:0] $end
     $var wire 32 ^! DWIDTH [31:0] $end
     $var wire 1 ]! clk $end
     $var wire 1 2 reset $end
     $var wire 1 4 load_use $end
     $var wire 1 5 wb_d_haz $end
     $var wire 1 6 hazard $end
     $var wire 1 7 stall $end
     $var wire 1 8 flush $end
     $var wire 32 9 f_d_pc [31:0] $end
     $var wire 32 : f_d_insn [31:0] $end
     $var wire 32 ; d_x_pc [31:0] $end
     $var wire 32 < d_x_insn [31:0] $end
     $var wire 7 = d_x_opcode [6:0] $end
     $var wire 5 > d_x_rd [4:0] $end
     $var wire 5 ? d_x_rs1 [4:0] $end
     $var wire 5 @ d_x_rs2 [4:0] $end
     $var wire 7 A d_x_funct7 [6:0] $end
     $var wire 3 B d_x_funct3 [2:0] $end
     $var wire 32 C d_x_imm [31:0] $end
     $var wire 32 D d_x_rs1data [31:0] $end
     $var wire 32 E d_x_rs2data [31:0] $end
     $var wire 32 F x_m_pc [31:0] $end
     $var wire 7 G x_m_opcode [6:0] $end
     $var wire 3 H x_m_funct3 [2:0] $end
     $var wire 32 I x_m_imm [31:0] $end
     $var wire 32 J x_m_res [31:0] $end
     $var wire 32 K x_m_rs2data [31:0] $end
     $var wire 5 L x_m_rd [4:0] $end
     $var wire 32 M m_w_pc [31:0] $end
     $var wire 32 N m_w_res [31:0] $end
     $var wire 32 O m_w_data [31:0] $end
     $var wire 32 P m_w_imm [31:0] $end
     $var wire 5 Q m_w_rd [4:0] $end
     $var wire 32 R f_pc [31:0] $end
     $var wire 32 S pc [31:0] $end
     $var wire 32 T f_insn [31:0] $end
     $var wire 1 U pc_en $end
     $var wire 7 V d_opcode [6:0] $end
     $var wire 5 W d_rd [4:0] $end
     $var wire 5 X d_rs1 [4:0] $end
     $var wire 5 Y d_rs2 [4:0] $end
     $var wire 7 Z d_funct7 [6:0] $end
     $var wire 3 [ d_funct3 [2:0] $end
     $var wire 5 \ d_shamt [4:0] $end
     $var wire 32 ] d_imm [31:0] $end
     $var wire 32 : d_insn [31:0] $end
     $var wire 32 9 d_pc [31:0] $end
     $var wire 32 ] igen_imm [31:0] $end
     $var wire 32 ^ r_rs1data [31:0] $end
     $var wire 32 _ r_rs2data [31:0] $end
     $var wire 1 ` c_pcsel $end
     $var wire 1 a c_immsel $end
     $var wire 1 b c_regwren $end
     $var wire 1 c c_rs1sel $end
     $var wire 1 d c_rs2sel $end
     $var wire 1 e c_memren $end
     $var wire 1 f c_memwren $end
     $var wire 2 g c_wbsel [1:0] $end
     $var wire 4 h c_alusel [3:0] $end
     $var wire 13 i ctrl_reg[0] [12:0] $end
     $var wire 13 j ctrl_reg[1] [12:0] $end
     $var wire 13 k ctrl_reg[2] [12:0] $end
     $var wire 32 l e_rs1 [31:0] $end
     $var wire 32 m e_rs2 [31:0] $end
     $var wire 32 n e_res [31:0] $end
     $var wire 1 o e_brtaken $end
     $var wire 32 p m_data_o [31:0] $end
     $var wire 1 _! insn_en $end
     $var wire 2 q m_size_encoded [1:0] $end
     $var wire 3 r m_funct3 [2:0] $end
     $var wire 32 s wb_data [31:0] $end
     $var wire 1 @! is_program $end
     $scope module control1 $end
      $var wire 32 ^! DWIDTH [31:0] $end
      $var wire 32 : insn_i [31:0] $end
      $var wire 7 V opcode_i [6:0] $end
      $var wire 7 Z funct7_i [6:0] $end
      $var wire 3 [ funct3_i [2:0] $end
      $var wire 1 ` pcsel_o $end
      $var wire 1 a immsel_o $end
      $var wire 1 b regwren_o $end
      $var wire 1 c rs1sel_o $end
      $var wire 1 d rs2sel_o $end
      $var wire 1 e memren_o $end
      $var wire 1 f memwren_o $end
      $var wire 2 g wbsel_o [1:0] $end
      $var wire 4 h alusel_o [3:0] $end
     $upscope $end
     $scope module decode1 $end
      $var wire 32 ^! DWIDTH [31:0] $end
      $var wire 32 ^! AWIDTH [31:0] $end
      $var wire 1 ]! clk $end
      $var wire 1 2 rst $end
      $var wire 32 : insn_i [31:0] $end
      $var wire 32 9 pc_i [31:0] $end
      $var wire 32 9 pc_o [31:0] $end
      $var wire 32 : insn_o [31:0] $end
      $var wire 7 V opcode_o [6:0] $end
      $var wire 5 W rd_o [4:0] $end
      $var wire 5 X rs1_o [4:0] $end
      $var wire 5 Y rs2_o [4:0] $end
      $var wire 7 Z funct7_o [6:0] $end
      $var wire 3 [ funct3_o [2:0] $end
      $var wire 5 \ shamt_o [4:0] $end
      $var wire 32 ] imm_o [31:0] $end
     $upscope $end
     $scope module e_alu1 $end
      $var wire 32 ^! DWIDTH [31:0] $end
      $var wire 32 ^! AWIDTH [31:0] $end
      $var wire 32 ; pc_i [31:0] $end
      $var wire 32 l rs1_i [31:0] $end
      $var wire 32 m rs2_i [31:0] $end
      $var wire 3 B funct3_i [2:0] $end
      $var wire 7 A funct7_i [6:0] $end
      $var wire 7 = opcode_i [6:0] $end
      $var wire 32 C imm_i [31:0] $end
      $var wire 4 t alusel_i [3:0] $end
      $var wire 32 n res_o [31:0] $end
      $var wire 1 o brtaken_o $end
      $var wire 1 u breq $end
      $var wire 1 v brlt $end
      $scope module bc $end
       $var wire 32 ^! DWIDTH [31:0] $end
       $var wire 7 = opcode_i [6:0] $end
       $var wire 3 B funct3_i [2:0] $end
       $var wire 32 l rs1_i [31:0] $end
       $var wire 32 m rs2_i [31:0] $end
       $var wire 1 u breq_o $end
       $var wire 1 v brlt_o $end
      $upscope $end
     $upscope $end
     $scope module fetch1 $end
      $var wire 32 ^! DWIDTH [31:0] $end
      $var wire 32 ^! AWIDTH [31:0] $end
      $var wire 32 `! BASEADDR [31:0] $end
      $var wire 1 ]! clk $end
      $var wire 1 2 rst $end
      $var wire 1 U pc_en_i $end
      $var wire 32 S pc_o [31:0] $end
      $var wire 32 a! insn_o [31:0] $end
      $var wire 32 S pc [31:0] $end
     $upscope $end
     $scope module igen1 $end
      $var wire 32 ^! DWIDTH [31:0] $end
      $var wire 7 V opcode_i [6:0] $end
      $var wire 32 : insn_i [31:0] $end
      $var wire 32 ] imm_o [31:0] $end
     $upscope $end
     $scope module memory1 $end
      $var wire 32 ^! AWIDTH [31:0] $end
      $var wire 32 ^! DWIDTH [31:0] $end
      $var wire 32 b! BASE_ADDR [31:0] $end
      $var wire 1 ]! clk $end
      $var wire 1 2 rst $end
      $var wire 32 R pc_i [31:0] $end
      $var wire 32 K data_i [31:0] $end
      $var wire 32 J addr_i [31:0] $end
      $var wire 3 r funct3_i [2:0] $end
      $var wire 1 w memren_i $end
      $var wire 1 x memwren_i $end
      $var wire 1 _! insn_en_i $end
      $var wire 32 T insn_o [31:0] $end
      $var wire 32 p data_o [31:0] $end
      $var wire 32 y program_counter [31:0] $end
      $var wire 32 c! MEM_BYTES [31:0] $end
      $var wire 32 # temp_memory[0] [31:0] $end
      $var wire 32 $ temp_memory[1] [31:0] $end
      $var wire 32 % temp_memory[2] [31:0] $end
      $var wire 32 & temp_memory[3] [31:0] $end
      $var wire 32 ' temp_memory[4] [31:0] $end
      $var wire 32 ( temp_memory[5] [31:0] $end
      $var wire 32 ) temp_memory[6] [31:0] $end
      $var wire 32 * temp_memory[7] [31:0] $end
      $var wire 32 + temp_memory[8] [31:0] $end
      $var wire 32 , temp_memory[9] [31:0] $end
      $var wire 32 - temp_memory[10] [31:0] $end
      $var wire 32 . temp_memory[11] [31:0] $end
      $var wire 32 / temp_memory[12] [31:0] $end
      $var wire 32 0 temp_memory[13] [31:0] $end
      $var wire 32 1 i [31:0] $end
      $var wire 32 z address [31:0] $end
     $upscope $end
     $scope module register_file1 $end
      $var wire 32 ^! DWIDTH [31:0] $end
      $var wire 1 ]! clk $end
      $var wire 1 2 rst $end
      $var wire 5 X rs1_i [4:0] $end
      $var wire 5 Y rs2_i [4:0] $end
      $var wire 5 Q rd_i [4:0] $end
      $var wire 32 s datawb_i [31:0] $end
      $var wire 1 { regwren_i $end
      $var wire 32 ^ rs1data_o [31:0] $end
      $var wire 32 _ rs2data_o [31:0] $end
      $var wire 32 | x[0] [31:0] $end
      $var wire 32 } x[1] [31:0] $end
      $var wire 32 ~ x[2] [31:0] $end
      $var wire 32 !! x[3] [31:0] $end
      $var wire 32 "! x[4] [31:0] $end
      $var wire 32 #! x[5] [31:0] $end
      $var wire 32 $! x[6] [31:0] $end
      $var wire 32 %! x[7] [31:0] $end
      $var wire 32 &! x[8] [31:0] $end
      $var wire 32 '! x[9] [31:0] $end
      $var wire 32 (! x[10] [31:0] $end
      $var wire 32 )! x[11] [31:0] $end
      $var wire 32 *! x[12] [31:0] $end
      $var wire 32 +! x[13] [31:0] $end
      $var wire 32 ,! x[14] [31:0] $end
      $var wire 32 -! x[15] [31:0] $end
      $var wire 32 .! x[16] [31:0] $end
      $var wire 32 /! x[17] [31:0] $end
      $var wire 32 0! x[18] [31:0] $end
      $var wire 32 1! x[19] [31:0] $end
      $var wire 32 2! x[20] [31:0] $end
      $var wire 32 3! x[21] [31:0] $end
      $var wire 32 4! x[22] [31:0] $end
      $var wire 32 5! x[23] [31:0] $end
      $var wire 32 6! x[24] [31:0] $end
      $var wire 32 7! x[25] [31:0] $end
      $var wire 32 8! x[26] [31:0] $end
      $var wire 32 9! x[27] [31:0] $end
      $var wire 32 :! x[28] [31:0] $end
      $var wire 32 ;! x[29] [31:0] $end
      $var wire 32 <! x[30] [31:0] $end
      $var wire 32 =! x[31] [31:0] $end
      $scope module unnamedblk1 $end
       $var wire 32 >! i [31:0] $end
      $upscope $end
     $upscope $end
     $scope module wb_wb1 $end
      $var wire 32 ^! DWIDTH [31:0] $end
      $var wire 32 ^! AWIDTH [31:0] $end
      $var wire 32 M pc_i [31:0] $end
      $var wire 32 N alu_res_i [31:0] $end
      $var wire 32 O memory_data_i [31:0] $end
      $var wire 2 ?! wbsel_i [1:0] $end
      $var wire 32 P imm_i [31:0] $end
      $var wire 32 s writeback_data_o [31:0] $end
     $upscope $end
    $upscope $end
   $upscope $end
   $scope module genblk2 $end
    $var wire 768 A! pattern_dump [767:0] $end
    $scope module pattern_dump_proc $end
     $var wire 128 Y! stage [127:0] $end
    $upscope $end
   $upscope $end
  $upscope $end
 $upscope $end
$enddefinitions $end


#0
b00000000101000000000000010010011 #
b00000001010000000000000100010011 $
b00000001111000000000000110010011 %
b00000010100000000000001000010011 &
b00000011001000000000001010010011 '
b00000000000000000000000000010011 (
b00000000000000000000000000010011 )
b00000000000000000000000000010011 *
b00000000000000000000000000010011 +
b00000000000000000000000001110011 ,
b00000000000000000000000000010011 -
b00000000000000000000000000010011 .
b00000000000000000000000000010011 /
b00000000000000000000000000010011 0
b00000000000001000000000000000000 1
12
b00000000000000000000000000000000 3
04
05
06
07
08
b00000000000000000000000000000000 9
b00000000000000000000000000000000 :
b00000000000000000000000000000000 ;
b00000000000000000000000000000000 <
b0000000 =
b00000 >
b00000 ?
b00000 @
b0000000 A
b000 B
b00000000000000000000000000000000 C
b00000000000000000000000000000000 D
b00000000000000000000000000000000 E
b00000000000000000000000000000000 F
b0000000 G
b000 H
b00000000000000000000000000000000 I
b00000001000000000000000000000000 J
b00000000000000000000000000000000 K
b00000 L
b00000000000000000000000000000000 M
b00000000000000000000000000000000 N
b00000000000000000000000000000000 O
b00000000000000000000000000000000 P
b00000 Q
b00000001000000000000000000000000 R
b00000001000000000000000000000000 S
b00000000000000000000000000000000 T
1U
b0000000 V
b00000 W
b00000 X
b00000 Y
b0000000 Z
b000 [
b00000 \
b00000000000000000000000000000000 ]
b00000000000000000000000000000000 ^
b00000000000000000000000000000000 _
0`
0a
0b
0c
0d
0e
0f
b00 g
b1111 h
b0000000000000 i
b0000000000000 j
b0000000000000 k
b00000000000000000000000000000000 l
b00000000000000000000000000000000 m
b00000000000000000000000000000000 n
0o
b00000000000000000000000000000000 p
b00 q
b010 r
b00000000000000000000000000000000 s
b0000 t
0u
0v
0w
0x
b00000000000000000000000000000000 y
b00000000000000000000000000000000 z
0{
b00000000000000000000000000000000 |
b00000000000000000000000000000000 }
b00000000000000000000000000000000 ~
b00000000000000000000000000000000 !!
b00000000000000000000000000000000 "!
b00000000000000000000000000000000 #!
b00000000000000000000000000000000 $!
b00000000000000000000000000000000 %!
b00000000000000000000000000000000 &!
b00000000000000000000000000000000 '!
b00000000000000000000000000000000 (!
b00000000000000000000000000000000 )!
b00000000000000000000000000000000 *!
b00000000000000000000000000000000 +!
b00000000000000000000000000000000 ,!
b00000000000000000000000000000000 -!
b00000000000000000000000000000000 .!
b00000000000000000000000000000000 /!
b00000000000000000000000000000000 0!
b00000000000000000000000000000000 1!
b00000000000000000000000000000000 2!
b00000000000000000000000000000000 3!
b00000000000000000000000000000000 4!
b00000000000000000000000000000000 5!
b00000000000000000000000000000000 6!
b00000000000000000000000000000000 7!
b00000000000000000000000000000000 8!
b00000000000000000000000000000000 9!
b00000000000000000000000000000000 :!
b00000000000000000000000000000000 ;!
b00000000000000000000000000000000 <!
b00000000000000000000000000000000 =!
b00000000000000000000000000000000 >!
b00 ?!
0@!
b000000000000000000000000000000000000000000000000000000000000000000000000000000000000000000000000000000000000000000000000000000000000000000000000000000000000000000000000000000000000000000000000000000000000000000000000000000000000000000000000000000000000000000000000000000000000000000000000000000000000000000000000000000000000000000000000000000000000000000000000000000000000000000000000000000000000000000000000000000000000000000000000000000000000000000000000000000000000000000000000000000000000000000000000000000000000000000000000000000000000000000000000000000000000000000000000000000000000000000000000000000000000000000000000000000000000000000000000000000000000000000000000000000000000000000000000000000000000000000000000000000000000000000000000000000000000000000000000 A!
b00000000000000000000000000000000000000000000000000000000000000000000000000000000000000000000000000000000000000000000000000000000 Y!
0]!
b00000000000000000000000000100000 ^!
1_!
b00000001000000000000000000000000 `!
b00000000000000000000000000000000 a!
b00000001000000000000000000000000 b!
b00000000000100000000000000000000 c!
b00000000000000000000000000000000 d!
#1
b00000000000000000000000000000001 3
b00000000000000000000000000000000 J
b11111111000000000000000000000000 z
b00000001000100000000000000000000 ~
b00000000000000000000000000100000 >!
1]!
#2
0]!
#3
b00000000000000000000000000000010 3
1]!
#4
0]!
#5
b00000000000000000000000000000011 3
1]!
#6
0]!
#7
b00000000000000000000000000000100 3
1]!
#8
0]!
#9
b00000000000000000000000000000101 3
1]!
#10
0]!
#11
02
b00000000000000000000000000000110 3
b00000000101000000000000010010011 T
1]!
#12
b000000000000000000000000000000000000000000000000000000000000000000000000000000000000000000000000000000000000000000000000000000000000000000000000000000000000000000000000000000000000000000000000000000000000000000000000000000000000000000000000000000000000000000000000000000000000000000000000000000000000000000000000000000000000000000000000000000000000000000000000000000000000000000000000000000000000000000000000000000000000000000000000000000000000000000000000000000000000000000000000000000000000000000000000000000000000000000000000000000000000000000000000000000000000000000000000000000000000000000000000000000000000000000000000000000000000000000000000000000000000000000000000000000000000000000000000000000000000000010100000000000001001001100000001000000000000000000000000 A!
0]!
#13
b00000000000000000000000000000111 3
b00000001000000000000000000000000 9
b00000000101000000000000010010011 :
b00000001000000000000000000000100 R
b00000001000000000000000000000100 S
b00000001010000000000000100010011 T
b0010011 V
b00001 W
b01010 \
b00000000000000000000000000001010 ]
1a
1b
1c
b0000 h
b1111000000000 i
b1111 t
b00000000000000000000000000000100 y
1]!
#14
b000000000000000000000000000000000000000000000000000000000000000000000000000000000000000000000000000000000000000000000000000000000000000000000000000000000000000000000000000000000000000000000000000000000000000000000000000000000000000000000000000000000000000000000000000000000000000000000000000000000000000000000000000000000000000000000000000000000000000000000000000000000000000000000000000000000000000000000000000000000000000000000000000000000000000000000000000000000000000000000000000000000000000000000000000000000000000000000000000000000000101000000000000000000000000000001010000000000000000000000000100100110000000100000000000000000000000000000000000000000000000000000000000000000000000000000000000000000000000101000000000000010001001100000001000000000000000000000100 A!
0]!
#15
b00000000000000000000000000001000 3
b00000001000000000000000000000100 9
b00000001010000000000000100010011 :
b00000001000000000000000000000000 ;
b00000000101000000000000010010011 <
b0010011 =
b00001 >
b00000000000000000000000000001010 C
b00000001000000000000000000001000 R
b00000001000000000000000000001000 S
b00000001111000000000000110010011 T
b00010 W
b10100 \
b00000000000000000000000000010100 ]
b0000000001110 i
b1111000000000 j
b00000000000000000000000000001010 m
b00000000000000000000000000001010 n
b0000 t
b00000000000000000000000000001000 y
1]!
#16
b000000000000000000000000000000000000000000000000000000000000000000000000000000000000000000000000000000000000000000000000000000000000000000000000000000000000000000000000000000000000000000000000000000000000000000000000000000000000000000000000000000000000000000000000000000000000000000000000000000000000000000000000000000000000000000000000000000000000101000000001000000000000000000000000000000000000000000000000000000000000000000000000000000000000000000000000000000000000000000000000000000000000000000000000000000000000000000000000000000000001010000000000000000000000000000010100000000000000000000000001000100110000000100000000000000000000010000000000000000000000000000000000000000000000000000000000000000000000000111100000000000011001001100000001000000000000000000001000 A!
0]!
#17
b00000000000000000000000000001001 3
b00000001000000000000000000001000 9
b00000001111000000000000110010011 :
b00000001000000000000000000000100 ;
b00000001010000000000000100010011 <
b00010 >
b00000000000000000000000000010100 C
b00000001000000000000000000000000 F
b0010011 G
b00000000000000000000000000001010 I
b00000000000000000000000000001010 J
b00001 L
b00000001000000000000000000001100 R
b00000001000000000000000000001100 S
b00000010100000000000001000010011 T
b00011 W
b11110 \
b00000000000000000000000000011110 ]
b0000000001110 j
b1111000000000 k
b00000000000000000000000000010100 m
b00000000000000000000000000010100 n
b00000000000000000000000000001100 y
b11111111000000000000000000001010 z
1]!
#18
b000000000000000000000000000000000000000000000000000000000000000000000000000000000000000000000000000000000000000000000000000000000000000000000000000000000000000000000000000000000000000000000000000000000000000000000000000010100000000100000000000000000000000000000000000000000000000000000000000000000000000000000000000000000000000000000000000000000001010000000001000000000000000000000100000000000000000000000000000000000000000000000000000000000000000000000000000000000000000000000000000000000000000000000000000000000000000000000000000000000001111000000000000000000000000000011110000000000000000000000001100100110000000100000000000000000000100000000000000000000000000000000000000000000000000000000000000000000000001010000000000000100001001100000001000000000000000000001100 A!
0]!
#19
b00000000000000000000000000001010 3
b00000001000000000000000000001100 9
b00000010100000000000001000010011 :
b00000001000000000000000000001000 ;
b00000001111000000000000110010011 <
b00011 >
b00000000000000000000000000011110 C
b00000001000000000000000000000100 F
b00000000000000000000000000010100 I
b00000000000000000000000000010100 J
b00010 L
b00000001000000000000000000000000 M
b00000000000000000000000000001010 N
b00000000000000000000000000001010 P
b00001 Q
b00000001000000000000000000010000 R
b00000001000000000000000000010000 S
b00000011001000000000001010010011 T
b00100 W
b0000001 Z
b01000 \
b00000000000000000000000000101000 ]
b0000000001110 k
b00000000000000000000000000011110 m
b00000000000000000000000000011110 n
b00000000000000000000000000001010 s
b00000000000000000000000000010000 y
b11111111000000000000000000010100 z
1{
1]!
#20
b000000000000000000000000000000000000000000000000000000000000000000000000000000000000001010000011000000010000000000000000000000000000000000000000000000000000000000000000000000000000000000000000000000000000000000000000000101000000000100000000000000000000010000000000000000000000000000000000000000000000000000000000000000000000000000000000000000000001111000000001000000000000000000001000000000000000000000000000000000000000000000000000000000000000000000000000000000000000000000000000000000000000000000000000000000000000000000000000000000000000100000000000000000000000000000101000000000100000000000000010000100110000000100000000000000000000110000000000000000000000000000000000000000000000000000000000000000000000001100100000000000101001001100000001000000000000000000010000 A!
b00000000000000000000000000000000000000000000000000000000000000000000000000000000000000101000001100000001000000000000000000000000 Y!
0]!
#21
b00000000000000000000000000001011 3
b00000001000000000000000000010000 9
b00000011001000000000001010010011 :
b00000001000000000000000000001100 ;
b00000010100000000000001000010011 <
b00100 >
b0000001 A
b00000000000000000000000000101000 C
b00000001000000000000000000001000 F
b00000000000000000000000000011110 I
b00000000000000000000000000011110 J
b00011 L
b00000001000000000000000000000100 M
b00000000000000000000000000010100 N
b00000000000000000000000000010100 P
b00010 Q
b00000001000000000000000000010100 R
b00000001000000000000000000010100 S
b00000000000000000000000000010011 T
b00101 W
b10010 \
b00000000000000000000000000110010 ]
b00000000000000000000000000101000 m
b00000000000000000000000000101000 n
b00000000000000000000000000010100 s
b00000000000000000000000000010100 y
b11111111000000000000000000011110 z
b00000000000000000000000000001010 }
1]!
#22
b000000000000000000000000000000000000000000000000000000000000000000000000000000000000010100000101000000010000000000000000000001000000000000000000000000000000000000000000000000000000000000000000000000000000000000000000000111100000000100000000000000000000100000000000000000000000000000000000000000000000000000000000000000000000000000000000000000000010100000000001000000000000000000001100000000000000000000000000000000000000000000000000000000000000000000000000000000000000000000000000000000000000000000000000000000000000000000000000000000000001001000000000000000000000000000110010000000100000000000000010100100110000000100000000000000000001000000000000000000000000000000000000000000000000000000000000000000000000000000000000000000000001001100000001000000000000000000010100 A!
b00000000000000000000000000000000000000000000000000000000000000000000000000000000000001010000010100000001000000000000000000000100 Y!
0]!
#23
b00000000000000000000000000001100 3
b00000001000000000000000000010100 9
b00000000000000000000000000010011 :
b00000001000000000000000000010000 ;
b00000011001000000000001010010011 <
b00101 >
b00000000000000000000000000110010 C
b00000001000000000000000000001100 F
b00000000000000000000000000101000 I
b00000000000000000000000000101000 J
b00100 L
b00000001000000000000000000001000 M
b00000000000000000000000000011110 N
b00000000000000000000000000011110 P
b00011 Q
b00000001000000000000000000011000 R
b00000001000000000000000000011000 S
b00000 W
b0000000 Z
b00000 \
b00000000000000000000000000000000 ]
b00000000000000000000000000110010 m
b00000000000000000000000000110010 n
b00000000000000000000000000011110 s
b00000000000000000000000000011000 y
b11111111000000000000000000101000 z
b00000000000000000000000000010100 ~
1]!
#24
b000000000000000000000000000000000000000000000000000000000000000000000000000000000000011110000111000000010000000000000000000010000000000000000000000000000000000000000000000000000000000000000000000000000000000000000000001010000000000100000000000000000000110000000000000000000000000000000000000000000000000000000000000000000000000000000000000000000011001000000001000000000000000000010000000000000000000000000000000000000000000000000000000000000000000000000000000000000000000000000000000000000000000000000000000000000000000000000000000000000000000000000000000000000000000000000000000000000000000000000000000100110000000100000000000000000001010000000000000000000000000000000000000000000000000000000000000000000000000000000000000000000001001100000001000000000000000000011000 A!
b00000000000000000000000000000000000000000000000000000000000000000000000000000000000001111000011100000001000000000000000000001000 Y!
0]!
#25
b00000000000000000000000000001101 3
b00000001000000000000000000011000 9
b00000001000000000000000000010100 ;
b00000000000000000000000000010011 <
b00000 >
b0000000 A
b00000000000000000000000000000000 C
b00000001000000000000000000010000 F
b00000000000000000000000000110010 I
b00000000000000000000000000110010 J
b00101 L
b00000001000000000000000000001100 M
b00000000000000000000000000101000 N
b00000000000000000000000000101000 P
b00100 Q
b00000001000000000000000000011100 R
b00000001000000000000000000011100 S
b00000000000000000000000000000000 m
b00000000000000000000000000000000 n
b00000000000000000000000000101000 s
b00000000000000000000000000011100 y
b11111111000000000000000000110010 z
b00000000000000000000000000011110 !!
1]!
#26
b000000000000000000000000000000000000000000000000000000000000000000000000000000000000101000001001000000010000000000000000000011000000000000000000000000000000000000000000000000000000000000000000000000000000000000000000001100100000000100000000000000000001000000000000000000000000000000000000000000000000000000000000000000000000000000000000000000000000000000000001000000000000000000010100000000000000000000000000000000000000000000000000000000000000000000000000000000000000000000000000000000000000000000000000000000000000000000000000000000000000000000000000000000000000000000000000000000000000000000000000000100110000000100000000000000000001100000000000000000000000000000000000000000000000000000000000000000000000000000000000000000000001001100000001000000000000000000011100 A!
b00000000000000000000000000000000000000000000000000000000000000000000000000000000000010100000100100000001000000000000000000001100 Y!
0]!
#27
b00000000000000000000000000001110 3
b00000001000000000000000000011100 9
b00000001000000000000000000011000 ;
b00000001000000000000000000010100 F
b00000000000000000000000000000000 I
b00000000000000000000000000000000 J
b00000 L
b00000001000000000000000000010000 M
b00000000000000000000000000110010 N
b00000000000000000000000000110010 P
b00101 Q
b00000001000000000000000000100000 R
b00000001000000000000000000100000 S
b00000000000000000000000000110010 s
b00000000000000000000000000100000 y
b11111111000000000000000000000000 z
b00000000000000000000000000101000 "!
1]!
#28
b000000000000000000000000000000000000000000000000000000000000000000000000000000000000110010001011000000010000000000000000000100000000000000000000000000000000000000000000000000000000000000000000000000000000000000000000000000000000000100000000000000000001010000000000000000000000000000000000000000000000000000000000000000000000000000000000000000000000000000000001000000000000000000011000000000000000000000000000000000000000000000000000000000000000000000000000000000000000000000000000000000000000000000000000000000000000000000000000000000000000000000000000000000000000000000000000000000000000000000000000000100110000000100000000000000000001110000000000000000000000000000000000000000000000000000000000000000000000000000000000000000000001001100000001000000000000000000100000 A!
b00000000000000000000000000000000000000000000000000000000000000000000000000000000000011001000101100000001000000000000000000010000 Y!
0]!
#29
b00000000000000000000000000001111 3
b00000001000000000000000000100000 9
b00000001000000000000000000011100 ;
b00000001000000000000000000011000 F
b00000001000000000000000000010100 M
b00000000000000000000000000000000 N
b00000000000000000000000000000000 P
b00000 Q
b00000001000000000000000000100100 R
b00000001000000000000000000100100 S
b00000000000000000000000001110011 T
b00000000000000000000000000000000 s
b00000000000000000000000000100100 y
b00000000000000000000000000110010 #!
1]!
#30
b000000000000000000000000000000000000000000000000000000000000000000000000000000000000000000000001000000010000000000000000000101000000000000000000000000000000000000000000000000000000000000000000000000000000000000000000000000000000000100000000000000000001100000000000000000000000000000000000000000000000000000000000000000000000000000000000000000000000000000000001000000000000000000011100000000000000000000000000000000000000000000000000000000000000000000000000000000000000000000000000000000000000000000000000000000000000000000000000000000000000000000000000000000000000000000000000000000000000000000000000000100110000000100000000000000000010000000000000000000000000000000000000000000000000000000000000000000000000000000000000000000000111001100000001000000000000000000100100 A!
b00000000000000000000000000000000000000000000000000000000000000000000000000000000000000000000000100000001000000000000000000010100 Y!
0]!
