project/pd5/verif/sim/verilator/test_pd/5-stage-pipeline.vcd
$version Generated by VerilatedVcd $end
$timescale 1ps $end
 $scope module TOP $end
  $scope module $unit $end
   $var wire 32 a! ZERO [31:0] $end
  $upscope $end
  $scope module top $end
   $var wire 1 Z! clock $end
   $var wire 1 2 reset $end
   $scope module clkg $end
    $var wire 1 Z! clk $end
    $var wire 1 2 rst $end
    $var wire 32 3 counter [31:0] $end
   $upscope $end
   $scope module dut $end
    $var wire 1 Z! clk $end
    $var wire 1 2 reset $end
    $scope module core $end
     $var wire 32 [! AWIDTH [31:0] $end
     $var wire 32 [! DWIDTH [31:0] $end
     $var wire 1 Z! clk $end
     $var wire 1 2 reset $end
     $var wire 1 4 c_pcsel $end
     $var wire 1 5 c_immsel $end
     $var wire 1 6 c_regwren $end
     $var wire 1 7 c_rs1sel $end
     $var wire 1 8 c_rs2sel $end
     $var wire 1 9 c_memren $end
     $var wire 1 : c_memwren $end
     $var wire 2 ; c_wbsel [1:0] $end
     $var wire 4 < c_alusel [3:0] $end
     $var wire 13 = ctrl_reg[0] [12:0] $end
     $var wire 13 > ctrl_reg[1] [12:0] $end
     $var wire 13 ? ctrl_reg[2] [12:0] $end
     $var wire 32 @ f_pc [31:0] $end
     $var wire 32 A pc [31:0] $end
     $var wire 32 B f_insn [31:0] $end
     $var wire 32 C f_reg_pc [31:0] $end
     $var wire 32 D f_reg_insn [31:0] $end
     $var wire 7 E d_opcode [6:0] $end
     $var wire 5 F d_rd [4:0] $end
     $var wire 5 G d_rs1 [4:0] $end
     $var wire 5 H d_rs2 [4:0] $end
     $var wire 7 I d_funct7 [6:0] $end
     $var wire 3 J d_funct3 [2:0] $end
     $var wire 5 K d_shamt [4:0] $end
     $var wire 32 L d_imm [31:0] $end
     $var wire 32 L igen_imm [31:0] $end
     $var wire 32 M r_rs1data [31:0] $end
     $var wire 32 N r_rs2data [31:0] $end
     $var wire 32 O d_reg_insn [31:0] $end
     $var wire 7 P d_reg_opcode [6:0] $end
     $var wire 5 Q d_reg_rd [4:0] $end
     $var wire 5 R d_reg_rs1 [4:0] $end
     $var wire 5 S d_reg_rs2 [4:0] $end
     $var wire 7 T d_reg_funct7 [6:0] $end
     $var wire 3 U d_reg_funct3 [2:0] $end
     $var wire 32 V d_reg_imm [31:0] $end
     $var wire 32 W d_reg_pc [31:0] $end
     $var wire 32 X d_reg_rs1data [31:0] $end
     $var wire 32 Y d_reg_rs2data [31:0] $end
     $var wire 32 Z e_rs1 [31:0] $end
     $var wire 32 [ e_rs2 [31:0] $end
     $var wire 32 \ e_res [31:0] $end
     $var wire 1 ] e_brtaken $end
     $var wire 32 ^ e_reg_pc [31:0] $end
     $var wire 7 _ e_reg_opcode [6:0] $end
     $var wire 3 ` e_reg_funct3 [2:0] $end
     $var wire 32 a e_reg_imm [31:0] $end
     $var wire 32 b e_reg_res [31:0] $end
     $var wire 32 c e_reg_rs2data [31:0] $end
     $var wire 5 d e_reg_rd [4:0] $end
     $var wire 1 e e_reg_brtaken $end
     $var wire 32 f m_data_o [31:0] $end
     $var wire 1 \! insn_en $end
     $var wire 2 g m_size_encoded [1:0] $end
     $var wire 3 h m_funct3 [2:0] $end
     $var wire 32 i m_reg_pc [31:0] $end
     $var wire 32 j m_reg_res [31:0] $end
     $var wire 32 k m_reg_data [31:0] $end
     $var wire 32 l m_reg_imm [31:0] $end
     $var wire 5 m m_reg_rd [4:0] $end
     $var wire 32 n wb_data [31:0] $end
     $var wire 32 o wb_reg_data [31:0] $end
     $var wire 5 p wb_reg_rd [4:0] $end
     $var wire 1 =! is_program $end
     $scope module control1 $end
      $var wire 32 [! DWIDTH [31:0] $end
      $var wire 32 D insn_i [31:0] $end
      $var wire 7 E opcode_i [6:0] $end
      $var wire 7 I funct7_i [6:0] $end
      $var wire 3 J funct3_i [2:0] $end
      $var wire 1 4 pcsel_o $end
      $var wire 1 5 immsel_o $end
      $var wire 1 6 regwren_o $end
      $var wire 1 7 rs1sel_o $end
      $var wire 1 8 rs2sel_o $end
      $var wire 1 9 memren_o $end
      $var wire 1 : memwren_o $end
      $var wire 2 ; wbsel_o [1:0] $end
      $var wire 4 < alusel_o [3:0] $end
     $upscope $end
     $scope module decode1 $end
      $var wire 32 [! DWIDTH [31:0] $end
      $var wire 32 [! AWIDTH [31:0] $end
      $var wire 1 Z! clk $end
      $var wire 1 2 rst $end
      $var wire 32 D insn_i [31:0] $end
      $var wire 32 C pc_i [31:0] $end
      $var wire 32 C pc_o [31:0] $end
      $var wire 32 D insn_o [31:0] $end
      $var wire 7 E opcode_o [6:0] $end
      $var wire 5 F rd_o [4:0] $end
      $var wire 5 G rs1_o [4:0] $end
      $var wire 5 H rs2_o [4:0] $end
      $var wire 7 I funct7_o [6:0] $end
      $var wire 3 J funct3_o [2:0] $end
      $var wire 5 K shamt_o [4:0] $end
      $var wire 32 L imm_o [31:0] $end
     $upscope $end
     $scope module e_alu1 $end
      $var wire 32 [! DWIDTH [31:0] $end
      $var wire 32 [! AWIDTH [31:0] $end
      $var wire 32 W pc_i [31:0] $end
      $var wire 32 Z rs1_i [31:0] $end
      $var wire 32 [ rs2_i [31:0] $end
      $var wire 3 U funct3_i [2:0] $end
      $var wire 7 T funct7_i [6:0] $end
      $var wire 7 P opcode_i [6:0] $end
      $var wire 32 V imm_i [31:0] $end
      $var wire 4 q alusel_i [3:0] $end
      $var wire 32 \ res_o [31:0] $end
      $var wire 1 ] brtaken_o $end
      $var wire 1 r breq $end
      $var wire 1 s brlt $end
      $scope module bc $end
       $var wire 32 [! DWIDTH [31:0] $end
       $var wire 7 P opcode_i [6:0] $end
       $var wire 3 U funct3_i [2:0] $end
       $var wire 32 Z rs1_i [31:0] $end
       $var wire 32 [ rs2_i [31:0] $end
       $var wire 1 r breq_o $end
       $var wire 1 s brlt_o $end
      $upscope $end
     $upscope $end
     $scope module fetch1 $end
      $var wire 32 [! DWIDTH [31:0] $end
      $var wire 32 [! AWIDTH [31:0] $end
      $var wire 32 ]! BASEADDR [31:0] $end
      $var wire 1 Z! clk $end
      $var wire 1 2 rst $end
      $var wire 32 A pc_o [31:0] $end
      $var wire 32 ^! insn_o [31:0] $end
      $var wire 32 A pc [31:0] $end
     $upscope $end
     $scope module igen1 $end
      $var wire 32 [! DWIDTH [31:0] $end
      $var wire 7 E opcode_i [6:0] $end
      $var wire 32 D insn_i [31:0] $end
      $var wire 32 L imm_o [31:0] $end
     $upscope $end
     $scope module memory1 $end
      $var wire 32 [! AWIDTH [31:0] $end
      $var wire 32 [! DWIDTH [31:0] $end
      $var wire 32 _! BASE_ADDR [31:0] $end
      $var wire 1 Z! clk $end
      $var wire 1 2 rst $end
      $var wire 32 @ pc_i [31:0] $end
      $var wire 32 c data_i [31:0] $end
      $var wire 32 b addr_i [31:0] $end
      $var wire 3 h funct3_i [2:0] $end
      $var wire 1 t memren_i $end
      $var wire 1 u memwren_i $end
      $var wire 1 \! insn_en_i $end
      $var wire 32 B insn_o [31:0] $end
      $var wire 32 f data_o [31:0] $end
      $var wire 32 v program_counter [31:0] $end
      $var wire 32 `! MEM_BYTES [31:0] $end
      $var wire 32 # temp_memory[0] [31:0] $end
      $var wire 32 $ temp_memory[1] [31:0] $end
      $var wire 32 % temp_memory[2] [31:0] $end
      $var wire 32 & temp_memory[3] [31:0] $end
      $var wire 32 ' temp_memory[4] [31:0] $end
      $var wire 32 ( temp_memory[5] [31:0] $end
      $var wire 32 ) temp_memory[6] [31:0] $end
      $var wire 32 * temp_memory[7] [31:0] $end
      $var wire 32 + temp_memory[8] [31:0] $end
      $var wire 32 , temp_memory[9] [31:0] $end
      $var wire 32 - temp_memory[10] [31:0] $end
      $var wire 32 . temp_memory[11] [31:0] $end
      $var wire 32 / temp_memory[12] [31:0] $end
      $var wire 32 0 temp_memory[13] [31:0] $end
      $var wire 32 1 i [31:0] $end
      $var wire 32 w address [31:0] $end
     $upscope $end
     $scope module register_file1 $end
      $var wire 32 [! DWIDTH [31:0] $end
      $var wire 1 Z! clk $end
      $var wire 1 2 rst $end
      $var wire 5 G rs1_i [4:0] $end
      $var wire 5 H rs2_i [4:0] $end
      $var wire 5 p rd_i [4:0] $end
      $var wire 32 o datawb_i [31:0] $end
      $var wire 1 x regwren_i $end
      $var wire 32 M rs1data_o [31:0] $end
      $var wire 32 N rs2data_o [31:0] $end
      $var wire 32 y x[0] [31:0] $end
      $var wire 32 z x[1] [31:0] $end
      $var wire 32 { x[2] [31:0] $end
      $var wire 32 | x[3] [31:0] $end
      $var wire 32 } x[4] [31:0] $end
      $var wire 32 ~ x[5] [31:0] $end
      $var wire 32 !! x[6] [31:0] $end
      $var wire 32 "! x[7] [31:0] $end
      $var wire 32 #! x[8] [31:0] $end
      $var wire 32 $! x[9] [31:0] $end
      $var wire 32 %! x[10] [31:0] $end
      $var wire 32 &! x[11] [31:0] $end
      $var wire 32 '! x[12] [31:0] $end
      $var wire 32 (! x[13] [31:0] $end
      $var wire 32 )! x[14] [31:0] $end
      $var wire 32 *! x[15] [31:0] $end
      $var wire 32 +! x[16] [31:0] $end
      $var wire 32 ,! x[17] [31:0] $end
      $var wire 32 -! x[18] [31:0] $end
      $var wire 32 .! x[19] [31:0] $end
      $var wire 32 /! x[20] [31:0] $end
      $var wire 32 0! x[21] [31:0] $end
      $var wire 32 1! x[22] [31:0] $end
      $var wire 32 2! x[23] [31:0] $end
      $var wire 32 3! x[24] [31:0] $end
      $var wire 32 4! x[25] [31:0] $end
      $var wire 32 5! x[26] [31:0] $end
      $var wire 32 6! x[27] [31:0] $end
      $var wire 32 7! x[28] [31:0] $end
      $var wire 32 8! x[29] [31:0] $end
      $var wire 32 9! x[30] [31:0] $end
      $var wire 32 :! x[31] [31:0] $end
      $scope module unnamedblk1 $end
       $var wire 32 ;! i [31:0] $end
      $upscope $end
     $upscope $end
     $scope module wb_wb1 $end
      $var wire 32 [! DWIDTH [31:0] $end
      $var wire 32 [! AWIDTH [31:0] $end
      $var wire 32 i pc_i [31:0] $end
      $var wire 32 j alu_res_i [31:0] $end
      $var wire 32 k memory_data_i [31:0] $end
      $var wire 2 <! wbsel_i [1:0] $end
      $var wire 32 l imm_i [31:0] $end
      $var wire 32 n writeback_data_o [31:0] $end
     $upscope $end
    $upscope $end
   $upscope $end
   $scope module genblk2 $end
    $var wire 768 >! pattern_dump [767:0] $end
    $scope module pattern_dump_proc $end
     $var wire 128 V! stage [127:0] $end
    $upscope $end
   $upscope $end
  $upscope $end
 $upscope $end
$enddefinitions $end


#0
b00000000101000000000000010010011 #
b00000001010000000000000100010011 $
b00000001111000000000000110010011 %
b00000010100000000000001000010011 &
b00000011001000000000001010010011 '
b00000000000000000000000000010011 (
b00000000000000000000000000010011 )
b00000000000000000000000000010011 *
b00000000000000000000000000010011 +
b00000000000000000000000001110011 ,
b00000000000000000000000000010011 -
b00000000000000000000000000010011 .
b00000000000000000000000000010011 /
b00000000000000000000000000010011 0
b00000000000001000000000000000000 1
12
b00000000000000000000000000000000 3
04
05
06
07
08
09
0:
b00 ;
b1111 <
b0000000000000 =
b0000000000000 >
b0000000000000 ?
b00000000000000000000000000000000 @
b00000000000000000000000000000000 A
b00000000000000000000000000000000 B
b00000000000000000000000000000000 C
b00000000000000000000000000000000 D
b0000000 E
b00000 F
b00000 G
b00000 H
b0000000 I
b000 J
b00000 K
b00000000000000000000000000000000 L
b00000000000000000000000000000000 M
b00000000000000000000000000000000 N
b00000000000000000000000000000000 O
b0000000 P
b00000 Q
b00000 R
b00000 S
b0000000 T
b000 U
b00000000000000000000000000000000 V
b00000000000000000000000000000000 W
b00000000000000000000000000000000 X
b00000000000000000000000000000000 Y
b00000000000000000000000000000000 Z
b00000000000000000000000000000000 [
b00000000000000000000000000000000 \
0]
b00000000000000000000000000000000 ^
b0000000 _
b000 `
b00000000000000000000000000000000 a
b00000001000000000000000000000000 b
b00000000000000000000000000000000 c
b00000 d
0e
b00000000000000000000000000000000 f
b00 g
b010 h
b00000000000000000000000000000000 i
b00000000000000000000000000000000 j
b00000000000000000000000000000000 k
b00000000000000000000000000000000 l
b00000 m
b00000000000000000000000000000000 n
b00000000000000000000000000000000 o
b00000 p
b0000 q
0r
0s
0t
0u
b11111111000000000000000000000000 v
b00000000000000000000000000000000 w
0x
b00000000000000000000000000000000 y
b00000000000000000000000000000000 z
b00000000000000000000000000000000 {
b00000000000000000000000000000000 |
b00000000000000000000000000000000 }
b00000000000000000000000000000000 ~
b00000000000000000000000000000000 !!
b00000000000000000000000000000000 "!
b00000000000000000000000000000000 #!
b00000000000000000000000000000000 $!
b00000000000000000000000000000000 %!
b00000000000000000000000000000000 &!
b00000000000000000000000000000000 '!
b00000000000000000000000000000000 (!
b00000000000000000000000000000000 )!
b00000000000000000000000000000000 *!
b00000000000000000000000000000000 +!
b00000000000000000000000000000000 ,!
b00000000000000000000000000000000 -!
b00000000000000000000000000000000 .!
b00000000000000000000000000000000 /!
b00000000000000000000000000000000 0!
b00000000000000000000000000000000 1!
b00000000000000000000000000000000 2!
b00000000000000000000000000000000 3!
b00000000000000000000000000000000 4!
b00000000000000000000000000000000 5!
b00000000000000000000000000000000 6!
b00000000000000000000000000000000 7!
b00000000000000000000000000000000 8!
b00000000000000000000000000000000 9!
b00000000000000000000000000000000 :!
b00000000000000000000000000000000 ;!
b00 <!
0=!
b000000000000000000000000000000000000000000000000000000000000000000000000000000000000000000000000000000000000000000000000000000000000000000000000000000000000000000000000000000000000000000000000000000000000000000000000000000000000000000000000000000000000000000000000000000000000000000000000000000000000000000000000000000000000000000000000000000000000000000000000000000000000000000000000000000000000000000000000000000000000000000000000000000000000000000000000000000000000000000000000000000000000000000000000000000000000000000000000000000000000000000000000000000000000000000000000000000000000000000000000000000000000000000000000000000000000000000000000000000000000000000000000000000000000000000000000000000000000000000000000000000000000000000000000000000000000000000000000 >!
b00000000000000000000000000000000000000000000000000000000000000000000000000000000000000000000000000000000000000000000000000000000 V!
0Z!
b00000000000000000000000000100000 [!
1\!
b00000001000000000000000000000000 ]!
b00000000000000000000000000000000 ^!
b00000001000000000000000000000000 _!
b00000000000100000000000000000000 `!
b00000000000000000000000000000000 a!
#1
b00000000000000000000000000000001 3
b00000001000000000000000000000000 @
b00000001000000000000000000000000 A
b00000000000000000000000000000000 b
b00000000000000000000000000000000 v
b11111111000000000000000000000000 w
b00000001000100000000000000000000 {
b00000000000000000000000000100000 ;!
1Z!
#2
0Z!
#3
b00000000000000000000000000000010 3
1Z!
#4
0Z!
#5
b00000000000000000000000000000011 3
1Z!
#6
0Z!
#7
b00000000000000000000000000000100 3
1Z!
#8
0Z!
#9
b00000000000000000000000000000101 3
1Z!
#10
0Z!
#11
02
b00000000000000000000000000000110 3
b00000000101000000000000010010011 B
1Z!
#12
b000000000000000000000000000000000000000000000000000000000000000000000000000000000000000000000000000000000000000000000000000000000000000000000000000000000000000000000000000000000000000000000000000000000000000000000000000000000000000000000000000000000000000000000000000000000000000000000000000000000000000000000000000000000000000000000000000000000000000000000000000000000000000000000000000000000000000000000000000000000000000000000000000000000000000000000000000000000000000000000000000000000000000000000000000000000000000000000000000000000000000000000000000000000000000000000000000000000000000000000000000000000000000000000000000000000000000000000000000000000000000000000000000000000000000000000000000000000000000010100000000000001001001100000001000000000000000000000000 >!
0Z!
#13
b00000000000000000000000000000111 3
15
16
17
b0000 <
b1111000000000 =
b00000001000000000000000000000100 @
b00000001000000000000000000000100 A
b00000001010000000000000100010011 B
b00000001000000000000000000000000 C
b00000000101000000000000010010011 D
b0010011 E
b00001 F
b01010 K
b00000000000000000000000000001010 L
b1111 q
b00000000000000000000000000000100 v
1Z!
#14
b000000000000000000000000000000000000000000000000000000000000000000000000000000000000000000000000000000000000000000000000000000000000000000000000000000000000000000000000000000000000000000000000000000000000000000000000000000000000000000000000000000000000000000000000000000000000000000000000000000000000000000000000000000000000000000000000000000000000000000000000000000000000000000000000000000000000000000000000000000000000000000000000000000000000000000000000000000000000000000000000000000000000000000000000000000000000000000000000000000000000101000000000000000000000000000001010000000000000000000000000100100110000000100000000000000000000000000000000000000000000000000000000000000000000000000000000000000000000000101000000000000010001001100000001000000000000000000000100 >!
0Z!
#15
b00000000000000000000000000001000 3
b0000000001110 =
b1111000000000 >
b00000001000000000000000000001000 @
b00000001000000000000000000001000 A
b00000001111000000000000110010011 B
b00000001000000000000000000000100 C
b00000001010000000000000100010011 D
b00010 F
b10100 K
b00000000000000000000000000010100 L
b00000000101000000000000010010011 O
b0010011 P
b00001 Q
b00000000000000000000000000001010 V
b00000001000000000000000000000000 W
b00000000000000000000000000001010 [
b00000000000000000000000000001010 \
b0000 q
b00000000000000000000000000001000 v
1Z!
#16
b000000000000000000000000000000000000000000000000000000000000000000000000000000000000000000000000000000000000000000000000000000000000000000000000000000000000000000000000000000000000000000000000000000000000000000000000000000000000000000000000000000000000000000000000000000000000000000000000000000000000000000000000000000000000000000000000000000000000101000000001000000000000000000000000000000000000000000000000000000000000000000000000000000000000000000000000000000000000000000000000000000000000000000000000000000000000000000000000000000000001010000000000000000000000000000010100000000000000000000000001000100110000000100000000000000000000010000000000000000000000000000000000000000000000000000000000000000000000000111100000000000011001001100000001000000000000000000001000 >!
0Z!
#17
b00000000000000000000000000001001 3
b0000000001110 >
b1111000000000 ?
b00000001000000000000000000001100 @
b00000001000000000000000000001100 A
b00000010100000000000001000010011 B
b00000001000000000000000000001000 C
b00000001111000000000000110010011 D
b00011 F
b11110 K
b00000000000000000000000000011110 L
b00000001010000000000000100010011 O
b00010 Q
b00000000000000000000000000010100 V
b00000001000000000000000000000100 W
b00000000000000000000000000010100 [
b00000000000000000000000000010100 \
b00000001000000000000000000000000 ^
b0010011 _
b00000000000000000000000000001010 a
b00000000000000000000000000001010 b
b00001 d
b00000000000000000000000000001100 v
b11111111000000000000000000001010 w
1Z!
#18
b000000000000000000000000000000000000000000000000000000000000000000000000000000000000000000000000000000000000000000000000000000000000000000000000000000000000000000000000000000000000000000000000000000000000000000000000000010100000000100000000000000000000000000000000000000000000000000000000000000000000000000000000000000000000000000000000000000000001010000000001000000000000000000000100000000000000000000000000000000000000000000000000000000000000000000000000000000000000000000000000000000000000000000000000000000000000000000000000000000000001111000000000000000000000000000011110000000000000000000000001100100110000000100000000000000000000100000000000000000000000000000000000000000000000000000000000000000000000001010000000000000100001001100000001000000000000000000001100 >!
0Z!
#19
b00000000000000000000000000001010 3
b0000000001110 ?
b00000001000000000000000000010000 @
b00000001000000000000000000010000 A
b00000011001000000000001010010011 B
b00000001000000000000000000001100 C
b00000010100000000000001000010011 D
b00100 F
b0000001 I
b01000 K
b00000000000000000000000000101000 L
b00000001111000000000000110010011 O
b00011 Q
b00000000000000000000000000011110 V
b00000001000000000000000000001000 W
b00000000000000000000000000011110 [
b00000000000000000000000000011110 \
b00000001000000000000000000000100 ^
b00000000000000000000000000010100 a
b00000000000000000000000000010100 b
b00010 d
b00000001000000000000000000000000 i
b00000000000000000000000000001010 j
b00000000000000000000000000001010 l
b00001 m
b00000000000000000000000000001010 n
b00000000000000000000000000010000 v
b11111111000000000000000000010100 w
1x
1Z!
#20
b000000000000000000000000000000000000000000000000000000000000000000000000000000000000001010000011000000010000000000000000000000000000000000000000000000000000000000000000000000000000000000000000000000000000000000000000000101000000000100000000000000000000010000000000000000000000000000000000000000000000000000000000000000000000000000000000000000000001111000000001000000000000000000001000000000000000000000000000000000000000000000000000000000000000000000000000000000000000000000000000000000000000000000000000000000000000000000000000000000000000100000000000000000000000000000101000000000100000000000000010000100110000000100000000000000000000110000000000000000000000000000000000000000000000000000000000000000000000001100100000000000101001001100000001000000000000000000010000 >!
b00000000000000000000000000000000000000000000000000000000000000000000000000000000000000101000001100000001000000000000000000000000 V!
0Z!
#21
b00000000000000000000000000001011 3
b00000001000000000000000000010100 @
b00000001000000000000000000010100 A
b00000000000000000000000000010011 B
b00000001000000000000000000010000 C
b00000011001000000000001010010011 D
b00101 F
b10010 K
b00000000000000000000000000110010 L
b00000010100000000000001000010011 O
b00100 Q
b0000001 T
b00000000000000000000000000101000 V
b00000001000000000000000000001100 W
b00000000000000000000000000101000 [
b00000000000000000000000000101000 \
b00000001000000000000000000001000 ^
b00000000000000000000000000011110 a
b00000000000000000000000000011110 b
b00011 d
b00000001000000000000000000000100 i
b00000000000000000000000000010100 j
b00000000000000000000000000010100 l
b00010 m
b00000000000000000000000000010100 n
b00000000000000000000000000001010 o
b00001 p
b00000000000000000000000000010100 v
b11111111000000000000000000011110 w
1Z!
#22
b000000000000000000000000000000000000000000000000000000000000000000000000000000000000010100000101000000010000000000000000000001000000000000000000000000000000000000000000000000000000000000000000000000000000000000000000000111100000000100000000000000000000100000000000000000000000000000000000000000000000000000000000000000000000000000000000000000000010100000000001000000000000000000001100000000000000000000000000000000000000000000000000000000000000000000000000000000000000000000000000000000000000000000000000000000000000000000000000000000000001001000000000000000000000000000110010000000100000000000000010100100110000000100000000000000000001000000000000000000000000000000000000000000000000000000000000000000000000000000000000000000000001001100000001000000000000000000010100 >!
b00000000000000000000000000000000000000000000000000000000000000000000000000000000000001010000010100000001000000000000000000000100 V!
0Z!
#23
b00000000000000000000000000001100 3
b00000001000000000000000000011000 @
b00000001000000000000000000011000 A
b00000001000000000000000000010100 C
b00000000000000000000000000010011 D
b00000 F
b0000000 I
b00000 K
b00000000000000000000000000000000 L
b00000011001000000000001010010011 O
b00101 Q
b00000000000000000000000000110010 V
b00000001000000000000000000010000 W
b00000000000000000000000000110010 [
b00000000000000000000000000110010 \
b00000001000000000000000000001100 ^
b00000000000000000000000000101000 a
b00000000000000000000000000101000 b
b00100 d
b00000001000000000000000000001000 i
b00000000000000000000000000011110 j
b00000000000000000000000000011110 l
b00011 m
b00000000000000000000000000011110 n
b00000000000000000000000000010100 o
b00010 p
b00000000000000000000000000011000 v
b11111111000000000000000000101000 w
b00000000000000000000000000001010 z
1Z!
#24
b000000000000000000000000000000000000000000000000000000000000000000000000000000000000011110000111000000010000000000000000000010000000000000000000000000000000000000000000000000000000000000000000000000000000000000000000001010000000000100000000000000000000110000000000000000000000000000000000000000000000000000000000000000000000000000000000000000000011001000000001000000000000000000010000000000000000000000000000000000000000000000000000000000000000000000000000000000000000000000000000000000000000000000000000000000000000000000000000000000000000000000000000000000000000000000000000000000000000000000000000000100110000000100000000000000000001010000000000000000000000000000000000000000000000000000000000000000000000000000000000000000000001001100000001000000000000000000011000 >!
b00000000000000000000000000000000000000000000000000000000000000000000000000000000000001111000011100000001000000000000000000001000 V!
0Z!
#25
b00000000000000000000000000001101 3
b00000001000000000000000000011100 @
b00000001000000000000000000011100 A
b00000001000000000000000000011000 C
b00000000000000000000000000010011 O
b00000 Q
b0000000 T
b00000000000000000000000000000000 V
b00000001000000000000000000010100 W
b00000000000000000000000000000000 [
b00000000000000000000000000000000 \
b00000001000000000000000000010000 ^
b00000000000000000000000000110010 a
b00000000000000000000000000110010 b
b00101 d
b00000001000000000000000000001100 i
b00000000000000000000000000101000 j
b00000000000000000000000000101000 l
b00100 m
b00000000000000000000000000101000 n
b00000000000000000000000000011110 o
b00011 p
b00000000000000000000000000011100 v
b11111111000000000000000000110010 w
b00000000000000000000000000010100 {
1Z!
#26
b000000000000000000000000000000000000000000000000000000000000000000000000000000000000101000001001000000010000000000000000000011000000000000000000000000000000000000000000000000000000000000000000000000000000000000000000001100100000000100000000000000000001000000000000000000000000000000000000000000000000000000000000000000000000000000000000000000000000000000000001000000000000000000010100000000000000000000000000000000000000000000000000000000000000000000000000000000000000000000000000000000000000000000000000000000000000000000000000000000000000000000000000000000000000000000000000000000000000000000000000000100110000000100000000000000000001100000000000000000000000000000000000000000000000000000000000000000000000000000000000000000000001001100000001000000000000000000011100 >!
b00000000000000000000000000000000000000000000000000000000000000000000000000000000000010100000100100000001000000000000000000001100 V!
0Z!
#27
b00000000000000000000000000001110 3
b00000001000000000000000000100000 @
b00000001000000000000000000100000 A
b00000001000000000000000000011100 C
b00000001000000000000000000011000 W
b00000001000000000000000000010100 ^
b00000000000000000000000000000000 a
b00000000000000000000000000000000 b
b00000 d
b00000001000000000000000000010000 i
b00000000000000000000000000110010 j
b00000000000000000000000000110010 l
b00101 m
b00000000000000000000000000110010 n
b00000000000000000000000000101000 o
b00100 p
b00000000000000000000000000100000 v
b11111111000000000000000000000000 w
b00000000000000000000000000011110 |
1Z!
#28
b000000000000000000000000000000000000000000000000000000000000000000000000000000000000110010001011000000010000000000000000000100000000000000000000000000000000000000000000000000000000000000000000000000000000000000000000000000000000000100000000000000000001010000000000000000000000000000000000000000000000000000000000000000000000000000000000000000000000000000000001000000000000000000011000000000000000000000000000000000000000000000000000000000000000000000000000000000000000000000000000000000000000000000000000000000000000000000000000000000000000000000000000000000000000000000000000000000000000000000000000000100110000000100000000000000000001110000000000000000000000000000000000000000000000000000000000000000000000000000000000000000000001001100000001000000000000000000100000 >!
b00000000000000000000000000000000000000000000000000000000000000000000000000000000000011001000101100000001000000000000000000010000 V!
0Z!
#29
b00000000000000000000000000001111 3
b00000001000000000000000000100100 @
b00000001000000000000000000100100 A
b00000000000000000000000001110011 B
b00000001000000000000000000100000 C
b00000001000000000000000000011100 W
b00000001000000000000000000011000 ^
b00000001000000000000000000010100 i
b00000000000000000000000000000000 j
b00000000000000000000000000000000 l
b00000 m
b00000000000000000000000000000000 n
b00000000000000000000000000110010 o
b00101 p
b00000000000000000000000000100100 v
b00000000000000000000000000101000 }
1Z!
#30
b000000000000000000000000000000000000000000000000000000000000000000000000000000000000000000000001000000010000000000000000000101000000000000000000000000000000000000000000000000000000000000000000000000000000000000000000000000000000000100000000000000000001100000000000000000000000000000000000000000000000000000000000000000000000000000000000000000000000000000000001000000000000000000011100000000000000000000000000000000000000000000000000000000000000000000000000000000000000000000000000000000000000000000000000000000000000000000000000000000000000000000000000000000000000000000000000000000000000000000000000000100110000000100000000000000000010000000000000000000000000000000000000000000000000000000000000000000000000000000000000000000000111001100000001000000000000000000100100 >!
b00000000000000000000000000000000000000000000000000000000000000000000000000000000000000000000000100000001000000000000000000010100 V!
0Z!
