project/pd5/verif/sim/verilator/test_pd/load-use-stall.vcd
$version Generated by VerilatedVcd $end
$timescale 1ps $end
 $scope module TOP $end
  $scope module $unit $end
   $var wire 32 t! ZERO [31:0] $end
  $upscope $end
  $scope module top $end
   $var wire 1 m! clock $end
   $var wire 1 : reset $end
   $scope module clkg $end
    $var wire 1 m! clk $end
    $var wire 1 : rst $end
    $var wire 32 ; counter [31:0] $end
   $upscope $end
   $scope module dut $end
    $var wire 1 m! clk $end
    $var wire 1 : reset $end
    $scope module core $end
     $var wire 32 n! AWIDTH [31:0] $end
     $var wire 32 n! DWIDTH [31:0] $end
     $var wire 1 m! clk $end
     $var wire 1 : reset $end
     $var wire 1 < load_use $end
     $var wire 1 = wb_d_haz $end
     $var wire 1 > hazard $end
     $var wire 1 ? stall $end
     $var wire 1 @ flush $end
     $var wire 1 A mx_bypass_rs1 $end
     $var wire 1 B mx_bypass_rs2 $end
     $var wire 1 C wx_bypass_rs1 $end
     $var wire 1 D wx_bypass_rs2 $end
     $var wire 1 E wm_bypass $end
     $var wire 32 F f_d_pc [31:0] $end
     $var wire 32 G f_d_insn [31:0] $end
     $var wire 32 H d_x_pc [31:0] $end
     $var wire 32 I d_x_insn [31:0] $end
     $var wire 7 J d_x_opcode [6:0] $end
     $var wire 5 K d_x_rd [4:0] $end
     $var wire 5 L d_x_rs1 [4:0] $end
     $var wire 5 M d_x_rs2 [4:0] $end
     $var wire 7 N d_x_funct7 [6:0] $end
     $var wire 3 O d_x_funct3 [2:0] $end
     $var wire 32 P d_x_imm [31:0] $end
     $var wire 32 Q d_x_rs1data [31:0] $end
     $var wire 32 R d_x_rs2data [31:0] $end
     $var wire 32 S x_m_pc [31:0] $end
     $var wire 7 T x_m_opcode [6:0] $end
     $var wire 3 U x_m_funct3 [2:0] $end
     $var wire 32 V x_m_imm [31:0] $end
     $var wire 32 W x_m_res [31:0] $end
     $var wire 32 X x_m_rs2data [31:0] $end
     $var wire 5 Y x_m_rd [4:0] $end
     $var wire 1 Z x_m_brtaken $end
     $var wire 5 [ x_m_rs2 [4:0] $end
     $var wire 32 \ m_w_pc [31:0] $end
     $var wire 32 ] m_w_res [31:0] $end
     $var wire 32 ^ m_w_data [31:0] $end
     $var wire 32 _ m_w_imm [31:0] $end
     $var wire 5 ` m_w_rd [4:0] $end
     $var wire 32 a f_pc [31:0] $end
     $var wire 32 b pc [31:0] $end
     $var wire 32 c f_insn [31:0] $end
     $var wire 1 d pc_en $end
     $var wire 7 e d_opcode [6:0] $end
     $var wire 5 f d_rd [4:0] $end
     $var wire 5 g d_rs1 [4:0] $end
     $var wire 5 h d_rs2 [4:0] $end
     $var wire 7 i d_funct7 [6:0] $end
     $var wire 3 j d_funct3 [2:0] $end
     $var wire 5 k d_shamt [4:0] $end
     $var wire 32 l d_imm [31:0] $end
     $var wire 32 G d_insn [31:0] $end
     $var wire 32 F d_pc [31:0] $end
     $var wire 32 l igen_imm [31:0] $end
     $var wire 32 m r_rs1data [31:0] $end
     $var wire 32 n r_rs2data [31:0] $end
     $var wire 1 o c_pcsel $end
     $var wire 1 p c_immsel $end
     $var wire 1 q c_regwren $end
     $var wire 1 r c_rs1sel $end
     $var wire 1 s c_rs2sel $end
     $var wire 1 t c_memren $end
     $var wire 1 u c_memwren $end
     $var wire 2 v c_wbsel [1:0] $end
     $var wire 4 w c_alusel [3:0] $end
     $var wire 13 x ctrl_reg[0] [12:0] $end
     $var wire 13 y ctrl_reg[1] [12:0] $end
     $var wire 13 z ctrl_reg[2] [12:0] $end
     $var wire 32 { e_rs1 [31:0] $end
     $var wire 32 | e_rs2 [31:0] $end
     $var wire 32 } e_res [31:0] $end
     $var wire 1 ~ e_brtaken $end
     $var wire 32 !! m_data_o [31:0] $end
     $var wire 1 o! insn_en $end
     $var wire 2 "! m_size_encoded [1:0] $end
     $var wire 3 #! m_funct3 [2:0] $end
     $var wire 32 $! addr_data [31:0] $end
     $var wire 32 %! wb_data [31:0] $end
     $var wire 1 P! is_program $end
     $scope module control1 $end
      $var wire 32 n! DWIDTH [31:0] $end
      $var wire 32 G insn_i [31:0] $end
      $var wire 7 e opcode_i [6:0] $end
      $var wire 7 i funct7_i [6:0] $end
      $var wire 3 j funct3_i [2:0] $end
      $var wire 1 o pcsel_o $end
      $var wire 1 p immsel_o $end
      $var wire 1 q regwren_o $end
      $var wire 1 r rs1sel_o $end
      $var wire 1 s rs2sel_o $end
      $var wire 1 t memren_o $end
      $var wire 1 u memwren_o $end
      $var wire 2 v wbsel_o [1:0] $end
      $var wire 4 w alusel_o [3:0] $end
     $upscope $end
     $scope module decode1 $end
      $var wire 32 n! DWIDTH [31:0] $end
      $var wire 32 n! AWIDTH [31:0] $end
      $var wire 1 m! clk $end
      $var wire 1 : rst $end
      $var wire 32 G insn_i [31:0] $end
      $var wire 32 F pc_i [31:0] $end
      $var wire 32 F pc_o [31:0] $end
      $var wire 32 G insn_o [31:0] $end
      $var wire 7 e opcode_o [6:0] $end
      $var wire 5 f rd_o [4:0] $end
      $var wire 5 g rs1_o [4:0] $end
      $var wire 5 h rs2_o [4:0] $end
      $var wire 7 i funct7_o [6:0] $end
      $var wire 3 j funct3_o [2:0] $end
      $var wire 5 k shamt_o [4:0] $end
      $var wire 32 l imm_o [31:0] $end
     $upscope $end
     $scope module e_alu1 $end
      $var wire 32 n! DWIDTH [31:0] $end
      $var wire 32 n! AWIDTH [31:0] $end
      $var wire 32 H pc_i [31:0] $end
      $var wire 32 { rs1_i [31:0] $end
      $var wire 32 | rs2_i [31:0] $end
      $var wire 3 O funct3_i [2:0] $end
      $var wire 7 N funct7_i [6:0] $end
      $var wire 7 J opcode_i [6:0] $end
      $var wire 32 P imm_i [31:0] $end
      $var wire 4 &! alusel_i [3:0] $end
      $var wire 32 } res_o [31:0] $end
      $var wire 1 ~ brtaken_o $end
      $var wire 1 '! breq $end
      $var wire 1 (! brlt $end
      $scope module bc $end
       $var wire 32 n! DWIDTH [31:0] $end
       $var wire 7 J opcode_i [6:0] $end
       $var wire 3 O funct3_i [2:0] $end
       $var wire 32 { rs1_i [31:0] $end
       $var wire 32 | rs2_i [31:0] $end
       $var wire 1 '! breq_o $end
       $var wire 1 (! brlt_o $end
      $upscope $end
     $upscope $end
     $scope module fetch1 $end
      $var wire 32 n! DWIDTH [31:0] $end
      $var wire 32 n! AWIDTH [31:0] $end
      $var wire 32 p! BASEADDR [31:0] $end
      $var wire 1 m! clk $end
      $var wire 1 : rst $end
      $var wire 1 d pc_en_i $end
      $var wire 32 b pc_o [31:0] $end
      $var wire 32 q! insn_o [31:0] $end
      $var wire 32 b pc [31:0] $end
     $upscope $end
     $scope module igen1 $end
      $var wire 32 n! DWIDTH [31:0] $end
      $var wire 7 e opcode_i [6:0] $end
      $var wire 32 G insn_i [31:0] $end
      $var wire 32 l imm_o [31:0] $end
     $upscope $end
     $scope module memory1 $end
      $var wire 32 n! AWIDTH [31:0] $end
      $var wire 32 n! DWIDTH [31:0] $end
      $var wire 32 r! BASE_ADDR [31:0] $end
      $var wire 1 m! clk $end
      $var wire 1 : rst $end
      $var wire 32 a pc_i [31:0] $end
      $var wire 32 X data_i [31:0] $end
      $var wire 32 $! addr_i [31:0] $end
      $var wire 3 #! funct3_i [2:0] $end
      $var wire 1 )! memren_i $end
      $var wire 1 *! memwren_i $end
      $var wire 1 o! insn_en_i $end
      $var wire 32 c insn_o [31:0] $end
      $var wire 32 !! data_o [31:0] $end
      $var wire 32 +! program_counter [31:0] $end
      $var wire 32 s! MEM_BYTES [31:0] $end
      $var wire 32 # temp_memory[0] [31:0] $end
      $var wire 32 $ temp_memory[1] [31:0] $end
      $var wire 32 % temp_memory[2] [31:0] $end
      $var wire 32 & temp_memory[3] [31:0] $end
      $var wire 32 ' temp_memory[4] [31:0] $end
      $var wire 32 ( temp_memory[5] [31:0] $end
      $var wire 32 ) temp_memory[6] [31:0] $end
      $var wire 32 * temp_memory[7] [31:0] $end
      $var wire 32 + temp_memory[8] [31:0] $end
      $var wire 32 , temp_memory[9] [31:0] $end
      $var wire 32 - temp_memory[10] [31:0] $end
      $var wire 32 . temp_memory[11] [31:0] $end
      $var wire 32 / temp_memory[12] [31:0] $end
      $var wire 32 0 temp_memory[13] [31:0] $end
      $var wire 32 1 temp_memory[14] [31:0] $end
      $var wire 32 2 temp_memory[15] [31:0] $end
      $var wire 32 3 temp_memory[16] [31:0] $end
      $var wire 32 4 temp_memory[17] [31:0] $end
      $var wire 32 5 temp_memory[18] [31:0] $end
      $var wire 32 6 temp_memory[19] [31:0] $end
      $var wire 32 7 temp_memory[20] [31:0] $end
      $var wire 32 8 temp_memory[21] [31:0] $end
      $var wire 32 9 i [31:0] $end
      $var wire 32 ,! address [31:0] $end
     $upscope $end
     $scope module register_file1 $end
      $var wire 32 n! DWIDTH [31:0] $end
      $var wire 1 m! clk $end
      $var wire 1 : rst $end
      $var wire 5 g rs1_i [4:0] $end
      $var wire 5 h rs2_i [4:0] $end
      $var wire 5 ` rd_i [4:0] $end
      $var wire 32 %! datawb_i [31:0] $end
      $var wire 1 -! regwren_i $end
      $var wire 32 m rs1data_o [31:0] $end
      $var wire 32 n rs2data_o [31:0] $end
      $var wire 32 .! x[0] [31:0] $end
      $var wire 32 /! x[1] [31:0] $end
      $var wire 32 0! x[2] [31:0] $end
      $var wire 32 1! x[3] [31:0] $end
      $var wire 32 2! x[4] [31:0] $end
      $var wire 32 3! x[5] [31:0] $end
      $var wire 32 4! x[6] [31:0] $end
      $var wire 32 5! x[7] [31:0] $end
      $var wire 32 6! x[8] [31:0] $end
      $var wire 32 7! x[9] [31:0] $end
      $var wire 32 8! x[10] [31:0] $end
      $var wire 32 9! x[11] [31:0] $end
      $var wire 32 :! x[12] [31:0] $end
      $var wire 32 ;! x[13] [31:0] $end
      $var wire 32 <! x[14] [31:0] $end
      $var wire 32 =! x[15] [31:0] $end
      $var wire 32 >! x[16] [31:0] $end
      $var wire 32 ?! x[17] [31:0] $end
      $var wire 32 @! x[18] [31:0] $end
      $var wire 32 A! x[19] [31:0] $end
      $var wire 32 B! x[20] [31:0] $end
      $var wire 32 C! x[21] [31:0] $end
      $var wire 32 D! x[22] [31:0] $end
      $var wire 32 E! x[23] [31:0] $end
      $var wire 32 F! x[24] [31:0] $end
      $var wire 32 G! x[25] [31:0] $end
      $var wire 32 H! x[26] [31:0] $end
      $var wire 32 I! x[27] [31:0] $end
      $var wire 32 J! x[28] [31:0] $end
      $var wire 32 K! x[29] [31:0] $end
      $var wire 32 L! x[30] [31:0] $end
      $var wire 32 M! x[31] [31:0] $end
      $scope module unnamedblk1 $end
       $var wire 32 N! i [31:0] $end
      $upscope $end
     $upscope $end
     $scope module stall_flush $end
      $var wire 1 > hazard_i $end
      $var wire 1 ~ brtaken_i $end
      $var wire 1 d pc_en_o $end
      $var wire 1 ? stall_o $end
      $var wire 1 @ flush_o $end
     $upscope $end
     $scope module wb_wb1 $end
      $var wire 32 n! DWIDTH [31:0] $end
      $var wire 32 n! AWIDTH [31:0] $end
      $var wire 32 \ pc_i [31:0] $end
      $var wire 32 ] alu_res_i [31:0] $end
      $var wire 32 ^ memory_data_i [31:0] $end
      $var wire 2 O! wbsel_i [1:0] $end
      $var wire 32 _ imm_i [31:0] $end
      $var wire 32 %! writeback_data_o [31:0] $end
     $upscope $end
    $upscope $end
   $upscope $end
   $scope module genblk2 $end
    $var wire 768 Q! pattern_dump [767:0] $end
    $scope module pattern_dump_proc $end
     $var wire 128 i! stage [127:0] $end
    $upscope $end
   $upscope $end
  $upscope $end
 $upscope $end
$enddefinitions $end


#0
b11111111100000010000000100010011 #
b00000000000000000000000000010011 $
b00000000000000000000000000010011 %
b00000000000000000000000000010011 &
b00000000000000000000000000010011 '
b00000000101000000000000110010011 (
b00000000000000000000000000010011 )
b00000000000000000000000000010011 *
b00000000000000000000000000010011 +
b00000000000000000000000000010011 ,
b00000000001100010010000000100011 -
b00000000000000010010001000000011 .
b00000000000000100000001010010011 /
b00000000000000000000000000010011 0
b00000000000000000000000000010011 1
b00000000000000000000000000010011 2
b00000000000000000000000000010011 3
b00000000000000000000000001110011 4
b00000000000000000000000000010011 5
b00000000000000000000000000010011 6
b00000000000000000000000000010011 7
b00000000000000000000000000010011 8
b00000000000001000000000000000000 9
1:
b00000000000000000000000000000000 ;
0<
0=
0>
0?
0@
0A
0B
0C
0D
0E
b00000000000000000000000000000000 F
b00000000000000000000000000000000 G
b00000000000000000000000000000000 H
b00000000000000000000000000000000 I
b0000000 J
b00000 K
b00000 L
b00000 M
b0000000 N
b000 O
b00000000000000000000000000000000 P
b00000000000000000000000000000000 Q
b00000000000000000000000000000000 R
b00000000000000000000000000000000 S
b0000000 T
b000 U
b00000000000000000000000000000000 V
b00000000000000000000000000000000 W
b00000000000000000000000000000000 X
b00000 Y
0Z
b00000 [
b00000000000000000000000000000000 \
b00000000000000000000000000000000 ]
b00000000000000000000000000000000 ^
b00000000000000000000000000000000 _
b00000 `
b00000001000000000000000000000000 a
b00000001000000000000000000000000 b
b00000000000000000000000000000000 c
1d
b0000000 e
b00000 f
b00000 g
b00000 h
b0000000 i
b000 j
b00000 k
b00000000000000000000000000000000 l
b00000000000000000000000000000000 m
b00000000000000000000000000000000 n
0o
0p
0q
0r
0s
0t
0u
b00 v
b1111 w
b0000000000000 x
b0000000000000 y
b0000000000000 z
b00000000000000000000000000000000 {
b00000000000000000000000000000000 |
b00000000000000000000000000000000 }
0~
b00000000000000000000000000000000 !!
b00 "!
b010 #!
b00000000000000000000000000000000 $!
b00000000000000000000000000000000 %!
b0000 &!
0'!
0(!
0)!
0*!
b00000000000000000000000000000000 +!
b11111111000000000000000000000000 ,!
0-!
b00000000000000000000000000000000 .!
b00000000000000000000000000000000 /!
b00000000000000000000000000000000 0!
b00000000000000000000000000000000 1!
b00000000000000000000000000000000 2!
b00000000000000000000000000000000 3!
b00000000000000000000000000000000 4!
b00000000000000000000000000000000 5!
b00000000000000000000000000000000 6!
b00000000000000000000000000000000 7!
b00000000000000000000000000000000 8!
b00000000000000000000000000000000 9!
b00000000000000000000000000000000 :!
b00000000000000000000000000000000 ;!
b00000000000000000000000000000000 <!
b00000000000000000000000000000000 =!
b00000000000000000000000000000000 >!
b00000000000000000000000000000000 ?!
b00000000000000000000000000000000 @!
b00000000000000000000000000000000 A!
b00000000000000000000000000000000 B!
b00000000000000000000000000000000 C!
b00000000000000000000000000000000 D!
b00000000000000000000000000000000 E!
b00000000000000000000000000000000 F!
b00000000000000000000000000000000 G!
b00000000000000000000000000000000 H!
b00000000000000000000000000000000 I!
b00000000000000000000000000000000 J!
b00000000000000000000000000000000 K!
b00000000000000000000000000000000 L!
b00000000000000000000000000000000 M!
b00000000000000000000000000000000 N!
b00 O!
0P!
b000000000000000000000000000000000000000000000000000000000000000000000000000000000000000000000000000000000000000000000000000000000000000000000000000000000000000000000000000000000000000000000000000000000000000000000000000000000000000000000000000000000000000000000000000000000000000000000000000000000000000000000000000000000000000000000000000000000000000000000000000000000000000000000000000000000000000000000000000000000000000000000000000000000000000000000000000000000000000000000000000000000000000000000000000000000000000000000000000000000000000000000000000000000000000000000000000000000000000000000000000000000000000000000000000000000000000000000000000000000000000000000000000000000000000000000000000000000000000000000000000000000000000000000000000000000000000000000000 Q!
b00000000000000000000000000000000000000000000000000000000000000000000000000000000000000000000000000000000000000000000000000000000 i!
0m!
b00000000000000000000000000100000 n!
1o!
b00000001000000000000000000000000 p!
b00000000000000000000000000000000 q!
b00000001000000000000000000000000 r!
b00000000000100000000000000000000 s!
b00000000000000000000000000000000 t!
#1
b00000000000000000000000000000001 ;
b00000001000100000000000000000000 0!
b00000000000000000000000000100000 N!
1m!
#2
0m!
#3
b00000000000000000000000000000010 ;
1m!
#4
0m!
#5
b00000000000000000000000000000011 ;
1m!
#6
0m!
#7
b00000000000000000000000000000100 ;
1m!
#8
0m!
#9
b00000000000000000000000000000101 ;
1m!
#10
0m!
#11
0:
b00000000000000000000000000000110 ;
b11111111100000010000000100010011 c
1m!
#12
b000000000000000000000000000000000000000000000000000000000000000000000000000000000000000000000000000000000000000000000000000000000000000000000000000000000000000000000000000000000000000000000000000000000000000000000000000000000000000000000000000000000000000000000000000000000000000000000000000000000000000000000000000000000000000000000000000000000000000000000000000000000000000000000000000000000000000000000000000000000000000000000000000000000000000000000000000000000000000000000000000000000000000000000000000000000000000000000000000000000000000000000000000000000000000000000000000000000000000000000000000000000000000000000000000000000000000000000000000000000000000000000000000000000000000000000000000000001111111110000001000000010001001100000001000000000000000000000000 Q!
0m!
#13
b00000000000000000000000000000111 ;
b00000001000000000000000000000000 F
b11111111100000010000000100010011 G
b00000001000000000000000000000100 a
b00000001000000000000000000000100 b
b00000000000000000000000000010011 c
b0010011 e
b00010 f
b00010 g
b1111111 i
b11000 k
b11111111111111111111111111111000 l
b00000001000100000000000000000000 m
1p
1q
1r
b0000 w
b1111000000000 x
b1111 &!
b00000000000000000000000000000100 +!
1m!
#14
b000000000000000000000000000000000000000000000000000000000000000000000000000000000000000000000000000000000000000000000000000000000000000000000000000000000000000000000000000000000000000000000000000000000000000000000000000000000000000000000000000000000000000000000000000000000000000000000000000000000000000000000000000000000000000000000000000000000000000000000000000000000000000000000000000000000000000000000000000000000000000000000000000000000000000000000000000000000000000000000100010000000000000000000000000000100000000000000000000000000001100011111111111111111111111111111000111111100000000000100001000100110000000100000000000000000000000000000000000000000000000000000000000000000000000000000000000000000000000000000000000000000001001100000001000000000000000000000100 Q!
0m!
#15
b00000000000000000000000000001000 ;
b00000001000000000000000000000100 F
b00000000000000000000000000010011 G
b00000001000000000000000000000000 H
b11111111100000010000000100010011 I
b0010011 J
b00010 K
b00010 L
b1111111 N
b11111111111111111111111111111000 P
b00000001000100000000000000000000 Q
b00000001000000000000000000001000 a
b00000001000000000000000000001000 b
b00000 f
b00000 g
b0000000 i
b00000 k
b00000000000000000000000000000000 l
b00000000000000000000000000000000 m
b0000000001110 x
b1111000000000 y
b00000001000100000000000000000000 {
b11111111111111111111111111111000 |
b00000001000011111111111111111000 }
b0000 &!
b00000000000000000000000000001000 +!
1m!
#16
b000000000000000000000000000000000000000000000000000000000000000000000000000000000000000000000000000000000000000000000000000000000000000000000000000000000000000000000000000000000000000000000000000000000000000000000000000000000000000000000000000000000000000000000000000000000000000000000000000000000000000000000000000000000000000100001111111111111111100000000001000000000000000000000000000000000000000000000000000000000000000000000000000000000000000000000000000000000000000000000000000000000000000000000000000000000000000000000000000000000000000000000000000000000000000000000000000000000000000000000000000100110000000100000000000000000000010000000000000000000000000000000000000000000000000000000000000000000000000000000000000000000001001100000001000000000000000000001000 Q!
0m!
#17
b00000000000000000000000000001001 ;
b00000001000000000000000000001000 F
b00000001000000000000000000000100 H
b00000000000000000000000000010011 I
b00000 K
b00000 L
b0000000 N
b00000000000000000000000000000000 P
b00000000000000000000000000000000 Q
b00000001000000000000000000000000 S
b0010011 T
b11111111111111111111111111111000 V
b00000001000011111111111111111000 W
b00010 Y
b00000001000000000000000000001100 a
b00000001000000000000000000001100 b
b0000000001110 y
b1111000000000 z
b00000000000000000000000000000000 {
b00000000000000000000000000000000 |
b00000000000000000000000000000000 }
b00000001000011111111111111111000 $!
b00000000000000000000000000001100 +!
b00000000000011111111111111111000 ,!
1m!
#18
b000000000000000000000000000000000000000000000000000000000000000000000000000000000000000000000000000000000000000000000000000000000000000000000000000000000000000000000000000000000000000000000000000000010000111111111111111110000000000100000000000000000000000000000000000000000000000000000000000000000000000000000000000000000000000000000000000000000000000000000001000000000000000000000100000000000000000000000000000000000000000000000000000000000000000000000000000000000000000000000000000000000000000000000000000000000000000000000000000000000000000000000000000000000000000000000000000000000000000000000000000100110000000100000000000000000000100000000000000000000000000000000000000000000000000000000000000000000000000000000000000000000001001100000001000000000000000000001100 Q!
0m!
#19
b00000000000000000000000000001010 ;
b00000001000000000000000000001100 F
b00000001000000000000000000001000 H
b00000001000000000000000000000100 S
b00000000000000000000000000000000 V
b00000000000000000000000000000000 W
b00000 Y
b00000001000000000000000000000000 \
b00000001000011111111111111111000 ]
b11111111111111111111111111111000 _
b00010 `
b00000001000000000000000000010000 a
b00000001000000000000000000010000 b
b0000000001110 z
b00000000000000000000000000000000 $!
b00000001000011111111111111111000 %!
b00000000000000000000000000010000 +!
b11111111000000000000000000000000 ,!
1-!
1m!
#20
b000000000000000000000000000000000000000000000000000000000000000001000011111111111111111000000101000000010000000000000000000000000000000000000000000000000000000000000000000000000000000000000000000000000000000000000000000000000000000100000000000000000000010000000000000000000000000000000000000000000000000000000000000000000000000000000000000000000000000000000001000000000000000000001000000000000000000000000000000000000000000000000000000000000000000000000000000000000000000000000000000000000000000000000000000000000000000000000000000000000000000000000000000000000000000000000000000000000000000000000000000100110000000100000000000000000000110000000000000000000000000000000000000000000000000000000000000000000000000000000000000000000001001100000001000000000000000000010000 Q!
b00000000000000000000000000000000000000000000000000000000000000000100001111111111111111100000010100000001000000000000000000000000 i!
0m!
#21
b00000000000000000000000000001011 ;
b00000001000000000000000000010000 F
b00000001000000000000000000001100 H
b00000001000000000000000000001000 S
b00000001000000000000000000000100 \
b00000000000000000000000000000000 ]
b00000000000000000000000000000000 _
b00000 `
b00000001000000000000000000010100 a
b00000001000000000000000000010100 b
b00000000101000000000000110010011 c
b00000000000000000000000000000000 %!
b00000000000000000000000000010100 +!
b00000001000011111111111111111000 0!
1m!
#22
b000000000000000000000000000000000000000000000000000000000000000000000000000000000000000000000001000000010000000000000000000001000000000000000000000000000000000000000000000000000000000000000000000000000000000000000000000000000000000100000000000000000000100000000000000000000000000000000000000000000000000000000000000000000000000000000000000000000000000000000001000000000000000000001100000000000000000000000000000000000000000000000000000000000000000000000000000000000000000000000000000000000000000000000000000000000000000000000000000000000000000000000000000000000000000000000000000000000000000000000000000100110000000100000000000000000001000000000000000000000000000000000000000000000000000000000000000000000000000010100000000000011001001100000001000000000000000000010100 Q!
b00000000000000000000000000000000000000000000000000000000000000000000000000000000000000000000000100000001000000000000000000000100 i!
0m!
#23
b00000000000000000000000000001100 ;
b00000001000000000000000000010100 F
b00000000101000000000000110010011 G
b00000001000000000000000000010000 H
b00000001000000000000000000001100 S
b00000001000000000000000000001000 \
b00000001000000000000000000011000 a
b00000001000000000000000000011000 b
b00000000000000000000000000010011 c
b00011 f
b01010 k
b00000000000000000000000000001010 l
b00000000000000000000000000011000 +!
1m!
#24
b000000000000000000000000000000000000000000000000000000000000000000000000000000000000000000000001000000010000000000000000000010000000000000000000000000000000000000000000000000000000000000000000000000000000000000000000000000000000000100000000000000000000110000000000000000000000000000000000000000000000000000000000000000000000000000000000000000000000000000000001000000000000000000010000000000000000000000000000000000000000000000000000000000000000000000000000000000000000000000000000000000000000000000000000000000000000000000000000000000000000101000000000000000000000000000001010000000000000000000000001100100110000000100000000000000000001010000000000000000000000000000000000000000000000000000000000000000000000000000000000000000000001001100000001000000000000000000011000 Q!
b00000000000000000000000000000000000000000000000000000000000000000000000000000000000000000000000100000001000000000000000000001000 i!
0m!
#25
b00000000000000000000000000001101 ;
b00000001000000000000000000011000 F
b00000000000000000000000000010011 G
b00000001000000000000000000010100 H
b00000000101000000000000110010011 I
b00011 K
b00000000000000000000000000001010 P
b00000001000000000000000000010000 S
b00000001000000000000000000001100 \
b00000001000000000000000000011100 a
b00000001000000000000000000011100 b
b00000 f
b00000 k
b00000000000000000000000000000000 l
b00000000000000000000000000001010 |
b00000000000000000000000000001010 }
b00000000000000000000000000011100 +!
1m!
#26
b000000000000000000000000000000000000000000000000000000000000000000000000000000000000000000000001000000010000000000000000000011000000000000000000000000000000000000000000000000000000000000000000000000000000000000000000000000000000000100000000000000000001000000000000000000000000000000000000000000000000000000000000000000000000000000000000000000000000101000000001000000000000000000010100000000000000000000000000000000000000000000000000000000000000000000000000000000000000000000000000000000000000000000000000000000000000000000000000000000000000000000000000000000000000000000000000000000000000000000000000000100110000000100000000000000000001100000000000000000000000000000000000000000000000000000000000000000000000000000000000000000000001001100000001000000000000000000011100 Q!
b00000000000000000000000000000000000000000000000000000000000000000000000000000000000000000000000100000001000000000000000000001100 i!
0m!
#27
b00000000000000000000000000001110 ;
b00000001000000000000000000011100 F
b00000001000000000000000000011000 H
b00000000000000000000000000010011 I
b00000 K
b00000000000000000000000000000000 P
b00000001000000000000000000010100 S
b00000000000000000000000000001010 V
b00000000000000000000000000001010 W
b00011 Y
b00000001000000000000000000010000 \
b00000001000000000000000000100000 a
b00000001000000000000000000100000 b
b00000000000000000000000000000000 |
b00000000000000000000000000000000 }
b00000000000000000000000000001010 $!
b00000000000000000000000000100000 +!
b11111111000000000000000000001010 ,!
1m!
#28
b000000000000000000000000000000000000000000000000000000000000000000000000000000000000000000000001000000010000000000000000000100000000000000000000000000000000000000000000000000000000000000000000000000000000000000000000000010100000000100000000000000000001010000000000000000000000000000000000000000000000000000000000000000000000000000000000000000000000000000000001000000000000000000011000000000000000000000000000000000000000000000000000000000000000000000000000000000000000000000000000000000000000000000000000000000000000000000000000000000000000000000000000000000000000000000000000000000000000000000000000000100110000000100000000000000000001110000000000000000000000000000000000000000000000000000000000000000000000000000000000000000000001001100000001000000000000000000100000 Q!
b00000000000000000000000000000000000000000000000000000000000000000000000000000000000000000000000100000001000000000000000000010000 i!
0m!
#29
b00000000000000000000000000001111 ;
b00000001000000000000000000100000 F
b00000001000000000000000000011100 H
b00000001000000000000000000011000 S
b00000000000000000000000000000000 V
b00000000000000000000000000000000 W
b00000 Y
b00000001000000000000000000010100 \
b00000000000000000000000000001010 ]
b00000000000000000000000000001010 _
b00011 `
b00000001000000000000000000100100 a
b00000001000000000000000000100100 b
b00000000000000000000000000000000 $!
b00000000000000000000000000001010 %!
b00000000000000000000000000100100 +!
b11111111000000000000000000000000 ,!
1m!
#30
b000000000000000000000000000000000000000000000000000000000000000000000000000000000000001010000111000000010000000000000000000101000000000000000000000000000000000000000000000000000000000000000000000000000000000000000000000000000000000100000000000000000001100000000000000000000000000000000000000000000000000000000000000000000000000000000000000000000000000000000001000000000000000000011100000000000000000000000000000000000000000000000000000000000000000000000000000000000000000000000000000000000000000000000000000000000000000000000000000000000000000000000000000000000000000000000000000000000000000000000000000100110000000100000000000000000010000000000000000000000000000000000000000000000000000000000000000000000000000000000000000000000001001100000001000000000000000000100100 Q!
b00000000000000000000000000000000000000000000000000000000000000000000000000000000000000101000011100000001000000000000000000010100 i!
0m!
#31
b00000000000000000000000000010000 ;
b00000001000000000000000000100100 F
b00000001000000000000000000100000 H
b00000001000000000000000000011100 S
b00000001000000000000000000011000 \
b00000000000000000000000000000000 ]
b00000000000000000000000000000000 _
b00000 `
b00000001000000000000000000101000 a
b00000001000000000000000000101000 b
b00000000001100010010000000100011 c
b00000000000000000000000000000000 %!
b00000000000000000000000000101000 +!
b00000000000000000000000000001010 1!
1m!
#32
b000000000000000000000000000000000000000000000000000000000000000000000000000000000000000000000001000000010000000000000000000110000000000000000000000000000000000000000000000000000000000000000000000000000000000000000000000000000000000100000000000000000001110000000000000000000000000000000000000000000000000000000000000000000000000000000000000000000000000000000001000000000000000000100000000000000000000000000000000000000000000000000000000000000000000000000000000000000000000000000000000000000000000000000000000000000000000000000000000000000000000000000000000000000000000000000000000000000000000000000000000100110000000100000000000000000010010000000000000000000000000000000000000000000000000000000000000000000000000000110001001000000010001100000001000000000000000000101000 Q!
b00000000000000000000000000000000000000000000000000000000000000000000000000000000000000000000000100000001000000000000000000011000 i!
0m!
#33
b00000000000000000000000000010001 ;
b00000001000000000000000000101000 F
b00000000001100010010000000100011 G
b00000001000000000000000000100100 H
b00000001000000000000000000100000 S
b00000001000000000000000000011100 \
b00000001000000000000000000101100 a
b00000001000000000000000000101100 b
b00000000000000010010001000000011 c
b0100011 e
b00010 g
b00011 h
b010 j
b00000001000011111111111111111000 m
b00000000000000000000000000001010 n
0q
1u
b00000000000000000000000000101100 +!
1m!
#34
b000000000000000000000000000000000000000000000000000000000000000000000000000000000000000000000001000000010000000000000000000111000000000000000000000000000000000000000000000000000000000000000000000000000000000000000000000000000000000100000000000000000010000000000000000000000000000000000000000000000000000000000000000000000000000000000000000000000000000000000001000000000000000000100100000000000000000000000000000000000000000000000000000000000000000000000000000000000010100000000100001111111111111111100000011000100000000000000000000000000000000000000000000000000000000000000000000000001000011000100000001000110000000100000000000000000010100000000000000000000000000000000000000000000000000000000000000000000000000000000001001000100000001100000001000000000000000000101100 Q!
b00000000000000000000000000000000000000000000000000000000000000000000000000000000000000000000000100000001000000000000000000011100 i!
0m!
#35
b00000000000000000000000000010010 ;
b00000001000000000000000000101100 F
b00000000000000010010001000000011 G
b00000001000000000000000000101000 H
b00000000001100010010000000100011 I
b0100011 J
b00010 L
b00011 M
b010 O
b00000001000011111111111111111000 Q
b00000000000000000000000000001010 R
b00000001000000000000000000100100 S
b00000001000000000000000000100000 \
b00000001000000000000000000110000 a
b00000001000000000000000000110000 b
b00000000000000100000001010010011 c
b0000011 e
b00100 f
b00000 h
b00000000000000000000000000000000 n
1q
1t
0u
b01 v
b0000001001010 x
b00000001000011111111111111111000 {
b00000001000011111111111111111000 }
b00000000000000000000000000110000 +!
1m!
