project/pd5/verif/sim/verilator/test_pd/test3.vcd
$version Generated by VerilatedVcd $end
$timescale 1ps $end
 $scope module TOP $end
  $scope module $unit $end
   $var wire 32 D# ZERO [31:0] $end
  $upscope $end
  $scope module top $end
   $var wire 1 2# clock $end
   $var wire 1 $ reset $end
   $scope module clkg $end
    $var wire 1 2# clk $end
    $var wire 1 $ rst $end
    $var wire 32 % counter [31:0] $end
   $upscope $end
   $scope module dut $end
    $var wire 1 2# clk $end
    $var wire 1 $ reset $end
    $scope module core $end
     $var wire 32 3# AWIDTH [31:0] $end
     $var wire 32 3# DWIDTH [31:0] $end
     $var wire 1 2# clk $end
     $var wire 1 $ reset $end
     $var wire 1 & load_use $end
     $var wire 1 4# wb_d_haz $end
     $var wire 1 ' hazard $end
     $var wire 1 ( stall $end
     $var wire 1 ) flush $end
     $var wire 1 * mx_bypass_rs1 $end
     $var wire 1 + mx_bypass_rs2 $end
     $var wire 1 , wx_bypass_rs1 $end
     $var wire 1 - wx_bypass_rs2 $end
     $var wire 1 . wm_bypass $end
     $var wire 32 / f_d_pc [31:0] $end
     $var wire 32 0 f_d_insn [31:0] $end
     $var wire 32 1 d_x_pc [31:0] $end
     $var wire 32 2 d_x_insn [31:0] $end
     $var wire 7 3 d_x_opcode [6:0] $end
     $var wire 5 4 d_x_rd [4:0] $end
     $var wire 5 5 d_x_rs1 [4:0] $end
     $var wire 5 6 d_x_rs2 [4:0] $end
     $var wire 7 7 d_x_funct7 [6:0] $end
     $var wire 3 8 d_x_funct3 [2:0] $end
     $var wire 32 9 d_x_imm [31:0] $end
     $var wire 32 : d_x_rs1data [31:0] $end
     $var wire 32 ; d_x_rs2data [31:0] $end
     $var wire 32 < x_m_pc [31:0] $end
     $var wire 7 = x_m_opcode [6:0] $end
     $var wire 3 > x_m_funct3 [2:0] $end
     $var wire 32 ? x_m_imm [31:0] $end
     $var wire 32 @ x_m_res [31:0] $end
     $var wire 32 A x_m_rs2data [31:0] $end
     $var wire 5 B x_m_rd [4:0] $end
     $var wire 1 C x_m_brtaken $end
     $var wire 5 D x_m_rs2 [4:0] $end
     $var wire 32 E m_w_pc [31:0] $end
     $var wire 32 F m_w_res [31:0] $end
     $var wire 32 G m_w_data [31:0] $end
     $var wire 32 H m_w_imm [31:0] $end
     $var wire 5 I m_w_rd [4:0] $end
     $var wire 32 J f_pc [31:0] $end
     $var wire 32 K pc [31:0] $end
     $var wire 32 L f_insn [31:0] $end
     $var wire 1 M pc_en $end
     $var wire 7 N d_opcode [6:0] $end
     $var wire 5 O d_rd [4:0] $end
     $var wire 5 P d_rs1 [4:0] $end
     $var wire 5 Q d_rs2 [4:0] $end
     $var wire 7 R d_funct7 [6:0] $end
     $var wire 3 S d_funct3 [2:0] $end
     $var wire 5 T d_shamt [4:0] $end
     $var wire 32 U d_imm [31:0] $end
     $var wire 32 0 d_insn [31:0] $end
     $var wire 32 / d_pc [31:0] $end
     $var wire 32 U igen_imm [31:0] $end
     $var wire 32 V r_rs1data [31:0] $end
     $var wire 32 W r_rs2data [31:0] $end
     $var wire 1 X c_pcsel $end
     $var wire 1 Y c_immsel $end
     $var wire 1 Z c_regwren $end
     $var wire 1 [ c_rs1sel $end
     $var wire 1 \ c_rs2sel $end
     $var wire 1 ] c_memren $end
     $var wire 1 ^ c_memwren $end
     $var wire 2 _ c_wbsel [1:0] $end
     $var wire 4 ` c_alusel [3:0] $end
     $var wire 13 a ctrl_reg[0] [12:0] $end
     $var wire 13 b ctrl_reg[1] [12:0] $end
     $var wire 13 c ctrl_reg[2] [12:0] $end
     $var wire 32 d e_rs1 [31:0] $end
     $var wire 32 e e_rs2 [31:0] $end
     $var wire 32 f e_res [31:0] $end
     $var wire 1 g e_brtaken $end
     $var wire 32 h m_data_o [31:0] $end
     $var wire 1 5# insn_en $end
     $var wire 2 i m_size_encoded [1:0] $end
     $var wire 3 j m_funct3 [2:0] $end
     $var wire 32 k addr_data [31:0] $end
     $var wire 32 l wb_data [31:0] $end
     $var wire 1 9! is_program $end
     $scope module control1 $end
      $var wire 32 3# DWIDTH [31:0] $end
      $var wire 32 0 insn_i [31:0] $end
      $var wire 7 N opcode_i [6:0] $end
      $var wire 7 R funct7_i [6:0] $end
      $var wire 3 S funct3_i [2:0] $end
      $var wire 1 X pcsel_o $end
      $var wire 1 Y immsel_o $end
      $var wire 1 Z regwren_o $end
      $var wire 1 [ rs1sel_o $end
      $var wire 1 \ rs2sel_o $end
      $var wire 1 ] memren_o $end
      $var wire 1 ^ memwren_o $end
      $var wire 2 _ wbsel_o [1:0] $end
      $var wire 4 ` alusel_o [3:0] $end
     $upscope $end
     $scope module decode1 $end
      $var wire 32 3# DWIDTH [31:0] $end
      $var wire 32 3# AWIDTH [31:0] $end
      $var wire 1 2# clk $end
      $var wire 1 $ rst $end
      $var wire 32 0 insn_i [31:0] $end
      $var wire 32 / pc_i [31:0] $end
      $var wire 32 / pc_o [31:0] $end
      $var wire 32 0 insn_o [31:0] $end
      $var wire 7 N opcode_o [6:0] $end
      $var wire 5 O rd_o [4:0] $end
      $var wire 5 P rs1_o [4:0] $end
      $var wire 5 Q rs2_o [4:0] $end
      $var wire 7 R funct7_o [6:0] $end
      $var wire 3 S funct3_o [2:0] $end
      $var wire 5 T shamt_o [4:0] $end
      $var wire 32 U imm_o [31:0] $end
     $upscope $end
     $scope module e_alu1 $end
      $var wire 32 3# DWIDTH [31:0] $end
      $var wire 32 3# AWIDTH [31:0] $end
      $var wire 32 1 pc_i [31:0] $end
      $var wire 32 d rs1_i [31:0] $end
      $var wire 32 e rs2_i [31:0] $end
      $var wire 3 8 funct3_i [2:0] $end
      $var wire 7 7 funct7_i [6:0] $end
      $var wire 7 3 opcode_i [6:0] $end
      $var wire 32 9 imm_i [31:0] $end
      $var wire 4 m alusel_i [3:0] $end
      $var wire 32 f res_o [31:0] $end
      $var wire 1 g brtaken_o $end
      $var wire 1 n breq $end
      $var wire 1 o brlt $end
      $scope module bc $end
       $var wire 32 3# DWIDTH [31:0] $end
       $var wire 7 3 opcode_i [6:0] $end
       $var wire 3 8 funct3_i [2:0] $end
       $var wire 32 d rs1_i [31:0] $end
       $var wire 32 e rs2_i [31:0] $end
       $var wire 1 n breq_o $end
       $var wire 1 o brlt_o $end
      $upscope $end
     $upscope $end
     $scope module fetch1 $end
      $var wire 32 3# DWIDTH [31:0] $end
      $var wire 32 3# AWIDTH [31:0] $end
      $var wire 32 6# BASEADDR [31:0] $end
      $var wire 1 2# clk $end
      $var wire 1 $ rst $end
      $var wire 1 M pc_en_i $end
      $var wire 32 K pc_o [31:0] $end
      $var wire 32 7# insn_o [31:0] $end
      $var wire 32 K pc [31:0] $end
     $upscope $end
     $scope module igen1 $end
      $var wire 32 3# DWIDTH [31:0] $end
      $var wire 7 N opcode_i [6:0] $end
      $var wire 32 0 insn_i [31:0] $end
      $var wire 32 U imm_o [31:0] $end
     $upscope $end
     $scope module memory1 $end
      $var wire 32 3# AWIDTH [31:0] $end
      $var wire 32 3# DWIDTH [31:0] $end
      $var wire 32 8# BASE_ADDR [31:0] $end
      $var wire 1 2# clk $end
      $var wire 1 $ rst $end
      $var wire 32 J pc_i [31:0] $end
      $var wire 32 A data_i [31:0] $end
      $var wire 32 k addr_i [31:0] $end
      $var wire 3 j funct3_i [2:0] $end
      $var wire 1 p memren_i $end
      $var wire 1 q memwren_i $end
      $var wire 1 5# insn_en_i $end
      $var wire 32 L insn_o [31:0] $end
      $var wire 32 h data_o [31:0] $end
      $var wire 32 r program_counter [31:0] $end
      $var wire 32 9# MEM_BYTES [31:0] $end
      $var wire 32 # i [31:0] $end
      $var wire 32 s address [31:0] $end
     $upscope $end
     $scope module register_file1 $end
      $var wire 32 3# DWIDTH [31:0] $end
      $var wire 1 2# clk $end
      $var wire 1 $ rst $end
      $var wire 5 P rs1_i [4:0] $end
      $var wire 5 Q rs2_i [4:0] $end
      $var wire 5 I rd_i [4:0] $end
      $var wire 32 l datawb_i [31:0] $end
      $var wire 1 t regwren_i $end
      $var wire 32 V rs1data_o [31:0] $end
      $var wire 32 W rs2data_o [31:0] $end
      $var wire 32 u x[0] [31:0] $end
      $var wire 32 v x[1] [31:0] $end
      $var wire 32 w x[2] [31:0] $end
      $var wire 32 x x[3] [31:0] $end
      $var wire 32 y x[4] [31:0] $end
      $var wire 32 z x[5] [31:0] $end
      $var wire 32 { x[6] [31:0] $end
      $var wire 32 | x[7] [31:0] $end
      $var wire 32 } x[8] [31:0] $end
      $var wire 32 ~ x[9] [31:0] $end
      $var wire 32 !! x[10] [31:0] $end
      $var wire 32 "! x[11] [31:0] $end
      $var wire 32 #! x[12] [31:0] $end
      $var wire 32 $! x[13] [31:0] $end
      $var wire 32 %! x[14] [31:0] $end
      $var wire 32 &! x[15] [31:0] $end
      $var wire 32 '! x[16] [31:0] $end
      $var wire 32 (! x[17] [31:0] $end
      $var wire 32 )! x[18] [31:0] $end
      $var wire 32 *! x[19] [31:0] $end
      $var wire 32 +! x[20] [31:0] $end
      $var wire 32 ,! x[21] [31:0] $end
      $var wire 32 -! x[22] [31:0] $end
      $var wire 32 .! x[23] [31:0] $end
      $var wire 32 /! x[24] [31:0] $end
      $var wire 32 0! x[25] [31:0] $end
      $var wire 32 1! x[26] [31:0] $end
      $var wire 32 2! x[27] [31:0] $end
      $var wire 32 3! x[28] [31:0] $end
      $var wire 32 4! x[29] [31:0] $end
      $var wire 32 5! x[30] [31:0] $end
      $var wire 32 6! x[31] [31:0] $end
      $scope module unnamedblk1 $end
       $var wire 32 7! i [31:0] $end
      $upscope $end
     $upscope $end
     $scope module stall_flush $end
      $var wire 1 ' hazard_i $end
      $var wire 1 g brtaken_i $end
      $var wire 1 M pc_en_o $end
      $var wire 1 ( stall_o $end
      $var wire 1 ) flush_o $end
     $upscope $end
     $scope module wb_wb1 $end
      $var wire 32 3# DWIDTH [31:0] $end
      $var wire 32 3# AWIDTH [31:0] $end
      $var wire 32 E pc_i [31:0] $end
      $var wire 32 F alu_res_i [31:0] $end
      $var wire 32 G memory_data_i [31:0] $end
      $var wire 2 8! wbsel_i [1:0] $end
      $var wire 32 H imm_i [31:0] $end
      $var wire 32 l writeback_data_o [31:0] $end
     $upscope $end
    $upscope $end
   $upscope $end
   $scope module genblk3 $end
    $var wire 32 :! tick [31:0] $end
    $scope module genblk3 $end
     $scope module check_D__Vstatic__check_D_func $end
      $var wire 32 ;! pc [31:0] $end
      $var wire 7 <! opcode [6:0] $end
      $var wire 5 =! rd [4:0] $end
      $var wire 5 >! rs1 [4:0] $end
      $var wire 5 ?! rs2 [4:0] $end
      $var wire 3 @! funct3 [2:0] $end
      $var wire 7 A! funct7 [6:0] $end
      $var wire 32 B! imm [31:0] $end
      $var wire 5 :# shamt [4:0] $end
      $var wire 128 C! p [127:0] $end
      $var wire 224 ;# t [223:0] $end
     $upscope $end
     $scope module check_E__Vstatic__check_E_func $end
      $var wire 32 G! pc [31:0] $end
      $var wire 32 H! alu_res [31:0] $end
      $var wire 1 I! br_taken [0:0] $end
      $var wire 128 J! p [127:0] $end
     $upscope $end
     $scope module check_F__Vstatic__check_F_func $end
      $var wire 32 N! pc [31:0] $end
      $var wire 32 O! insn [31:0] $end
      $var wire 128 P! p [127:0] $end
     $upscope $end
     $scope module check_M__Vstatic__check_M_func $end
      $var wire 32 T! pc [31:0] $end
      $var wire 32 U! address [31:0] $end
      $var wire 2 V! size_encoded [1:0] $end
      $var wire 32 W! data [31:0] $end
      $var wire 128 X! p [127:0] $end
     $upscope $end
     $scope module check_R__Vstatic__check_R_func $end
      $var wire 5 \! read_rs1 [4:0] $end
      $var wire 5 ]! read_rs2 [4:0] $end
      $var wire 32 ^! read_rs1_data [31:0] $end
      $var wire 32 _! read_rs2_data [31:0] $end
      $var wire 128 `! p [127:0] $end
     $upscope $end
     $scope module check_W__Vstatic__check_W_func $end
      $var wire 32 d! pc [31:0] $end
      $var wire 1 e! enable [0:0] $end
      $var wire 5 f! destination [4:0] $end
      $var wire 32 g! data [31:0] $end
      $var wire 128 h! p [127:0] $end
     $upscope $end
    $upscope $end
    $scope module pre_check $end
     $var wire 32 B# res [31:0] $end
    $upscope $end
    $scope module tick_check $end
     $var wire 1 l! res $end
     $var wire 1 C# tick_ok $end
     $var wire 1 m! correct $end
     $var wire 4096 n! msg [4095:0] $end
    $upscope $end
   $upscope $end
  $upscope $end
 $upscope $end
$enddefinitions $end


#0
b00000000000001000000000000000000 #
1$
b00000000000000000000000000000000 %
0&
0'
0(
0)
0*
0+
0,
0-
0.
b00000000000000000000000000000000 /
b00000000000000000000000000000000 0
b00000000000000000000000000000000 1
b00000000000000000000000000000000 2
b0000000 3
b00000 4
b00000 5
b00000 6
b0000000 7
b000 8
b00000000000000000000000000000000 9
b00000000000000000000000000000000 :
b00000000000000000000000000000000 ;
b00000000000000000000000000000000 <
b0000000 =
b000 >
b00000000000000000000000000000000 ?
b00000000000000000000000000000000 @
b00000000000000000000000000000000 A
b00000 B
0C
b00000 D
b00000000000000000000000000000000 E
b00000000000000000000000000000000 F
b00000000000000000000000000000000 G
b00000000000000000000000000000000 H
b00000 I
b00000001000000000000000000000000 J
b00000001000000000000000000000000 K
b00000000000000000000000000000000 L
1M
b0000000 N
b00000 O
b00000 P
b00000 Q
b0000000 R
b000 S
b00000 T
b00000000000000000000000000000000 U
b00000000000000000000000000000000 V
b00000000000000000000000000000000 W
0X
0Y
0Z
0[
0\
0]
0^
b00 _
b1111 `
b0000000000000 a
b0000000000000 b
b0000000000000 c
b00000000000000000000000000000000 d
b00000000000000000000000000000000 e
b00000000000000000000000000000000 f
0g
b00000000000000000000000000000000 h
b00 i
b010 j
b00000000000000000000000000000000 k
b00000000000000000000000000000000 l
b0000 m
0n
0o
0p
0q
b00000000000000000000000000000000 r
b11111111000000000000000000000000 s
0t
b00000000000000000000000000000000 u
b00000000000000000000000000000000 v
b00000000000000000000000000000000 w
b00000000000000000000000000000000 x
b00000000000000000000000000000000 y
b00000000000000000000000000000000 z
b00000000000000000000000000000000 {
b00000000000000000000000000000000 |
b00000000000000000000000000000000 }
b00000000000000000000000000000000 ~
b00000000000000000000000000000000 !!
b00000000000000000000000000000000 "!
b00000000000000000000000000000000 #!
b00000000000000000000000000000000 $!
b00000000000000000000000000000000 %!
b00000000000000000000000000000000 &!
b00000000000000000000000000000000 '!
b00000000000000000000000000000000 (!
b00000000000000000000000000000000 )!
b00000000000000000000000000000000 *!
b00000000000000000000000000000000 +!
b00000000000000000000000000000000 ,!
b00000000000000000000000000000000 -!
b00000000000000000000000000000000 .!
b00000000000000000000000000000000 /!
b00000000000000000000000000000000 0!
b00000000000000000000000000000000 1!
b00000000000000000000000000000000 2!
b00000000000000000000000000000000 3!
b00000000000000000000000000000000 4!
b00000000000000000000000000000000 5!
b00000000000000000000000000000000 6!
b00000000000000000000000000000000 7!
b00 8!
09!
b00000000000000000000000000000000 :!
b00000000000000000000000000000000 ;!
b0000000 <!
b00000 =!
b00000 >!
b00000 ?!
b000 @!
b0000000 A!
b00000000000000000000000000000000 B!
b00000000000000000000000000000000000000000000000000000000000000000000000000000000000000000000000000000000000000000000000000000000 C!
b00000000000000000000000000000000 G!
b00000000000000000000000000000000 H!
0I!
b00000000000000000000000000000000000000000000000000000000000000000000000000000000000000000000000000000000000000000000000000000000 J!
b00000000000000000000000000000000 N!
b00000000000000000000000000000000 O!
b00000000000000000000000000000000000000000000000000000000000000000000000000000000000000000000000000000000000000000000000000000000 P!
b00000000000000000000000000000000 T!
b00000000000000000000000000000000 U!
b00 V!
b00000000000000000000000000000000 W!
b00000000000000000000000000000000000000000000000000000000000000000000000000000000000000000000000000000000000000000000000000000000 X!
b00000 \!
b00000 ]!
b00000000000000000000000000000000 ^!
b00000000000000000000000000000000 _!
b00000000000000000000000000000000000000000000000000000000000000000000000000000000000000000000000000000000000000000000000000000000 `!
b00000000000000000000000000000000 d!
0e!
b00000 f!
b00000000000000000000000000000000 g!
b00000000000000000000000000000000000000000000000000000000000000000000000000000000000000000000000000000000000000000000000000000000 h!
0l!
1m!
b0000000000000000000000000000000000000000000000000000000000000000000000000000000000000000000000000000000000000000000000000000000000000000000000000000000000000000000000000000000000000000000000000000000000000000000000000000000000000000000000000000000000000000000000000000000000000000000000000000000000000000000000000000000000000000000000000000000000000000000000000000000000000000000000000000000000000000000000000000000000000000000000000000000000000000000000000000000000000000000000000000000000000000000000000000000000000000000000000000000000000000000000000000000000000000000000000000000000000000000000000000000000000000000000000000000000000000000000000000000000000000000000000000000000000000000000000000000000000000000000000000000000000000000000000000000000000000000000000000000000000000000000000000000000000000000000000000000000000000000000000000000000000000000000000000000000000000000000000000000000000000000000000000000000000000000000000000000000000000000000000000000000000000000000000000000000000000000000000000000000000000000000000000000000000000000000000000000000000000000000000000000000000000000000000000000000000000000000000000000000000000000000000000000000000000000000000000000000000000000000000000000000000000000000000000000000000000000000000000000000000000000000000000000000000000000000000000000000000000000000000000000000000000000000000000000000000000000000000000000000000000000000000000000000000000000000000000000000000000000000000000000000000000000000000000000000000000000000000000000000000000000000000000000000000000000000000000000000000000000000000000000000000000000000000000000000000000000000000000000000000000000000000000000000000000000000000000000000000000000000000000000000000000000000000000000000000000000000000000000000000000000000000000000000000000000000000000000000000000000000000000000000000000000000000000000000000000000000000000000000000000000000000000000000000000000000000000000000000000000000000000000000000000000000000000000000000000000000000000000000000000000000000000000000000000000000000000000000000000000000000000000000000000000000000000000000000000000000000000000000000000000000000000000000000000000000000000000000000000000000000000000000000000000000000000000000000000000000000000000000000000000000000000000000000000000000000000000000000000000000000000000000000000000000000000000000000000000000000000000000000000000000000000000000000000000000000000000000000000000000000000000000000000000000000000000000000000000000000000000000000000000000000000000000000000000000000000000000000000000000000000000000000000000000000000000000000000000000000000000000000000000000000000000000000000000000000000000000000000000000000000000000000000000000000000000000000000000000000000000000000000000000000000000000000000000000000000000000000000000000000000000000000000000000000000000000000000000000000000000000000000000000000000000000000000000000000000000000000000000000000000000000000000000000000000000000000000000000000000000000000000000000000000000000000000000000000000000000000000000000000000000000000000000000000000000000000000000000000000000000000000000000000000000000000000000000000000000000000000000000000000000000000000000000000000000000000000000000000000000000000000000000000000000000000000000000000000000000000000000000000000000000000000000000000000000000000000000000000000000000000000000000000000000000000000000000000000000000000000000000000000000000000000000000000000000000000000000000000000000000000000000000000000000000000000000000000000000000000000000000000000000000000000000000000000000000000000000000000000000000000000000000000000000000000000000000000000000000000000000000000000000000000000000000000000000000000000000000000000000000000000000000000000000000000000000000000000000000000000000000000000000000000000000000000000000000000000000000000000000000000000000000000000000000000000000000000000000000000000000000000000000000000000000000000000000000000000000000000000000000000000000000000000000000000000000000000000000000000000000000000000000000000000000000000000000000000000000000000000000000000000000000000000000000000000000000000000000000000000000000000000000000000000 n!
02#
b00000000000000000000000000100000 3#
04#
15#
b00000001000000000000000000000000 6#
b00000000000000000000000000000000 7#
b00000001000000000000000000000000 8#
b00000000000100000000000000000000 9#
b00000 :#
b00000000000000000000000000000000000000000000000000000000000000000000000000000000000000000000000000000000000000000000000000000000000000000000000000000000000000000000000000000000000000000000000000000000000000000000000000000000 ;#
b00000000000000000000000000000000 B#
0C#
b00000000000000000000000000000000 D#
#1
b00000000000000000000000000000001 %
b00000001000100000000000000000000 w
b00000000000000000000000000100000 7!
12#
#2
02#
#3
b00000000000000000000000000000010 %
12#
#4
02#
#5
b00000000000000000000000000000011 %
12#
#6
02#
#7
b00000000000000000000000000000100 %
12#
#8
02#
#9
b00000000000000000000000000000101 %
12#
#10
02#
#11
0$
b00000000000000000000000000000110 %
b11111100000000010000000100010011 L
12#
#12
b00000000000000000000000000000001 :!
b00000001000000000000000000000000 N!
b11111100000000010000000100010011 O!
b00000000000000000000000000000000000000000000000000000000000000001111110000000001000000010001001100000001000000000000000000000000 P!
1l!
02#
#13
b00000000000000000000000000000111 %
b00000001000000000000000000000000 /
b11111100000000010000000100010011 0
b00000001000000000000000000000100 J
b00000001000000000000000000000100 K
b00000010000100010010111000100011 L
b0010011 N
b00010 O
b00010 P
b1111110 R
b11111111111111111111111111000000 U
b00000001000100000000000000000000 V
1Y
1Z
1[
b0000 `
b1111000000000 a
b1111 m
b00000000000000000000000000000100 r
12#
#14
b00000000000000000000000000000010 :!
b00000001000000000000000000000000 ;!
b0010011 <!
b00010 =!
b00010 >!
b1111110 A!
b11111111111111111111111111000000 B!
b00000000000000000000000000000000111111111111111111111111110000001111110000000000001000010001001100000001000000000000000000000000 C!
b00000001000000000000000000000100 N!
b00000010000100010010111000100011 O!
b00000000000000000000000000000000000000000000000000000000000000000000001000010001001011100010001100000001000000000000000000000100 P!
b00010 \!
b00000001000100000000000000000000 ^!
b00000000000000000000000000000000000000000000000000000000000000000000000000000000000000000000010001000000000000000000000000000010 `!
02#
#15
b00000000000000000000000000001000 %
b00000001000000000000000000000100 /
b00000010000100010010111000100011 0
b00000001000000000000000000000000 1
b11111100000000010000000100010011 2
b0010011 3
b00010 4
b00010 5
b1111110 7
b11111111111111111111111111000000 9
b00000001000100000000000000000000 :
b00000001000000000000000000001000 J
b00000001000000000000000000001000 K
b00000010000000010010011000100011 L
b0100011 N
b11100 O
b00001 Q
b0000001 R
b010 S
b11100 T
b00000000000000000000000000111100 U
0Z
1^
b0000000001110 a
b1111000000000 b
b00000001000100000000000000000000 d
b11111111111111111111111111000000 e
b00000001000011111111111111000000 f
b0000 m
b00000000000000000000000000001000 r
12#
#16
b00000000000000000000000000000011 :!
b00000001000000000000000000000100 ;!
b0100011 <!
b11100 =!
b00001 ?!
b010 @!
b0000001 A!
b00000000000000000000000000111100 B!
b00000000000000000000000000000001000000000000000000000000001111000000001010000010001011100010001100000001000000000000000000000100 C!
b00000001000000000000000000000000 G!
b00000001000011111111111111000000 H!
b00000000000000000000000000000000000000000000000000000000000000000000000100001111111111111100000000000001000000000000000000000000 J!
b00000001000000000000000000001000 N!
b00000010000000010010011000100011 O!
b00000000000000000000000000000000000000000000000000000000000000000000001000000001001001100010001100000001000000000000000000001000 P!
b00001 ]!
b00000000000000000000000000000000000000000000000000000000000000000000000000000000000000000000010001000000000000000000000000100010 `!
02#
#17
b00000000000000000000000000001001 %
1*
b00000001000000000000000000001000 /
b00000010000000010010011000100011 0
b00000001000000000000000000000100 1
b00000010000100010010111000100011 2
b0100011 3
b11100 4
b00001 6
b0000001 7
b010 8
b00000000000000000000000000111100 9
b00000001000000000000000000000000 <
b0010011 =
b11111111111111111111111111000000 ?
b00000001000011111111111111000000 @
b00010 B
b00000001000000000000000000001100 J
b00000001000000000000000000001100 K
b00000010000000010010010000100011 L
b01100 O
b00000 Q
b01100 T
b00000000000000000000000000101100 U
b0000001001010 a
b0000000001110 b
b1111000000000 c
b00000001000011111111111111000000 d
b00000000000000000000000000111100 e
b00000001000011111111111111111100 f
b00000001000011111111111111000000 k
b00000000000000000000000000001100 r
b00000000000011111111111111000000 s
12#
#18
b00000000000000000000000000000100 :!
b00000001000000000000000000001000 ;!
b01100 =!
b00000 ?!
b00000000000000000000000000101100 B!
b00000000000000000000000000000000000000000000000000000000001011000000001010000000001001100010001100000001000000000000000000001000 C!
b00000001000000000000000000000100 G!
b00000001000011111111111111111100 H!
b00000000000000000000000000000000000000000000000000000000000000000000000100001111111111111111110000000001000000000000000000000100 J!
b00000001000000000000000000001100 N!
b00000010000000010010010000100011 O!
b00000000000000000000000000000000000000000000000000000000000000000000001000000001001001000010001100000001000000000000000000001100 P!
b00000001000000000000000000000000 T!
b00000001000011111111111111000000 U!
b00000000000000000000000000000000000000000000000000000000000000000000000100001111111111111100000000000001000000000000000000000000 X!
b00000 ]!
b00000000000000000000000000000000000000000000000000000000000000000000000000000000000000000000010001000000000000000000000000000010 `!
02#
#19
b00000000000000000000000000001010 %
0*
1,
b00000001000000000000000000001100 /
b00000010000000010010010000100011 0
b00000001000000000000000000001000 1
b00000010000000010010011000100011 2
b01100 4
b00000 6
b00000000000000000000000000101100 9
b00000001000000000000000000000100 <
b0100011 =
b010 >
b00000000000000000000000000111100 ?
b00000001000011111111111111111100 @
b11100 B
b00001 D
b00000001000000000000000000000000 E
b00000001000011111111111111000000 F
b11111111111111111111111111000000 H
b00010 I
b00000001000000000000000000010000 J
b00000001000000000000000000010000 K
b00000010000000010010011000100011 L
b01000 O
b01000 T
b00000000000000000000000000101000 U
b0000001001010 b
b0000000001110 c
b00000000000000000000000000101100 e
b00000001000011111111111111101100 f
b10 i
b00000001000011111111111111111100 k
b00000001000011111111111111000000 l
1q
b00000000000000000000000000010000 r
b00000000000011111111111111111100 s
1t
12#
#20
b00000000000000000000000000000101 :!
b00000001000000000000000000001100 ;!
b01000 =!
b00000000000000000000000000101000 B!
b00000000000000000000000000000000000000000000000000000000001010000000001010000000001001000010001100000001000000000000000000001100 C!
b00000001000000000000000000001000 G!
b00000001000011111111111111101100 H!
b00000000000000000000000000000000000000000000000000000000000000000000000100001111111111111110110000000001000000000000000000001000 J!
b00000001000000000000000000010000 N!
b00000010000000010010011000100011 O!
b00000000000000000000000000000000000000000000000000000000000000000000001000000001001001100010001100000001000000000000000000010000 P!
b00000001000000000000000000000100 T!
b00000001000011111111111111111100 U!
b10 V!
b00000000000000000000000000000000000000000000000000000000000000100000000100001111111111111111110000000001000000000000000000000100 X!
b00000001000000000000000000000000 d!
1e!
b00010 f!
b00000001000011111111111111000000 g!
b00000000000000000000000000000000000000000000000000000000000000000100001111111111111100000000010100000001000000000000000000000000 h!
02#
#21
b00000000000000000000000000001011 %
0,
b00000001000000000000000000010000 /
b00000010000000010010011000100011 0
b00000001000000000000000000001100 1
b00000010000000010010010000100011 2
b01000 4
b00000000000000000000000000101000 9
b00000001000000000000000000001000 <
b00000000000000000000000000101100 ?
b00000001000011111111111111101100 @
b01100 B
b00000 D
b00000001000000000000000000000100 E
b00000001000011111111111111111100 F
b00000000000000000000000000111100 H
b11100 I
b00000001000000000000000000010100 J
b00000001000000000000000000010100 K
b00000010100000000000000001101111 L
b01100 O
b01100 T
b00000000000000000000000000101100 U
b00000001000011111111111111000000 V
b0000001001010 c
b00000001000100000000000000000000 d
b00000000000000000000000000101000 e
b00000001000100000000000000101000 f
b00000001000011111111111111101100 k
b00000001000011111111111111111100 l
b00000000000000000000000000010100 r
b00000000000011111111111111101100 s
0t
b00000001000011111111111111000000 w
12#
