project/pd5/verif/sim/verilator/test_pd/test1.vcd
$version Generated by VerilatedVcd $end
$timescale 1ps $end
 $scope module TOP $end
  $scope module $unit $end
   $var wire 32 E# ZERO [31:0] $end
  $upscope $end
  $scope module top $end
   $var wire 1 4# clock $end
   $var wire 1 $ reset $end
   $scope module clkg $end
    $var wire 1 4# clk $end
    $var wire 1 $ rst $end
    $var wire 32 % counter [31:0] $end
   $upscope $end
   $scope module dut $end
    $var wire 1 4# clk $end
    $var wire 1 $ reset $end
    $scope module core $end
     $var wire 32 5# AWIDTH [31:0] $end
     $var wire 32 5# DWIDTH [31:0] $end
     $var wire 1 4# clk $end
     $var wire 1 $ reset $end
     $var wire 1 & load_use $end
     $var wire 1 ' wb_d_haz $end
     $var wire 1 ( hazard $end
     $var wire 1 ) stall $end
     $var wire 1 * flush $end
     $var wire 1 + jump_branch $end
     $var wire 1 , mx_bypass_rs1 $end
     $var wire 1 - mx_bypass_rs2 $end
     $var wire 1 . wx_bypass_rs1 $end
     $var wire 1 / wx_bypass_rs2 $end
     $var wire 1 0 wm_bypass $end
     $var wire 32 1 f_d_pc [31:0] $end
     $var wire 32 2 f_d_insn [31:0] $end
     $var wire 32 3 d_x_pc [31:0] $end
     $var wire 32 4 d_x_insn [31:0] $end
     $var wire 7 5 d_x_opcode [6:0] $end
     $var wire 5 6 d_x_rd [4:0] $end
     $var wire 5 7 d_x_rs1 [4:0] $end
     $var wire 5 8 d_x_rs2 [4:0] $end
     $var wire 7 9 d_x_funct7 [6:0] $end
     $var wire 3 : d_x_funct3 [2:0] $end
     $var wire 32 ; d_x_imm [31:0] $end
     $var wire 32 < d_x_rs1data [31:0] $end
     $var wire 32 = d_x_rs2data [31:0] $end
     $var wire 32 > x_m_pc [31:0] $end
     $var wire 7 ? x_m_opcode [6:0] $end
     $var wire 3 @ x_m_funct3 [2:0] $end
     $var wire 32 A x_m_imm [31:0] $end
     $var wire 32 B x_m_res [31:0] $end
     $var wire 32 C x_m_rs2data [31:0] $end
     $var wire 5 D x_m_rd [4:0] $end
     $var wire 1 E x_m_brtaken $end
     $var wire 5 F x_m_rs2 [4:0] $end
     $var wire 32 G m_w_pc [31:0] $end
     $var wire 32 H m_w_res [31:0] $end
     $var wire 32 I m_w_data [31:0] $end
     $var wire 32 J m_w_imm [31:0] $end
     $var wire 5 K m_w_rd [4:0] $end
     $var wire 32 L f_pc [31:0] $end
     $var wire 32 M pc [31:0] $end
     $var wire 32 N f_insn [31:0] $end
     $var wire 1 O pc_en $end
     $var wire 7 P d_opcode [6:0] $end
     $var wire 5 Q d_rd [4:0] $end
     $var wire 5 R d_rs1 [4:0] $end
     $var wire 5 S d_rs2 [4:0] $end
     $var wire 7 T d_funct7 [6:0] $end
     $var wire 3 U d_funct3 [2:0] $end
     $var wire 5 V d_shamt [4:0] $end
     $var wire 32 W d_imm [31:0] $end
     $var wire 32 2 d_insn [31:0] $end
     $var wire 32 1 d_pc [31:0] $end
     $var wire 32 W igen_imm [31:0] $end
     $var wire 32 X r_rs1data [31:0] $end
     $var wire 32 Y r_rs2data [31:0] $end
     $var wire 1 Z c_pcsel $end
     $var wire 1 [ c_immsel $end
     $var wire 1 \ c_regwren $end
     $var wire 1 ] c_rs1sel $end
     $var wire 1 ^ c_rs2sel $end
     $var wire 1 _ c_memren $end
     $var wire 1 ` c_memwren $end
     $var wire 2 a c_wbsel [1:0] $end
     $var wire 4 b c_alusel [3:0] $end
     $var wire 13 c ctrl_reg[0] [12:0] $end
     $var wire 13 d ctrl_reg[1] [12:0] $end
     $var wire 13 e ctrl_reg[2] [12:0] $end
     $var wire 32 f e_rs1 [31:0] $end
     $var wire 32 g e_rs2 [31:0] $end
     $var wire 32 h e_res [31:0] $end
     $var wire 1 i e_brtaken $end
     $var wire 32 j m_data_o [31:0] $end
     $var wire 1 6# insn_en $end
     $var wire 2 k m_size_encoded [1:0] $end
     $var wire 3 l m_funct3 [2:0] $end
     $var wire 32 m addr_data [31:0] $end
     $var wire 32 n wb_data [31:0] $end
     $var wire 1 ;! is_program $end
     $scope module control1 $end
      $var wire 32 5# DWIDTH [31:0] $end
      $var wire 32 2 insn_i [31:0] $end
      $var wire 7 P opcode_i [6:0] $end
      $var wire 7 T funct7_i [6:0] $end
      $var wire 3 U funct3_i [2:0] $end
      $var wire 1 Z pcsel_o $end
      $var wire 1 [ immsel_o $end
      $var wire 1 \ regwren_o $end
      $var wire 1 ] rs1sel_o $end
      $var wire 1 ^ rs2sel_o $end
      $var wire 1 _ memren_o $end
      $var wire 1 ` memwren_o $end
      $var wire 2 a wbsel_o [1:0] $end
      $var wire 4 b alusel_o [3:0] $end
     $upscope $end
     $scope module decode1 $end
      $var wire 32 5# DWIDTH [31:0] $end
      $var wire 32 5# AWIDTH [31:0] $end
      $var wire 1 4# clk $end
      $var wire 1 $ rst $end
      $var wire 32 2 insn_i [31:0] $end
      $var wire 32 1 pc_i [31:0] $end
      $var wire 32 1 pc_o [31:0] $end
      $var wire 32 2 insn_o [31:0] $end
      $var wire 7 P opcode_o [6:0] $end
      $var wire 5 Q rd_o [4:0] $end
      $var wire 5 R rs1_o [4:0] $end
      $var wire 5 S rs2_o [4:0] $end
      $var wire 7 T funct7_o [6:0] $end
      $var wire 3 U funct3_o [2:0] $end
      $var wire 5 V shamt_o [4:0] $end
      $var wire 32 W imm_o [31:0] $end
     $upscope $end
     $scope module e_alu1 $end
      $var wire 32 5# DWIDTH [31:0] $end
      $var wire 32 5# AWIDTH [31:0] $end
      $var wire 32 3 pc_i [31:0] $end
      $var wire 32 f rs1_i [31:0] $end
      $var wire 32 g rs2_i [31:0] $end
      $var wire 3 : funct3_i [2:0] $end
      $var wire 7 9 funct7_i [6:0] $end
      $var wire 7 5 opcode_i [6:0] $end
      $var wire 32 ; imm_i [31:0] $end
      $var wire 4 o alusel_i [3:0] $end
      $var wire 32 h res_o [31:0] $end
      $var wire 1 i brtaken_o $end
      $var wire 1 p breq $end
      $var wire 1 q brlt $end
      $scope module bc $end
       $var wire 32 5# DWIDTH [31:0] $end
       $var wire 7 5 opcode_i [6:0] $end
       $var wire 3 : funct3_i [2:0] $end
       $var wire 32 f rs1_i [31:0] $end
       $var wire 32 g rs2_i [31:0] $end
       $var wire 1 p breq_o $end
       $var wire 1 q brlt_o $end
      $upscope $end
     $upscope $end
     $scope module fetch1 $end
      $var wire 32 5# DWIDTH [31:0] $end
      $var wire 32 5# AWIDTH [31:0] $end
      $var wire 32 7# BASEADDR [31:0] $end
      $var wire 1 4# clk $end
      $var wire 1 $ rst $end
      $var wire 1 O pc_en_i $end
      $var wire 32 M pc_o [31:0] $end
      $var wire 32 8# insn_o [31:0] $end
      $var wire 32 M pc [31:0] $end
     $upscope $end
     $scope module igen1 $end
      $var wire 32 5# DWIDTH [31:0] $end
      $var wire 7 P opcode_i [6:0] $end
      $var wire 32 2 insn_i [31:0] $end
      $var wire 32 W imm_o [31:0] $end
     $upscope $end
     $scope module memory1 $end
      $var wire 32 5# AWIDTH [31:0] $end
      $var wire 32 5# DWIDTH [31:0] $end
      $var wire 32 9# BASE_ADDR [31:0] $end
      $var wire 1 4# clk $end
      $var wire 1 $ rst $end
      $var wire 32 L pc_i [31:0] $end
      $var wire 32 C data_i [31:0] $end
      $var wire 32 m addr_i [31:0] $end
      $var wire 3 l funct3_i [2:0] $end
      $var wire 1 r memren_i $end
      $var wire 1 s memwren_i $end
      $var wire 1 6# insn_en_i $end
      $var wire 32 N insn_o [31:0] $end
      $var wire 32 j data_o [31:0] $end
      $var wire 32 t program_counter [31:0] $end
      $var wire 32 :# MEM_BYTES [31:0] $end
      $var wire 32 # i [31:0] $end
      $var wire 32 u address [31:0] $end
     $upscope $end
     $scope module register_file1 $end
      $var wire 32 5# DWIDTH [31:0] $end
      $var wire 1 4# clk $end
      $var wire 1 $ rst $end
      $var wire 5 R rs1_i [4:0] $end
      $var wire 5 S rs2_i [4:0] $end
      $var wire 5 K rd_i [4:0] $end
      $var wire 32 n datawb_i [31:0] $end
      $var wire 1 v regwren_i $end
      $var wire 32 X rs1data_o [31:0] $end
      $var wire 32 Y rs2data_o [31:0] $end
      $var wire 32 w x[0] [31:0] $end
      $var wire 32 x x[1] [31:0] $end
      $var wire 32 y x[2] [31:0] $end
      $var wire 32 z x[3] [31:0] $end
      $var wire 32 { x[4] [31:0] $end
      $var wire 32 | x[5] [31:0] $end
      $var wire 32 } x[6] [31:0] $end
      $var wire 32 ~ x[7] [31:0] $end
      $var wire 32 !! x[8] [31:0] $end
      $var wire 32 "! x[9] [31:0] $end
      $var wire 32 #! x[10] [31:0] $end
      $var wire 32 $! x[11] [31:0] $end
      $var wire 32 %! x[12] [31:0] $end
      $var wire 32 &! x[13] [31:0] $end
      $var wire 32 '! x[14] [31:0] $end
      $var wire 32 (! x[15] [31:0] $end
      $var wire 32 )! x[16] [31:0] $end
      $var wire 32 *! x[17] [31:0] $end
      $var wire 32 +! x[18] [31:0] $end
      $var wire 32 ,! x[19] [31:0] $end
      $var wire 32 -! x[20] [31:0] $end
      $var wire 32 .! x[21] [31:0] $end
      $var wire 32 /! x[22] [31:0] $end
      $var wire 32 0! x[23] [31:0] $end
      $var wire 32 1! x[24] [31:0] $end
      $var wire 32 2! x[25] [31:0] $end
      $var wire 32 3! x[26] [31:0] $end
      $var wire 32 4! x[27] [31:0] $end
      $var wire 32 5! x[28] [31:0] $end
      $var wire 32 6! x[29] [31:0] $end
      $var wire 32 7! x[30] [31:0] $end
      $var wire 32 8! x[31] [31:0] $end
      $scope module unnamedblk1 $end
       $var wire 32 9! i [31:0] $end
      $upscope $end
     $upscope $end
     $scope module stall_flush $end
      $var wire 1 ( hazard_i $end
      $var wire 1 + brtaken_i $end
      $var wire 1 O pc_en_o $end
      $var wire 1 ) stall_o $end
      $var wire 1 * flush_o $end
     $upscope $end
     $scope module wb_wb1 $end
      $var wire 32 5# DWIDTH [31:0] $end
      $var wire 32 5# AWIDTH [31:0] $end
      $var wire 32 G pc_i [31:0] $end
      $var wire 32 H alu_res_i [31:0] $end
      $var wire 32 I memory_data_i [31:0] $end
      $var wire 2 :! wbsel_i [1:0] $end
      $var wire 32 J imm_i [31:0] $end
      $var wire 32 n writeback_data_o [31:0] $end
     $upscope $end
    $upscope $end
   $upscope $end
   $scope module genblk3 $end
    $var wire 32 <! tick [31:0] $end
    $scope module genblk3 $end
     $scope module check_D__Vstatic__check_D_func $end
      $var wire 32 =! pc [31:0] $end
      $var wire 7 >! opcode [6:0] $end
      $var wire 5 ?! rd [4:0] $end
      $var wire 5 @! rs1 [4:0] $end
      $var wire 5 A! rs2 [4:0] $end
      $var wire 3 B! funct3 [2:0] $end
      $var wire 7 C! funct7 [6:0] $end
      $var wire 32 D! imm [31:0] $end
      $var wire 5 ;# shamt [4:0] $end
      $var wire 128 E! p [127:0] $end
      $var wire 224 <# t [223:0] $end
     $upscope $end
     $scope module check_E__Vstatic__check_E_func $end
      $var wire 32 I! pc [31:0] $end
      $var wire 32 J! alu_res [31:0] $end
      $var wire 1 K! br_taken [0:0] $end
      $var wire 128 L! p [127:0] $end
     $upscope $end
     $scope module check_F__Vstatic__check_F_func $end
      $var wire 32 P! pc [31:0] $end
      $var wire 32 Q! insn [31:0] $end
      $var wire 128 R! p [127:0] $end
     $upscope $end
     $scope module check_M__Vstatic__check_M_func $end
      $var wire 32 V! pc [31:0] $end
      $var wire 32 W! address [31:0] $end
      $var wire 2 X! size_encoded [1:0] $end
      $var wire 32 Y! data [31:0] $end
      $var wire 128 Z! p [127:0] $end
     $upscope $end
     $scope module check_R__Vstatic__check_R_func $end
      $var wire 5 ^! read_rs1 [4:0] $end
      $var wire 5 _! read_rs2 [4:0] $end
      $var wire 32 `! read_rs1_data [31:0] $end
      $var wire 32 a! read_rs2_data [31:0] $end
      $var wire 128 b! p [127:0] $end
     $upscope $end
     $scope module check_W__Vstatic__check_W_func $end
      $var wire 32 f! pc [31:0] $end
      $var wire 1 g! enable [0:0] $end
      $var wire 5 h! destination [4:0] $end
      $var wire 32 i! data [31:0] $end
      $var wire 128 j! p [127:0] $end
     $upscope $end
    $upscope $end
    $scope module pre_check $end
     $var wire 32 C# res [31:0] $end
    $upscope $end
    $scope module tick_check $end
     $var wire 1 n! res $end
     $var wire 1 D# tick_ok $end
     $var wire 1 o! correct $end
     $var wire 4096 p! msg [4095:0] $end
    $upscope $end
   $upscope $end
  $upscope $end
 $upscope $end
$enddefinitions $end


#0
b00000000000001000000000000000000 #
1$
b00000000000000000000000000000000 %
0&
0'
0(
0)
0*
0+
0,
0-
0.
0/
00
b00000000000000000000000000000000 1
b00000000000000000000000000000000 2
b00000000000000000000000000000000 3
b00000000000000000000000000000000 4
b0000000 5
b00000 6
b00000 7
b00000 8
b0000000 9
b000 :
b00000000000000000000000000000000 ;
b00000000000000000000000000000000 <
b00000000000000000000000000000000 =
b00000000000000000000000000000000 >
b0000000 ?
b000 @
b00000000000000000000000000000000 A
b00000000000000000000000000000000 B
b00000000000000000000000000000000 C
b00000 D
0E
b00000 F
b00000000000000000000000000000000 G
b00000000000000000000000000000000 H
b00000000000000000000000000000000 I
b00000000000000000000000000000000 J
b00000 K
b00000001000000000000000000000000 L
b00000001000000000000000000000000 M
b00000000000000000000000000000000 N
1O
b0000000 P
b00000 Q
b00000 R
b00000 S
b0000000 T
b000 U
b00000 V
b00000000000000000000000000000000 W
b00000000000000000000000000000000 X
b00000000000000000000000000000000 Y
0Z
0[
0\
0]
0^
0_
0`
b00 a
b1111 b
b0000000000000 c
b0000000000000 d
b0000000000000 e
b00000000000000000000000000000000 f
b00000000000000000000000000000000 g
b00000000000000000000000000000000 h
0i
b00000000000000000000000000000000 j
b00 k
b010 l
b00000000000000000000000000000000 m
b00000000000000000000000000000000 n
b0000 o
0p
0q
0r
0s
b00000000000000000000000000000000 t
b11111111000000000000000000000000 u
0v
b00000000000000000000000000000000 w
b00000000000000000000000000000000 x
b00000000000000000000000000000000 y
b00000000000000000000000000000000 z
b00000000000000000000000000000000 {
b00000000000000000000000000000000 |
b00000000000000000000000000000000 }
b00000000000000000000000000000000 ~
b00000000000000000000000000000000 !!
b00000000000000000000000000000000 "!
b00000000000000000000000000000000 #!
b00000000000000000000000000000000 $!
b00000000000000000000000000000000 %!
b00000000000000000000000000000000 &!
b00000000000000000000000000000000 '!
b00000000000000000000000000000000 (!
b00000000000000000000000000000000 )!
b00000000000000000000000000000000 *!
b00000000000000000000000000000000 +!
b00000000000000000000000000000000 ,!
b00000000000000000000000000000000 -!
b00000000000000000000000000000000 .!
b00000000000000000000000000000000 /!
b00000000000000000000000000000000 0!
b00000000000000000000000000000000 1!
b00000000000000000000000000000000 2!
b00000000000000000000000000000000 3!
b00000000000000000000000000000000 4!
b00000000000000000000000000000000 5!
b00000000000000000000000000000000 6!
b00000000000000000000000000000000 7!
b00000000000000000000000000000000 8!
b00000000000000000000000000000000 9!
b00 :!
0;!
b00000000000000000000000000000000 <!
b00000000000000000000000000000000 =!
b0000000 >!
b00000 ?!
b00000 @!
b00000 A!
b000 B!
b0000000 C!
b00000000000000000000000000000000 D!
b00000000000000000000000000000000000000000000000000000000000000000000000000000000000000000000000000000000000000000000000000000000 E!
b00000000000000000000000000000000 I!
b00000000000000000000000000000000 J!
0K!
b00000000000000000000000000000000000000000000000000000000000000000000000000000000000000000000000000000000000000000000000000000000 L!
b00000000000000000000000000000000 P!
b00000000000000000000000000000000 Q!
b00000000000000000000000000000000000000000000000000000000000000000000000000000000000000000000000000000000000000000000000000000000 R!
b00000000000000000000000000000000 V!
b00000000000000000000000000000000 W!
b00 X!
b00000000000000000000000000000000 Y!
b00000000000000000000000000000000000000000000000000000000000000000000000000000000000000000000000000000000000000000000000000000000 Z!
b00000 ^!
b00000 _!
b00000000000000000000000000000000 `!
b00000000000000000000000000000000 a!
b00000000000000000000000000000000000000000000000000000000000000000000000000000000000000000000000000000000000000000000000000000000 b!
b00000000000000000000000000000000 f!
0g!
b00000 h!
b00000000000000000000000000000000 i!
b00000000000000000000000000000000000000000000000000000000000000000000000000000000000000000000000000000000000000000000000000000000 j!
0n!
1o!
b0000000000000000000000000000000000000000000000000000000000000000000000000000000000000000000000000000000000000000000000000000000000000000000000000000000000000000000000000000000000000000000000000000000000000000000000000000000000000000000000000000000000000000000000000000000000000000000000000000000000000000000000000000000000000000000000000000000000000000000000000000000000000000000000000000000000000000000000000000000000000000000000000000000000000000000000000000000000000000000000000000000000000000000000000000000000000000000000000000000000000000000000000000000000000000000000000000000000000000000000000000000000000000000000000000000000000000000000000000000000000000000000000000000000000000000000000000000000000000000000000000000000000000000000000000000000000000000000000000000000000000000000000000000000000000000000000000000000000000000000000000000000000000000000000000000000000000000000000000000000000000000000000000000000000000000000000000000000000000000000000000000000000000000000000000000000000000000000000000000000000000000000000000000000000000000000000000000000000000000000000000000000000000000000000000000000000000000000000000000000000000000000000000000000000000000000000000000000000000000000000000000000000000000000000000000000000000000000000000000000000000000000000000000000000000000000000000000000000000000000000000000000000000000000000000000000000000000000000000000000000000000000000000000000000000000000000000000000000000000000000000000000000000000000000000000000000000000000000000000000000000000000000000000000000000000000000000000000000000000000000000000000000000000000000000000000000000000000000000000000000000000000000000000000000000000000000000000000000000000000000000000000000000000000000000000000000000000000000000000000000000000000000000000000000000000000000000000000000000000000000000000000000000000000000000000000000000000000000000000000000000000000000000000000000000000000000000000000000000000000000000000000000000000000000000000000000000000000000000000000000000000000000000000000000000000000000000000000000000000000000000000000000000000000000000000000000000000000000000000000000000000000000000000000000000000000000000000000000000000000000000000000000000000000000000000000000000000000000000000000000000000000000000000000000000000000000000000000000000000000000000000000000000000000000000000000000000000000000000000000000000000000000000000000000000000000000000000000000000000000000000000000000000000000000000000000000000000000000000000000000000000000000000000000000000000000000000000000000000000000000000000000000000000000000000000000000000000000000000000000000000000000000000000000000000000000000000000000000000000000000000000000000000000000000000000000000000000000000000000000000000000000000000000000000000000000000000000000000000000000000000000000000000000000000000000000000000000000000000000000000000000000000000000000000000000000000000000000000000000000000000000000000000000000000000000000000000000000000000000000000000000000000000000000000000000000000000000000000000000000000000000000000000000000000000000000000000000000000000000000000000000000000000000000000000000000000000000000000000000000000000000000000000000000000000000000000000000000000000000000000000000000000000000000000000000000000000000000000000000000000000000000000000000000000000000000000000000000000000000000000000000000000000000000000000000000000000000000000000000000000000000000000000000000000000000000000000000000000000000000000000000000000000000000000000000000000000000000000000000000000000000000000000000000000000000000000000000000000000000000000000000000000000000000000000000000000000000000000000000000000000000000000000000000000000000000000000000000000000000000000000000000000000000000000000000000000000000000000000000000000000000000000000000000000000000000000000000000000000000000000000000000000000000000000000000000000000000000000000000000000000000000000000000000000000000000000000000000000000000000000000000000000000000000000000000000000000000000000000000000000000000000000000000000000000000000000000000000000000000000000000000000000000000000000000000000000000000000000000000000000000000000000000 p!
04#
b00000000000000000000000000100000 5#
16#
b00000001000000000000000000000000 7#
b00000000000000000000000000000000 8#
b00000001000000000000000000000000 9#
b00000000000100000000000000000000 :#
b00000 ;#
b00000000000000000000000000000000000000000000000000000000000000000000000000000000000000000000000000000000000000000000000000000000000000000000000000000000000000000000000000000000000000000000000000000000000000000000000000000000 <#
b00000000000000000000000000000000 C#
0D#
b00000000000000000000000000000000 E#
#1
b00000000000000000000000000000001 %
b00000001000100000000000000000000 y
b00000000000000000000000000100000 9!
14#
#2
04#
#3
b00000000000000000000000000000010 %
14#
#4
04#
#5
b00000000000000000000000000000011 %
14#
#6
04#
#7
b00000000000000000000000000000100 %
14#
#8
04#
#9
b00000000000000000000000000000101 %
14#
#10
04#
#11
0$
b00000000000000000000000000000110 %
b11111101000000010000000100010011 N
14#
#12
b00000000000000000000000000000001 <!
b00000001000000000000000000000000 P!
b11111101000000010000000100010011 Q!
b00000000000000000000000000000000000000000000000000000000000000001111110100000001000000010001001100000001000000000000000000000000 R!
1n!
04#
#13
b00000000000000000000000000000111 %
b00000001000000000000000000000000 1
b11111101000000010000000100010011 2
b00000001000000000000000000000100 L
b00000001000000000000000000000100 M
b00000010000100010010011000100011 N
b0010011 P
b00010 Q
b00010 R
b10000 S
b1111110 T
b10000 V
b11111111111111111111111111010000 W
b00000001000100000000000000000000 X
1[
1\
1]
b0000 b
b1111000000000 c
b1111 o
b00000000000000000000000000000100 t
14#
#14
b00000000000000000000000000000010 <!
b00000001000000000000000000000000 =!
b0010011 >!
b00010 ?!
b00010 @!
b10000 A!
b1111110 C!
b11111111111111111111111111010000 D!
b00000000000000000000000000010000111111111111111111111111110100001111110000100000001000010001001100000001000000000000000000000000 E!
b00000001000000000000000000000100 P!
b00000010000100010010011000100011 Q!
b00000000000000000000000000000000000000000000000000000000000000000000001000010001001001100010001100000001000000000000000000000100 R!
b00010 ^!
b10000 _!
b00000001000100000000000000000000 `!
b00000000000000000000000000000000000000000000000000000000000000000000000000000000000000000000010001000000000000000000001000000010 b!
04#
#15
b00000000000000000000000000001000 %
b00000001000000000000000000000100 1
b00000010000100010010011000100011 2
b00000001000000000000000000000000 3
b11111101000000010000000100010011 4
b0010011 5
b00010 6
b00010 7
b10000 8
b1111110 9
b11111111111111111111111111010000 ;
b00000001000100000000000000000000 <
b00000001000000000000000000001000 L
b00000001000000000000000000001000 M
b00000001000000000000011110110111 N
b0100011 P
b01100 Q
b00001 S
b0000001 T
b010 U
b01100 V
b00000000000000000000000000101100 W
0\
1`
b0000000001110 c
b1111000000000 d
b00000001000100000000000000000000 f
b11111111111111111111111111010000 g
b00000001000011111111111111010000 h
b0000 o
b00000000000000000000000000001000 t
14#
#16
b00000000000000000000000000000011 <!
b00000001000000000000000000000100 =!
b0100011 >!
b01100 ?!
b00001 A!
b010 B!
b0000001 C!
b00000000000000000000000000101100 D!
b00000000000000000000000000000001000000000000000000000000001011000000001010000010001001100010001100000001000000000000000000000100 E!
b00000001000000000000000000000000 I!
b00000001000011111111111111010000 J!
b00000000000000000000000000000000000000000000000000000000000000000000000100001111111111111101000000000001000000000000000000000000 L!
b00000001000000000000000000001000 P!
b00000001000000000000011110110111 Q!
b00000000000000000000000000000000000000000000000000000000000000000000000100000000000001111011011100000001000000000000000000001000 R!
b00001 _!
b00000000000000000000000000000000000000000000000000000000000000000000000000000000000000000000010001000000000000000000000000100010 b!
04#
#17
b00000000000000000000000000001001 %
1,
b00000001000000000000000000001000 1
b00000001000000000000011110110111 2
b00000001000000000000000000000100 3
b00000010000100010010011000100011 4
b0100011 5
b01100 6
b00001 8
b0000001 9
b010 :
b00000000000000000000000000101100 ;
b00000001000000000000000000000000 >
b0010011 ?
b11111111111111111111111111010000 A
b00000001000011111111111111010000 B
b00010 D
b10000 F
b00000001000000000000000000001100 L
b00000001000000000000000000001100 M
b00100100100001111010100010000011 N
b0110111 P
b01111 Q
b00000 R
b10000 S
b0000000 T
b000 U
b00000 V
b00000001000000000000000000000000 W
b00000000000000000000000000000000 X
1\
0]
0`
b11 a
b1111 b
b0000001001010 c
b0000000001110 d
b1111000000000 e
b00000001000011111111111111010000 f
b00000000000000000000000000101100 g
b00000001000011111111111111111100 h
b00000001000011111111111111010000 m
b00000000000000000000000000001100 t
b00000000000011111111111111010000 u
14#
#18
b00000000000000000000000000000100 <!
b00000001000000000000000000001000 =!
b0110111 >!
b01111 ?!
b00000 @!
b10000 A!
b000 B!
b0000000 C!
b00000001000000000000000000000000 D!
b00000000000000000000000000010000000000010000000000000000000000000000000000100000000001111011011100000001000000000000000000001000 E!
b00000001000000000000000000000100 I!
b00000001000011111111111111111100 J!
b00000000000000000000000000000000000000000000000000000000000000000000000100001111111111111111110000000001000000000000000000000100 L!
b00000001000000000000000000001100 P!
b00100100100001111010100010000011 Q!
b00000000000000000000000000000000000000000000000000000000000000000010010010000111101010001000001100000001000000000000000000001100 R!
b00000001000000000000000000000000 V!
b00000001000011111111111111010000 W!
b00000000000000000000000000000000000000000000000000000000000000000000000100001111111111111101000000000001000000000000000000000000 Z!
b00000 ^!
b10000 _!
b00000000000000000000000000000000 `!
b00000000000000000000000000000000000000000000000000000000000000000000000000000000000000000000000000000000000000000000001000000000 b!
04#
#19
b00000000000000000000000000001010 %
0,
b00000001000000000000000000001100 1
b00100100100001111010100010000011 2
b00000001000000000000000000001000 3
b00000001000000000000011110110111 4
b0110111 5
b01111 6
b00000 7
b10000 8
b0000000 9
b000 :
b00000001000000000000000000000000 ;
b00000000000000000000000000000000 <
b00000001000000000000000000000100 >
b0100011 ?
b010 @
b00000000000000000000000000101100 A
b00000001000011111111111111111100 B
b01100 D
b00001 F
b00000001000000000000000000000000 G
b00000001000011111111111111010000 H
b11111111111111111111111111010000 J
b00010 K
b00000001000000000000000000010000 L
b00000001000000000000000000010000 M
b00100100100001111000011100010011 N
b0000011 P
b10001 Q
b01111 R
b01000 S
b0010010 T
b010 U
b01000 V
b00000000000000000000001001001000 W
1]
1_
b01 a
b0000 b
b1111110000110 c
b0000001001010 d
b0000000001110 e
b00000001000000000000000000001000 f
b00000001000000000000000000000000 g
b00000001000000000000000000000000 h
b10 k
b00000001000011111111111111111100 m
b00000001000011111111111111010000 n
b1111 o
1s
b00000000000000000000000000010000 t
b00000000000011111111111111111100 u
1v
14#
#20
b00000000000000000000000000000101 <!
b00000001000000000000000000001100 =!
b0000011 >!
b10001 ?!
b01111 @!
b01000 A!
b010 B!
b0010010 C!
b00000000000000000000001001001000 D!
b00000000000000000000000000001000000000000000000000000010010010000010010010010000111110001000001100000001000000000000000000001100 E!
b00000001000000000000000000001000 I!
b00000001000000000000000000000000 J!
b00000000000000000000000000000000000000000000000000000000000000000000000100000000000000000000000000000001000000000000000000001000 L!
b00000001000000000000000000010000 P!
b00100100100001111000011100010011 Q!
b00000000000000000000000000000000000000000000000000000000000000000010010010000111100001110001001100000001000000000000000000010000 R!
b00000001000000000000000000000100 V!
b00000001000011111111111111111100 W!
b10 X!
b00000000000000000000000000000000000000000000000000000000000000100000000100001111111111111111110000000001000000000000000000000100 Z!
b01111 ^!
b01000 _!
b00000000000000000000000000000000000000000000000000000000000000000000000000000000000000000000000000000000000000000000000100001111 b!
b00000001000000000000000000000000 f!
1g!
b00010 h!
b00000001000011111111111111010000 i!
b00000000000000000000000000000000000000000000000000000000000000000100001111111111111101000000010100000001000000000000000000000000 j!
04#
#21
b00000000000000000000000000001011 %
1,
b00000001000000000000000000010000 1
b00100100100001111000011100010011 2
b00000001000000000000000000001100 3
b00100100100001111010100010000011 4
b0000011 5
b10001 6
b01111 7
b01000 8
b0010010 9
b010 :
b00000000000000000000001001001000 ;
b00000001000000000000000000001000 >
b0110111 ?
b000 @
b00000001000000000000000000000000 A
b00000001000000000000000000000000 B
b01111 D
b10000 F
b00000001000000000000000000000100 G
b00000001000011111111111111111100 H
b00000000000000000000000000101100 J
b01100 K
b00000001000000000000000000010100 L
b00000001000000000000000000010100 M
b00000000010001110010100000000011 N
b0010011 P
b01110 Q
b000 U
0_
b00 a
b0000010101110 c
b1111110000110 d
b0000001001010 e
b00000001000000000000000000000000 f
b00000000000000000000001001001000 g
b00000001000000000000001001001000 h
b00 k
b00000001000000000000000000000000 m
b00000001000011111111111111111100 n
b0000 o
0s
b00000000000000000000000000010100 t
b00000000000000000000000000000000 u
0v
b00000001000011111111111111010000 y
14#
#22
b00000000000000000000000000000110 <!
b00000001000000000000000000010000 =!
b0010011 >!
b01110 ?!
b000 B!
b00000000000000000000000000001000000000000000000000000010010010000010010000010000111101110001001100000001000000000000000000010000 E!
b00000001000000000000000000001100 I!
b00000001000000000000001001001000 J!
b00000000000000000000000000000000000000000000000000000000000000000000000100000000000000100100100000000001000000000000000000001100 L!
b00000001000000000000000000010100 P!
b00000000010001110010100000000011 Q!
b00000000000000000000000000000000000000000000000000000000000000000000000001000111001010000000001100000001000000000000000000010100 R!
b00000001000000000000000000001000 V!
b00000001000000000000000000000000 W!
b00 X!
b00000000000000000000000000000000000000000000000000000000000000000000000100000000000000000000000000000001000000000000000000001000 Z!
b00000001000000000000000000000100 f!
0g!
b01100 h!
b00000001000011111111111111111100 i!
b00000000000000000000000000000000000000000000000000000000000000000100001111111111111111110001100000000001000000000000000000000100 j!
04#
#23
b00000000000000000000000000001100 %
0,
1.
b00000001000000000000000000010100 1
b00000000010001110010100000000011 2
b00000001000000000000000000010000 3
b00100100100001111000011100010011 4
b0010011 5
b01110 6
b000 :
b00000001000000000000000000001100 >
b0000011 ?
b010 @
b00000000000000000000001001001000 A
b00000001000000000000001001001000 B
b10001 D
b01000 F
b00000001000000000000000000001000 G
b00000001000000000000000000000000 H
b00000001000000000000000000000000 J
b01111 K
b00000001000000000000000000011000 L
b00000001000000000000000000011000 M
b00100100100001111000011100010011 N
b0000011 P
b10000 Q
b01110 R
b00100 S
b0000000 T
b010 U
b00100 V
b00000000000000000000000000000100 W
1_
b01 a
b0000000001110 c
b0000010101110 d
b1111110000110 e
b00000000000000000000000000001100 j
b10 k
b00000001000000000000001001001000 m
b00000001000000000000000000000000 n
1r
b00000000000000000000000000011000 t
b00000000000000000000001001001000 u
1v
b11 :!
14#
