project/pd5/verif/sim/verilator/test_pd/test1.vcd
$version Generated by VerilatedVcd $end
$timescale 1ps $end
 $scope module TOP $end
  $scope module $unit $end
   $var wire 32 D# ZERO [31:0] $end
  $upscope $end
  $scope module top $end
   $var wire 1 3# clock $end
   $var wire 1 $ reset $end
   $scope module clkg $end
    $var wire 1 3# clk $end
    $var wire 1 $ rst $end
    $var wire 32 % counter [31:0] $end
   $upscope $end
   $scope module dut $end
    $var wire 1 3# clk $end
    $var wire 1 $ reset $end
    $scope module core $end
     $var wire 32 4# AWIDTH [31:0] $end
     $var wire 32 4# DWIDTH [31:0] $end
     $var wire 1 3# clk $end
     $var wire 1 $ reset $end
     $var wire 1 & load_use $end
     $var wire 1 ' wb_d_haz $end
     $var wire 1 ( hazard $end
     $var wire 1 ) stall $end
     $var wire 1 * flush $end
     $var wire 1 + mx_bypass_rs1 $end
     $var wire 1 , mx_bypass_rs2 $end
     $var wire 1 - wx_bypass_rs1 $end
     $var wire 1 . wx_bypass_rs2 $end
     $var wire 1 / wm_bypass $end
     $var wire 32 0 f_d_pc [31:0] $end
     $var wire 32 1 f_d_insn [31:0] $end
     $var wire 32 2 d_x_pc [31:0] $end
     $var wire 32 3 d_x_insn [31:0] $end
     $var wire 7 4 d_x_opcode [6:0] $end
     $var wire 5 5 d_x_rd [4:0] $end
     $var wire 5 6 d_x_rs1 [4:0] $end
     $var wire 5 7 d_x_rs2 [4:0] $end
     $var wire 7 8 d_x_funct7 [6:0] $end
     $var wire 3 9 d_x_funct3 [2:0] $end
     $var wire 32 : d_x_imm [31:0] $end
     $var wire 32 ; d_x_rs1data [31:0] $end
     $var wire 32 < d_x_rs2data [31:0] $end
     $var wire 32 = x_m_pc [31:0] $end
     $var wire 7 > x_m_opcode [6:0] $end
     $var wire 3 ? x_m_funct3 [2:0] $end
     $var wire 32 @ x_m_imm [31:0] $end
     $var wire 32 A x_m_res [31:0] $end
     $var wire 32 B x_m_rs2data [31:0] $end
     $var wire 5 C x_m_rd [4:0] $end
     $var wire 1 D x_m_brtaken $end
     $var wire 5 E x_m_rs2 [4:0] $end
     $var wire 32 F m_w_pc [31:0] $end
     $var wire 32 G m_w_res [31:0] $end
     $var wire 32 H m_w_data [31:0] $end
     $var wire 32 I m_w_imm [31:0] $end
     $var wire 5 J m_w_rd [4:0] $end
     $var wire 32 K f_pc [31:0] $end
     $var wire 32 L pc [31:0] $end
     $var wire 32 M f_insn [31:0] $end
     $var wire 1 N pc_en $end
     $var wire 7 O d_opcode [6:0] $end
     $var wire 5 P d_rd [4:0] $end
     $var wire 5 Q d_rs1 [4:0] $end
     $var wire 5 R d_rs2 [4:0] $end
     $var wire 7 S d_funct7 [6:0] $end
     $var wire 3 T d_funct3 [2:0] $end
     $var wire 5 U d_shamt [4:0] $end
     $var wire 32 V d_imm [31:0] $end
     $var wire 32 1 d_insn [31:0] $end
     $var wire 32 0 d_pc [31:0] $end
     $var wire 32 V igen_imm [31:0] $end
     $var wire 32 W r_rs1data [31:0] $end
     $var wire 32 X r_rs2data [31:0] $end
     $var wire 1 Y c_pcsel $end
     $var wire 1 Z c_immsel $end
     $var wire 1 [ c_regwren $end
     $var wire 1 \ c_rs1sel $end
     $var wire 1 ] c_rs2sel $end
     $var wire 1 ^ c_memren $end
     $var wire 1 _ c_memwren $end
     $var wire 2 ` c_wbsel [1:0] $end
     $var wire 4 a c_alusel [3:0] $end
     $var wire 13 b ctrl_reg[0] [12:0] $end
     $var wire 13 c ctrl_reg[1] [12:0] $end
     $var wire 13 d ctrl_reg[2] [12:0] $end
     $var wire 32 e e_rs1 [31:0] $end
     $var wire 32 f e_rs2 [31:0] $end
     $var wire 32 g e_res [31:0] $end
     $var wire 1 h e_brtaken $end
     $var wire 32 i m_data_o [31:0] $end
     $var wire 1 5# insn_en $end
     $var wire 2 j m_size_encoded [1:0] $end
     $var wire 3 k m_funct3 [2:0] $end
     $var wire 32 l addr_data [31:0] $end
     $var wire 32 m wb_data [31:0] $end
     $var wire 1 :! is_program $end
     $scope module control1 $end
      $var wire 32 4# DWIDTH [31:0] $end
      $var wire 32 1 insn_i [31:0] $end
      $var wire 7 O opcode_i [6:0] $end
      $var wire 7 S funct7_i [6:0] $end
      $var wire 3 T funct3_i [2:0] $end
      $var wire 1 Y pcsel_o $end
      $var wire 1 Z immsel_o $end
      $var wire 1 [ regwren_o $end
      $var wire 1 \ rs1sel_o $end
      $var wire 1 ] rs2sel_o $end
      $var wire 1 ^ memren_o $end
      $var wire 1 _ memwren_o $end
      $var wire 2 ` wbsel_o [1:0] $end
      $var wire 4 a alusel_o [3:0] $end
     $upscope $end
     $scope module decode1 $end
      $var wire 32 4# DWIDTH [31:0] $end
      $var wire 32 4# AWIDTH [31:0] $end
      $var wire 1 3# clk $end
      $var wire 1 $ rst $end
      $var wire 32 1 insn_i [31:0] $end
      $var wire 32 0 pc_i [31:0] $end
      $var wire 32 0 pc_o [31:0] $end
      $var wire 32 1 insn_o [31:0] $end
      $var wire 7 O opcode_o [6:0] $end
      $var wire 5 P rd_o [4:0] $end
      $var wire 5 Q rs1_o [4:0] $end
      $var wire 5 R rs2_o [4:0] $end
      $var wire 7 S funct7_o [6:0] $end
      $var wire 3 T funct3_o [2:0] $end
      $var wire 5 U shamt_o [4:0] $end
      $var wire 32 V imm_o [31:0] $end
     $upscope $end
     $scope module e_alu1 $end
      $var wire 32 4# DWIDTH [31:0] $end
      $var wire 32 4# AWIDTH [31:0] $end
      $var wire 32 2 pc_i [31:0] $end
      $var wire 32 e rs1_i [31:0] $end
      $var wire 32 f rs2_i [31:0] $end
      $var wire 3 9 funct3_i [2:0] $end
      $var wire 7 8 funct7_i [6:0] $end
      $var wire 7 4 opcode_i [6:0] $end
      $var wire 32 : imm_i [31:0] $end
      $var wire 4 n alusel_i [3:0] $end
      $var wire 32 g res_o [31:0] $end
      $var wire 1 h brtaken_o $end
      $var wire 1 o breq $end
      $var wire 1 p brlt $end
      $scope module bc $end
       $var wire 32 4# DWIDTH [31:0] $end
       $var wire 7 4 opcode_i [6:0] $end
       $var wire 3 9 funct3_i [2:0] $end
       $var wire 32 e rs1_i [31:0] $end
       $var wire 32 f rs2_i [31:0] $end
       $var wire 1 o breq_o $end
       $var wire 1 p brlt_o $end
      $upscope $end
     $upscope $end
     $scope module fetch1 $end
      $var wire 32 4# DWIDTH [31:0] $end
      $var wire 32 4# AWIDTH [31:0] $end
      $var wire 32 6# BASEADDR [31:0] $end
      $var wire 1 3# clk $end
      $var wire 1 $ rst $end
      $var wire 1 N pc_en_i $end
      $var wire 32 L pc_o [31:0] $end
      $var wire 32 7# insn_o [31:0] $end
      $var wire 32 L pc [31:0] $end
     $upscope $end
     $scope module igen1 $end
      $var wire 32 4# DWIDTH [31:0] $end
      $var wire 7 O opcode_i [6:0] $end
      $var wire 32 1 insn_i [31:0] $end
      $var wire 32 V imm_o [31:0] $end
     $upscope $end
     $scope module memory1 $end
      $var wire 32 4# AWIDTH [31:0] $end
      $var wire 32 4# DWIDTH [31:0] $end
      $var wire 32 8# BASE_ADDR [31:0] $end
      $var wire 1 3# clk $end
      $var wire 1 $ rst $end
      $var wire 32 K pc_i [31:0] $end
      $var wire 32 B data_i [31:0] $end
      $var wire 32 l addr_i [31:0] $end
      $var wire 3 k funct3_i [2:0] $end
      $var wire 1 q memren_i $end
      $var wire 1 r memwren_i $end
      $var wire 1 5# insn_en_i $end
      $var wire 32 M insn_o [31:0] $end
      $var wire 32 i data_o [31:0] $end
      $var wire 32 s program_counter [31:0] $end
      $var wire 32 9# MEM_BYTES [31:0] $end
      $var wire 32 # i [31:0] $end
      $var wire 32 t address [31:0] $end
     $upscope $end
     $scope module register_file1 $end
      $var wire 32 4# DWIDTH [31:0] $end
      $var wire 1 3# clk $end
      $var wire 1 $ rst $end
      $var wire 5 Q rs1_i [4:0] $end
      $var wire 5 R rs2_i [4:0] $end
      $var wire 5 J rd_i [4:0] $end
      $var wire 32 m datawb_i [31:0] $end
      $var wire 1 u regwren_i $end
      $var wire 32 W rs1data_o [31:0] $end
      $var wire 32 X rs2data_o [31:0] $end
      $var wire 32 v x[0] [31:0] $end
      $var wire 32 w x[1] [31:0] $end
      $var wire 32 x x[2] [31:0] $end
      $var wire 32 y x[3] [31:0] $end
      $var wire 32 z x[4] [31:0] $end
      $var wire 32 { x[5] [31:0] $end
      $var wire 32 | x[6] [31:0] $end
      $var wire 32 } x[7] [31:0] $end
      $var wire 32 ~ x[8] [31:0] $end
      $var wire 32 !! x[9] [31:0] $end
      $var wire 32 "! x[10] [31:0] $end
      $var wire 32 #! x[11] [31:0] $end
      $var wire 32 $! x[12] [31:0] $end
      $var wire 32 %! x[13] [31:0] $end
      $var wire 32 &! x[14] [31:0] $end
      $var wire 32 '! x[15] [31:0] $end
      $var wire 32 (! x[16] [31:0] $end
      $var wire 32 )! x[17] [31:0] $end
      $var wire 32 *! x[18] [31:0] $end
      $var wire 32 +! x[19] [31:0] $end
      $var wire 32 ,! x[20] [31:0] $end
      $var wire 32 -! x[21] [31:0] $end
      $var wire 32 .! x[22] [31:0] $end
      $var wire 32 /! x[23] [31:0] $end
      $var wire 32 0! x[24] [31:0] $end
      $var wire 32 1! x[25] [31:0] $end
      $var wire 32 2! x[26] [31:0] $end
      $var wire 32 3! x[27] [31:0] $end
      $var wire 32 4! x[28] [31:0] $end
      $var wire 32 5! x[29] [31:0] $end
      $var wire 32 6! x[30] [31:0] $end
      $var wire 32 7! x[31] [31:0] $end
      $scope module unnamedblk1 $end
       $var wire 32 8! i [31:0] $end
      $upscope $end
     $upscope $end
     $scope module stall_flush $end
      $var wire 1 ( hazard_i $end
      $var wire 1 h brtaken_i $end
      $var wire 1 N pc_en_o $end
      $var wire 1 ) stall_o $end
      $var wire 1 * flush_o $end
     $upscope $end
     $scope module wb_wb1 $end
      $var wire 32 4# DWIDTH [31:0] $end
      $var wire 32 4# AWIDTH [31:0] $end
      $var wire 32 F pc_i [31:0] $end
      $var wire 32 G alu_res_i [31:0] $end
      $var wire 32 H memory_data_i [31:0] $end
      $var wire 2 9! wbsel_i [1:0] $end
      $var wire 32 I imm_i [31:0] $end
      $var wire 32 m writeback_data_o [31:0] $end
     $upscope $end
    $upscope $end
   $upscope $end
   $scope module genblk3 $end
    $var wire 32 ;! tick [31:0] $end
    $scope module genblk3 $end
     $scope module check_D__Vstatic__check_D_func $end
      $var wire 32 <! pc [31:0] $end
      $var wire 7 =! opcode [6:0] $end
      $var wire 5 >! rd [4:0] $end
      $var wire 5 ?! rs1 [4:0] $end
      $var wire 5 @! rs2 [4:0] $end
      $var wire 3 A! funct3 [2:0] $end
      $var wire 7 B! funct7 [6:0] $end
      $var wire 32 C! imm [31:0] $end
      $var wire 5 :# shamt [4:0] $end
      $var wire 128 D! p [127:0] $end
      $var wire 224 ;# t [223:0] $end
     $upscope $end
     $scope module check_E__Vstatic__check_E_func $end
      $var wire 32 H! pc [31:0] $end
      $var wire 32 I! alu_res [31:0] $end
      $var wire 1 J! br_taken [0:0] $end
      $var wire 128 K! p [127:0] $end
     $upscope $end
     $scope module check_F__Vstatic__check_F_func $end
      $var wire 32 O! pc [31:0] $end
      $var wire 32 P! insn [31:0] $end
      $var wire 128 Q! p [127:0] $end
     $upscope $end
     $scope module check_M__Vstatic__check_M_func $end
      $var wire 32 U! pc [31:0] $end
      $var wire 32 V! address [31:0] $end
      $var wire 2 W! size_encoded [1:0] $end
      $var wire 32 X! data [31:0] $end
      $var wire 128 Y! p [127:0] $end
     $upscope $end
     $scope module check_R__Vstatic__check_R_func $end
      $var wire 5 ]! read_rs1 [4:0] $end
      $var wire 5 ^! read_rs2 [4:0] $end
      $var wire 32 _! read_rs1_data [31:0] $end
      $var wire 32 `! read_rs2_data [31:0] $end
      $var wire 128 a! p [127:0] $end
     $upscope $end
     $scope module check_W__Vstatic__check_W_func $end
      $var wire 32 e! pc [31:0] $end
      $var wire 1 f! enable [0:0] $end
      $var wire 5 g! destination [4:0] $end
      $var wire 32 h! data [31:0] $end
      $var wire 128 i! p [127:0] $end
     $upscope $end
    $upscope $end
    $scope module pre_check $end
     $var wire 32 B# res [31:0] $end
    $upscope $end
    $scope module tick_check $end
     $var wire 1 m! res $end
     $var wire 1 C# tick_ok $end
     $var wire 1 n! correct $end
     $var wire 4096 o! msg [4095:0] $end
    $upscope $end
   $upscope $end
  $upscope $end
 $upscope $end
$enddefinitions $end


#0
b00000000000001000000000000000000 #
1$
b00000000000000000000000000000000 %
0&
0'
0(
0)
0*
0+
0,
0-
0.
0/
b00000000000000000000000000000000 0
b00000000000000000000000000000000 1
b00000000000000000000000000000000 2
b00000000000000000000000000000000 3
b0000000 4
b00000 5
b00000 6
b00000 7
b0000000 8
b000 9
b00000000000000000000000000000000 :
b00000000000000000000000000000000 ;
b00000000000000000000000000000000 <
b00000000000000000000000000000000 =
b0000000 >
b000 ?
b00000000000000000000000000000000 @
b00000000000000000000000000000000 A
b00000000000000000000000000000000 B
b00000 C
0D
b00000 E
b00000000000000000000000000000000 F
b00000000000000000000000000000000 G
b00000000000000000000000000000000 H
b00000000000000000000000000000000 I
b00000 J
b00000001000000000000000000000000 K
b00000001000000000000000000000000 L
b00000000000000000000000000000000 M
1N
b0000000 O
b00000 P
b00000 Q
b00000 R
b0000000 S
b000 T
b00000 U
b00000000000000000000000000000000 V
b00000000000000000000000000000000 W
b00000000000000000000000000000000 X
0Y
0Z
0[
0\
0]
0^
0_
b00 `
b1111 a
b0000000000000 b
b0000000000000 c
b0000000000000 d
b00000000000000000000000000000000 e
b00000000000000000000000000000000 f
b00000000000000000000000000000000 g
0h
b00000000000000000000000000000000 i
b00 j
b010 k
b00000000000000000000000000000000 l
b00000000000000000000000000000000 m
b0000 n
0o
0p
0q
0r
b00000000000000000000000000000000 s
b11111111000000000000000000000000 t
0u
b00000000000000000000000000000000 v
b00000000000000000000000000000000 w
b00000000000000000000000000000000 x
b00000000000000000000000000000000 y
b00000000000000000000000000000000 z
b00000000000000000000000000000000 {
b00000000000000000000000000000000 |
b00000000000000000000000000000000 }
b00000000000000000000000000000000 ~
b00000000000000000000000000000000 !!
b00000000000000000000000000000000 "!
b00000000000000000000000000000000 #!
b00000000000000000000000000000000 $!
b00000000000000000000000000000000 %!
b00000000000000000000000000000000 &!
b00000000000000000000000000000000 '!
b00000000000000000000000000000000 (!
b00000000000000000000000000000000 )!
b00000000000000000000000000000000 *!
b00000000000000000000000000000000 +!
b00000000000000000000000000000000 ,!
b00000000000000000000000000000000 -!
b00000000000000000000000000000000 .!
b00000000000000000000000000000000 /!
b00000000000000000000000000000000 0!
b00000000000000000000000000000000 1!
b00000000000000000000000000000000 2!
b00000000000000000000000000000000 3!
b00000000000000000000000000000000 4!
b00000000000000000000000000000000 5!
b00000000000000000000000000000000 6!
b00000000000000000000000000000000 7!
b00000000000000000000000000000000 8!
b00 9!
0:!
b00000000000000000000000000000000 ;!
b00000000000000000000000000000000 <!
b0000000 =!
b00000 >!
b00000 ?!
b00000 @!
b000 A!
b0000000 B!
b00000000000000000000000000000000 C!
b00000000000000000000000000000000000000000000000000000000000000000000000000000000000000000000000000000000000000000000000000000000 D!
b00000000000000000000000000000000 H!
b00000000000000000000000000000000 I!
0J!
b00000000000000000000000000000000000000000000000000000000000000000000000000000000000000000000000000000000000000000000000000000000 K!
b00000000000000000000000000000000 O!
b00000000000000000000000000000000 P!
b00000000000000000000000000000000000000000000000000000000000000000000000000000000000000000000000000000000000000000000000000000000 Q!
b00000000000000000000000000000000 U!
b00000000000000000000000000000000 V!
b00 W!
b00000000000000000000000000000000 X!
b00000000000000000000000000000000000000000000000000000000000000000000000000000000000000000000000000000000000000000000000000000000 Y!
b00000 ]!
b00000 ^!
b00000000000000000000000000000000 _!
b00000000000000000000000000000000 `!
b00000000000000000000000000000000000000000000000000000000000000000000000000000000000000000000000000000000000000000000000000000000 a!
b00000000000000000000000000000000 e!
0f!
b00000 g!
b00000000000000000000000000000000 h!
b00000000000000000000000000000000000000000000000000000000000000000000000000000000000000000000000000000000000000000000000000000000 i!
0m!
1n!
b0000000000000000000000000000000000000000000000000000000000000000000000000000000000000000000000000000000000000000000000000000000000000000000000000000000000000000000000000000000000000000000000000000000000000000000000000000000000000000000000000000000000000000000000000000000000000000000000000000000000000000000000000000000000000000000000000000000000000000000000000000000000000000000000000000000000000000000000000000000000000000000000000000000000000000000000000000000000000000000000000000000000000000000000000000000000000000000000000000000000000000000000000000000000000000000000000000000000000000000000000000000000000000000000000000000000000000000000000000000000000000000000000000000000000000000000000000000000000000000000000000000000000000000000000000000000000000000000000000000000000000000000000000000000000000000000000000000000000000000000000000000000000000000000000000000000000000000000000000000000000000000000000000000000000000000000000000000000000000000000000000000000000000000000000000000000000000000000000000000000000000000000000000000000000000000000000000000000000000000000000000000000000000000000000000000000000000000000000000000000000000000000000000000000000000000000000000000000000000000000000000000000000000000000000000000000000000000000000000000000000000000000000000000000000000000000000000000000000000000000000000000000000000000000000000000000000000000000000000000000000000000000000000000000000000000000000000000000000000000000000000000000000000000000000000000000000000000000000000000000000000000000000000000000000000000000000000000000000000000000000000000000000000000000000000000000000000000000000000000000000000000000000000000000000000000000000000000000000000000000000000000000000000000000000000000000000000000000000000000000000000000000000000000000000000000000000000000000000000000000000000000000000000000000000000000000000000000000000000000000000000000000000000000000000000000000000000000000000000000000000000000000000000000000000000000000000000000000000000000000000000000000000000000000000000000000000000000000000000000000000000000000000000000000000000000000000000000000000000000000000000000000000000000000000000000000000000000000000000000000000000000000000000000000000000000000000000000000000000000000000000000000000000000000000000000000000000000000000000000000000000000000000000000000000000000000000000000000000000000000000000000000000000000000000000000000000000000000000000000000000000000000000000000000000000000000000000000000000000000000000000000000000000000000000000000000000000000000000000000000000000000000000000000000000000000000000000000000000000000000000000000000000000000000000000000000000000000000000000000000000000000000000000000000000000000000000000000000000000000000000000000000000000000000000000000000000000000000000000000000000000000000000000000000000000000000000000000000000000000000000000000000000000000000000000000000000000000000000000000000000000000000000000000000000000000000000000000000000000000000000000000000000000000000000000000000000000000000000000000000000000000000000000000000000000000000000000000000000000000000000000000000000000000000000000000000000000000000000000000000000000000000000000000000000000000000000000000000000000000000000000000000000000000000000000000000000000000000000000000000000000000000000000000000000000000000000000000000000000000000000000000000000000000000000000000000000000000000000000000000000000000000000000000000000000000000000000000000000000000000000000000000000000000000000000000000000000000000000000000000000000000000000000000000000000000000000000000000000000000000000000000000000000000000000000000000000000000000000000000000000000000000000000000000000000000000000000000000000000000000000000000000000000000000000000000000000000000000000000000000000000000000000000000000000000000000000000000000000000000000000000000000000000000000000000000000000000000000000000000000000000000000000000000000000000000000000000000000000000000000000000000000000000000000000000000000000000000000000000000000000000000000000000000000000000000000000000000000000000000000000000000000000000000000000000000000000000000000000000000000000000000000000000 o!
03#
b00000000000000000000000000100000 4#
15#
b00000001000000000000000000000000 6#
b00000000000000000000000000000000 7#
b00000001000000000000000000000000 8#
b00000000000100000000000000000000 9#
b00000 :#
b00000000000000000000000000000000000000000000000000000000000000000000000000000000000000000000000000000000000000000000000000000000000000000000000000000000000000000000000000000000000000000000000000000000000000000000000000000000 ;#
b00000000000000000000000000000000 B#
0C#
b00000000000000000000000000000000 D#
#1
b00000000000000000000000000000001 %
b00000001000100000000000000000000 x
b00000000000000000000000000100000 8!
13#
#2
03#
#3
b00000000000000000000000000000010 %
13#
#4
03#
#5
b00000000000000000000000000000011 %
13#
#6
03#
#7
b00000000000000000000000000000100 %
13#
#8
03#
#9
b00000000000000000000000000000101 %
13#
#10
03#
#11
0$
b00000000000000000000000000000110 %
b11111101000000010000000100010011 M
13#
#12
b00000000000000000000000000000001 ;!
b00000001000000000000000000000000 O!
b11111101000000010000000100010011 P!
b00000000000000000000000000000000000000000000000000000000000000001111110100000001000000010001001100000001000000000000000000000000 Q!
1m!
03#
#13
b00000000000000000000000000000111 %
b00000001000000000000000000000000 0
b11111101000000010000000100010011 1
b00000001000000000000000000000100 K
b00000001000000000000000000000100 L
b00000010000100010010011000100011 M
b0010011 O
b00010 P
b00010 Q
b1111110 S
b10000 U
b11111111111111111111111111010000 V
b00000001000100000000000000000000 W
1Z
1[
1\
b0000 a
b1111000000000 b
b1111 n
b00000000000000000000000000000100 s
13#
#14
b00000000000000000000000000000010 ;!
b00000001000000000000000000000000 <!
b0010011 =!
b00010 >!
b00010 ?!
b1111110 B!
b11111111111111111111111111010000 C!
b00000000000000000000000000010000111111111111111111111111110100001111110000000000001000010001001100000001000000000000000000000000 D!
b00000001000000000000000000000100 O!
b00000010000100010010011000100011 P!
b00000000000000000000000000000000000000000000000000000000000000000000001000010001001001100010001100000001000000000000000000000100 Q!
b00010 ]!
b00000001000100000000000000000000 _!
b00000000000000000000000000000000000000000000000000000000000000000000000000000000000000000000010001000000000000000000000000000010 a!
03#
#15
b00000000000000000000000000001000 %
b00000001000000000000000000000100 0
b00000010000100010010011000100011 1
b00000001000000000000000000000000 2
b11111101000000010000000100010011 3
b0010011 4
b00010 5
b00010 6
b1111110 8
b11111111111111111111111111010000 :
b00000001000100000000000000000000 ;
b00000001000000000000000000001000 K
b00000001000000000000000000001000 L
b00000001000000000000011110110111 M
b0100011 O
b00000 P
b00001 R
b0000001 S
b010 T
b01100 U
b00000000000000000000000000101100 V
0[
1_
b0000000001110 b
b1111000000000 c
b00000001000100000000000000000000 e
b11111111111111111111111111010000 f
b00000001000011111111111111010000 g
b0000 n
b00000000000000000000000000001000 s
13#
#16
b00000000000000000000000000000011 ;!
b00000001000000000000000000000100 <!
b0100011 =!
b00000 >!
b00001 @!
b010 A!
b0000001 B!
b00000000000000000000000000101100 C!
b00000000000000000000000000000001000000000000000000000000001011000000001010000010001000000010001100000001000000000000000000000100 D!
b00000001000000000000000000000000 H!
b00000001000011111111111111010000 I!
b00000000000000000000000000000000000000000000000000000000000000000000000100001111111111111101000000000001000000000000000000000000 K!
b00000001000000000000000000001000 O!
b00000001000000000000011110110111 P!
b00000000000000000000000000000000000000000000000000000000000000000000000100000000000001111011011100000001000000000000000000001000 Q!
b00001 ^!
b00000000000000000000000000000000000000000000000000000000000000000000000000000000000000000000010001000000000000000000000000100010 a!
03#
#17
b00000000000000000000000000001001 %
1+
b00000001000000000000000000001000 0
b00000001000000000000011110110111 1
b00000001000000000000000000000100 2
b00000010000100010010011000100011 3
b0100011 4
b00000 5
b00001 7
b0000001 8
b010 9
b00000000000000000000000000101100 :
b00000001000000000000000000000000 =
b0010011 >
b11111111111111111111111111010000 @
b00000001000011111111111111010000 A
b00010 C
b00000001000000000000000000001100 K
b00000001000000000000000000001100 L
b00100100100001111010100010000011 M
b0110111 O
b01111 P
b00000 Q
b00000 R
b0000000 S
b000 T
b00000 U
b00000001000000000000000000000000 V
b00000000000000000000000000000000 W
1[
0\
0_
b11 `
b1111 a
b0000001001010 b
b0000000001110 c
b1111000000000 d
b00000001000011111111111111010000 e
b00000000000000000000000000101100 f
b00000001000011111111111111111100 g
b00000001000011111111111111010000 l
b00000000000000000000000000001100 s
b00000000000011111111111111010000 t
13#
#18
b00000000000000000000000000000100 ;!
b00000001000000000000000000001000 <!
b0110111 =!
b01111 >!
b00000 ?!
b00000 @!
b000 A!
b0000000 B!
b00000001000000000000000000000000 C!
b00000000000000000000000000010000000000010000000000000000000000000000000000000000000001111011011100000001000000000000000000001000 D!
b00000001000000000000000000000100 H!
b00000001000011111111111111111100 I!
b00000000000000000000000000000000000000000000000000000000000000000000000100001111111111111111110000000001000000000000000000000100 K!
b00000001000000000000000000001100 O!
b00100100100001111010100010000011 P!
b00000000000000000000000000000000000000000000000000000000000000000010010010000111101010001000001100000001000000000000000000001100 Q!
b00000001000000000000000000000000 U!
b00000001000011111111111111010000 V!
b00000000000000000000000000000000000000000000000000000000000000000000000100001111111111111101000000000001000000000000000000000000 Y!
b00000 ]!
b00000 ^!
b00000000000000000000000000000000 _!
b00000000000000000000000000000000000000000000000000000000000000000000000000000000000000000000000000000000000000000000000000000000 a!
03#
#19
b00000000000000000000000000001010 %
0+
b00000001000000000000000000001100 0
b00100100100001111010100010000011 1
b00000001000000000000000000001000 2
b00000001000000000000011110110111 3
b0110111 4
b01111 5
b00000 6
b00000 7
b0000000 8
b000 9
b00000001000000000000000000000000 :
b00000000000000000000000000000000 ;
b00000001000000000000000000000100 =
b0100011 >
b010 ?
b00000000000000000000000000101100 @
b00000001000011111111111111111100 A
b00000 C
b00001 E
b00000001000000000000000000000000 F
b00000001000011111111111111010000 G
b11111111111111111111111111010000 I
b00010 J
b00000001000000000000000000010000 K
b00000001000000000000000000010000 L
b00100100100001111000011100010011 M
b0000011 O
b10001 P
b01111 Q
b0010010 S
b010 T
b01000 U
b00000000000000000000001001001000 V
1\
1^
b01 `
b0000 a
b1111110000110 b
b0000001001010 c
b0000000001110 d
b00000001000000000000000000001000 e
b00000001000000000000000000000000 f
b00000001000000000000000000000000 g
b10 j
b00000001000011111111111111111100 l
b00000001000011111111111111010000 m
b1111 n
1r
b00000000000000000000000000010000 s
b00000000000011111111111111111100 t
1u
13#
#20
b00000000000000000000000000000101 ;!
b00000001000000000000000000001100 <!
b0000011 =!
b10001 >!
b01111 ?!
b010 A!
b0010010 B!
b00000000000000000000001001001000 C!
b00000000000000000000000000001000000000000000000000000010010010000010010010000000111110001000001100000001000000000000000000001100 D!
b00000001000000000000000000001000 H!
b00000001000000000000000000000000 I!
b00000000000000000000000000000000000000000000000000000000000000000000000100000000000000000000000000000001000000000000000000001000 K!
b00000001000000000000000000010000 O!
b00100100100001111000011100010011 P!
b00000000000000000000000000000000000000000000000000000000000000000010010010000111100001110001001100000001000000000000000000010000 Q!
b00000001000000000000000000000100 U!
b00000001000011111111111111111100 V!
b10 W!
b00000000000000000000000000000000000000000000000000000000000000100000000100001111111111111111110000000001000000000000000000000100 Y!
b01111 ]!
b00000000000000000000000000000000000000000000000000000000000000000000000000000000000000000000000000000000000000000000000000001111 a!
b00000001000000000000000000000000 e!
1f!
b00010 g!
b00000001000011111111111111010000 h!
b00000000000000000000000000000000000000000000000000000000000000000100001111111111111101000000010100000001000000000000000000000000 i!
03#
#21
b00000000000000000000000000001011 %
1+
b00000001000000000000000000010000 0
b00100100100001111000011100010011 1
b00000001000000000000000000001100 2
b00100100100001111010100010000011 3
b0000011 4
b10001 5
b01111 6
b0010010 8
b010 9
b00000000000000000000001001001000 :
b00000001000000000000000000001000 =
b0110111 >
b000 ?
b00000001000000000000000000000000 @
b00000001000000000000000000000000 A
b01111 C
b00000 E
b00000001000000000000000000000100 F
b00000001000011111111111111111100 G
b00000000000000000000000000101100 I
b00000 J
b00000001000000000000000000010100 K
b00000001000000000000000000010100 L
b00000000010001110010100000000011 M
b0010011 O
b01110 P
b000 T
0^
b00 `
b0000010101110 b
b1111110000110 c
b0000001001010 d
b00000001000000000000000000000000 e
b00000000000000000000001001001000 f
b00000001000000000000001001001000 g
b00 j
b00000001000000000000000000000000 l
b00000001000011111111111111111100 m
b0000 n
0r
b00000000000000000000000000010100 s
b00000000000000000000000000000000 t
0u
b00000001000011111111111111010000 x
13#
#22
b00000000000000000000000000000110 ;!
b00000001000000000000000000010000 <!
b0010011 =!
b01110 >!
b000 A!
b00000000000000000000000000001000000000000000000000000010010010000010010000000000111101110001001100000001000000000000000000010000 D!
b00000001000000000000000000001100 H!
b00000001000000000000001001001000 I!
b00000000000000000000000000000000000000000000000000000000000000000000000100000000000000100100100000000001000000000000000000001100 K!
b00000001000000000000000000010100 O!
b00000000010001110010100000000011 P!
b00000000000000000000000000000000000000000000000000000000000000000000000001000111001010000000001100000001000000000000000000010100 Q!
b00000001000000000000000000001000 U!
b00000001000000000000000000000000 V!
b00 W!
b00000000000000000000000000000000000000000000000000000000000000000000000100000000000000000000000000000001000000000000000000001000 Y!
b00000001000000000000000000000100 e!
0f!
b00000 g!
b00000001000011111111111111111100 h!
b00000000000000000000000000000000000000000000000000000000000000000100001111111111111111110000000000000001000000000000000000000100 i!
03#
#23
b00000000000000000000000000001100 %
0+
1-
b00000001000000000000000000010100 0
b00000000010001110010100000000011 1
b00000001000000000000000000010000 2
b00100100100001111000011100010011 3
b0010011 4
b01110 5
b000 9
b00000001000000000000000000001100 =
b0000011 >
b010 ?
b00000000000000000000001001001000 @
b00000001000000000000001001001000 A
b10001 C
b00000001000000000000000000001000 F
b00000001000000000000000000000000 G
b00000001000000000000000000000000 I
b01111 J
b00000001000000000000000000011000 K
b00000001000000000000000000011000 L
b00100100100001111000011100010011 M
b0000011 O
b10000 P
b01110 Q
b0000000 S
b010 T
b00100 U
b00000000000000000000000000000100 V
1^
b01 `
b0000000001110 b
b0000010101110 c
b1111110000110 d
b00000000000000000000000000001100 i
b10 j
b00000001000000000000001001001000 l
b00000001000000000000000000000000 m
1q
b00000000000000000000000000011000 s
b00000000000000000000001001001000 t
1u
b11 9!
13#
