project/pd4/verif/sim/verilator/test_pd/test1.vcd
$version Generated by VerilatedVcd $end
$timescale 1ps $end
 $scope module TOP $end
  $scope module $unit $end
   $var wire 32 1! ZERO [31:0] $end
  $upscope $end
  $scope module top $end
   $var wire 1 (! clock $end
   $var wire 1 $ reset $end
   $scope module clkg $end
    $var wire 1 (! clk $end
    $var wire 1 $ rst $end
    $var wire 32 % counter [31:0] $end
   $upscope $end
   $scope module dut $end
    $var wire 1 (! clk $end
    $var wire 1 $ reset $end
    $scope module core $end
     $var wire 32 )! AWIDTH [31:0] $end
     $var wire 32 )! DWIDTH [31:0] $end
     $var wire 1 (! clk $end
     $var wire 1 $ reset $end
     $var wire 32 & c_insn [31:0] $end
     $var wire 7 ' c_opcode [6:0] $end
     $var wire 7 ( c_funct7 [6:0] $end
     $var wire 3 ) c_funct3 [2:0] $end
     $var wire 1 * c_pcsel $end
     $var wire 1 + c_immsel $end
     $var wire 1 , c_regwren $end
     $var wire 1 - c_rs1sel $end
     $var wire 1 . c_rs2sel $end
     $var wire 1 / c_memren $end
     $var wire 1 0 c_memwren $end
     $var wire 2 1 c_wbsel [1:0] $end
     $var wire 4 2 c_alusel [3:0] $end
     $var wire 32 3 f_pc [31:0] $end
     $var wire 32 & f_insn [31:0] $end
     $var wire 32 3 d_pc_i [31:0] $end
     $var wire 32 & d_insn_i [31:0] $end
     $var wire 32 3 d_pc_o [31:0] $end
     $var wire 32 & d_insn_o [31:0] $end
     $var wire 7 ' d_opcode [6:0] $end
     $var wire 5 4 d_rd [4:0] $end
     $var wire 5 5 d_rs1 [4:0] $end
     $var wire 5 6 d_rs2 [4:0] $end
     $var wire 7 ( d_funct7 [6:0] $end
     $var wire 3 ) d_funct3 [2:0] $end
     $var wire 5 7 d_shamt [4:0] $end
     $var wire 32 8 d_imm [31:0] $end
     $var wire 32 8 igen_imm [31:0] $end
     $var wire 5 5 r_rs1 [4:0] $end
     $var wire 5 6 r_rs2 [4:0] $end
     $var wire 5 4 r_rd [4:0] $end
     $var wire 32 9 r_rs1data [31:0] $end
     $var wire 32 : r_rs2data [31:0] $end
     $var wire 32 ; r_rddata [31:0] $end
     $var wire 1 , r_regwren $end
     $var wire 32 < e_rs1 [31:0] $end
     $var wire 32 = e_rs2 [31:0] $end
     $var wire 32 > e_res [31:0] $end
     $var wire 32 3 e_pc [31:0] $end
     $var wire 3 ) e_funct3 [2:0] $end
     $var wire 7 ( e_funct7 [6:0] $end
     $var wire 7 ' e_opcode [6:0] $end
     $var wire 4 2 e_alusel [3:0] $end
     $var wire 32 8 e_imm [31:0] $end
     $var wire 1 ? e_brtaken $end
     $var wire 32 @ m_pc [31:0] $end
     $var wire 32 & m_insn [31:0] $end
     $var wire 32 A m_addr [31:0] $end
     $var wire 32 B m_data_o [31:0] $end
     $var wire 32 C m_data_i [31:0] $end
     $var wire 1 / m_memren $end
     $var wire 1 *! read_en $end
     $var wire 1 0 m_memwren $end
     $var wire 3 +! m_funct3 [2:0] $end
     $var wire 32 3 wb_pc [31:0] $end
     $var wire 32 ; wb_data [31:0] $end
     $var wire 32 B wb_mdata [31:0] $end
     $var wire 32 > wb_nextPC [31:0] $end
     $var wire 32 8 wb_imm [31:0] $end
     $var wire 32 > wb_res [31:0] $end
     $var wire 1 ? wb_brtaken $end
     $var wire 1 * wb_pcsel $end
     $var wire 2 ,! wb_wbsel [1:0] $end
     $var wire 1 D is_program $end
     $scope module control1 $end
      $var wire 32 )! DWIDTH [31:0] $end
      $var wire 32 & insn_i [31:0] $end
      $var wire 7 ' opcode_i [6:0] $end
      $var wire 7 ( funct7_i [6:0] $end
      $var wire 3 ) funct3_i [2:0] $end
      $var wire 1 * pcsel_o $end
      $var wire 1 + immsel_o $end
      $var wire 1 , regwren_o $end
      $var wire 1 - rs1sel_o $end
      $var wire 1 . rs2sel_o $end
      $var wire 1 / memren_o $end
      $var wire 1 0 memwren_o $end
      $var wire 2 1 wbsel_o [1:0] $end
      $var wire 4 2 alusel_o [3:0] $end
     $upscope $end
     $scope module decode1 $end
      $var wire 32 )! DWIDTH [31:0] $end
      $var wire 32 )! AWIDTH [31:0] $end
      $var wire 1 (! clk $end
      $var wire 1 $ rst $end
      $var wire 32 & insn_i [31:0] $end
      $var wire 32 3 pc_i [31:0] $end
      $var wire 32 3 pc_o [31:0] $end
      $var wire 32 & insn_o [31:0] $end
      $var wire 7 ' opcode_o [6:0] $end
      $var wire 5 4 rd_o [4:0] $end
      $var wire 5 5 rs1_o [4:0] $end
      $var wire 5 6 rs2_o [4:0] $end
      $var wire 7 ( funct7_o [6:0] $end
      $var wire 3 ) funct3_o [2:0] $end
      $var wire 5 7 shamt_o [4:0] $end
      $var wire 32 8 imm_o [31:0] $end
     $upscope $end
     $scope module e_alu1 $end
      $var wire 32 )! DWIDTH [31:0] $end
      $var wire 32 )! AWIDTH [31:0] $end
      $var wire 32 3 pc_i [31:0] $end
      $var wire 32 < rs1_i [31:0] $end
      $var wire 32 = rs2_i [31:0] $end
      $var wire 3 ) funct3_i [2:0] $end
      $var wire 7 ( funct7_i [6:0] $end
      $var wire 7 ' opcode_i [6:0] $end
      $var wire 32 8 imm_i [31:0] $end
      $var wire 4 2 alusel_i [3:0] $end
      $var wire 32 > res_o [31:0] $end
      $var wire 1 ? brtaken_o $end
      $var wire 1 E breq $end
      $var wire 1 F brlt $end
      $scope module bc $end
       $var wire 32 )! DWIDTH [31:0] $end
       $var wire 7 ' opcode_i [6:0] $end
       $var wire 3 ) funct3_i [2:0] $end
       $var wire 32 < rs1_i [31:0] $end
       $var wire 32 = rs2_i [31:0] $end
       $var wire 1 E breq_o $end
       $var wire 1 F brlt_o $end
      $upscope $end
     $upscope $end
     $scope module fetch1 $end
      $var wire 32 )! DWIDTH [31:0] $end
      $var wire 32 )! AWIDTH [31:0] $end
      $var wire 32 -! BASEADDR [31:0] $end
      $var wire 1 (! clk $end
      $var wire 1 $ rst $end
      $var wire 32 3 pc_o [31:0] $end
      $var wire 32 .! insn_o [31:0] $end
      $var wire 32 3 pc [31:0] $end
     $upscope $end
     $scope module igen1 $end
      $var wire 32 )! DWIDTH [31:0] $end
      $var wire 7 ' opcode_i [6:0] $end
      $var wire 32 & insn_i [31:0] $end
      $var wire 32 8 imm_o [31:0] $end
     $upscope $end
     $scope module memory1 $end
      $var wire 32 )! AWIDTH [31:0] $end
      $var wire 32 )! DWIDTH [31:0] $end
      $var wire 32 /! BASE_ADDR [31:0] $end
      $var wire 1 (! clk $end
      $var wire 1 $ rst $end
      $var wire 32 @ pc_i [31:0] $end
      $var wire 32 C data_i [31:0] $end
      $var wire 32 A addr_i [31:0] $end
      $var wire 3 +! funct3_i [2:0] $end
      $var wire 1 0 memren_i $end
      $var wire 1 *! read_en_i $end
      $var wire 1 0 write_en_i $end
      $var wire 32 & insn_o [31:0] $end
      $var wire 32 B data_o [31:0] $end
      $var wire 32 0! MEM_BYTES [31:0] $end
      $var wire 32 G program_counter [31:0] $end
      $var wire 32 # i [31:0] $end
      $var wire 32 H address [31:0] $end
     $upscope $end
     $scope module register_file1 $end
      $var wire 32 )! DWIDTH [31:0] $end
      $var wire 1 (! clk $end
      $var wire 1 $ rst $end
      $var wire 5 5 rs1_i [4:0] $end
      $var wire 5 6 rs2_i [4:0] $end
      $var wire 5 4 rd_i [4:0] $end
      $var wire 32 ; datawb_i [31:0] $end
      $var wire 1 , regwren_i $end
      $var wire 32 9 rs1data_o [31:0] $end
      $var wire 32 : rs2data_o [31:0] $end
      $var wire 32 I x[0] [31:0] $end
      $var wire 32 J x[1] [31:0] $end
      $var wire 32 K x[2] [31:0] $end
      $var wire 32 L x[3] [31:0] $end
      $var wire 32 M x[4] [31:0] $end
      $var wire 32 N x[5] [31:0] $end
      $var wire 32 O x[6] [31:0] $end
      $var wire 32 P x[7] [31:0] $end
      $var wire 32 Q x[8] [31:0] $end
      $var wire 32 R x[9] [31:0] $end
      $var wire 32 S x[10] [31:0] $end
      $var wire 32 T x[11] [31:0] $end
      $var wire 32 U x[12] [31:0] $end
      $var wire 32 V x[13] [31:0] $end
      $var wire 32 W x[14] [31:0] $end
      $var wire 32 X x[15] [31:0] $end
      $var wire 32 Y x[16] [31:0] $end
      $var wire 32 Z x[17] [31:0] $end
      $var wire 32 [ x[18] [31:0] $end
      $var wire 32 \ x[19] [31:0] $end
      $var wire 32 ] x[20] [31:0] $end
      $var wire 32 ^ x[21] [31:0] $end
      $var wire 32 _ x[22] [31:0] $end
      $var wire 32 ` x[23] [31:0] $end
      $var wire 32 a x[24] [31:0] $end
      $var wire 32 b x[25] [31:0] $end
      $var wire 32 c x[26] [31:0] $end
      $var wire 32 d x[27] [31:0] $end
      $var wire 32 e x[28] [31:0] $end
      $var wire 32 f x[29] [31:0] $end
      $var wire 32 g x[30] [31:0] $end
      $var wire 32 h x[31] [31:0] $end
      $scope module unnamedblk1 $end
       $var wire 32 i i [31:0] $end
      $upscope $end
     $upscope $end
     $scope module wb_wb1 $end
      $var wire 32 )! DWIDTH [31:0] $end
      $var wire 32 )! AWIDTH [31:0] $end
      $var wire 32 3 pc_i [31:0] $end
      $var wire 32 > alu_res_i [31:0] $end
      $var wire 32 B memory_data_i [31:0] $end
      $var wire 2 ,! wbsel_i [1:0] $end
      $var wire 1 ? brtaken_i $end
      $var wire 32 8 imm_i [31:0] $end
      $var wire 1 * pcsel_i $end
      $var wire 32 ; writeback_data_o [31:0] $end
      $var wire 32 > next_pc_o [31:0] $end
     $upscope $end
    $upscope $end
   $upscope $end
   $scope module genblk2 $end
    $var wire 768 j pattern_dump [767:0] $end
    $scope module pattern_dump_proc $end
     $var wire 128 $! stage [127:0] $end
    $upscope $end
   $upscope $end
  $upscope $end
 $upscope $end
$enddefinitions $end


#0
b00000000000000001000000000000000 #
1$
b00000000000000000000000000000000 %
b11111101000000010000000100010011 &
b0010011 '
b1111110 (
b000 )
0*
1+
1,
1-
0.
0/
00
b00 1
b0000 2
b00000001000000000000000000000000 3
b00010 4
b00010 5
b10000 6
b10000 7
b11111111111111111111111111010000 8
b00000000000000000000000000000000 9
b00000000000000000000000000000000 :
b11111111111111111111111111010000 ;
b00000000000000000000000000000000 <
b11111111111111111111111111010000 =
b11111111111111111111111111010000 >
0?
b00000001000000000000000000000000 @
b11111111111111111111111111010000 A
b00000000000000000000000000000000 B
b00000000000000000000000000000000 C
0D
0E
0F
b00000000000000000000000000000000 G
b11111110111111111111111111010000 H
b00000000000000000000000000000000 I
b00000000000000000000000000000000 J
b00000000000000000000000000000000 K
b00000000000000000000000000000000 L
b00000000000000000000000000000000 M
b00000000000000000000000000000000 N
b00000000000000000000000000000000 O
b00000000000000000000000000000000 P
b00000000000000000000000000000000 Q
b00000000000000000000000000000000 R
b00000000000000000000000000000000 S
b00000000000000000000000000000000 T
b00000000000000000000000000000000 U
b00000000000000000000000000000000 V
b00000000000000000000000000000000 W
b00000000000000000000000000000000 X
b00000000000000000000000000000000 Y
b00000000000000000000000000000000 Z
b00000000000000000000000000000000 [
b00000000000000000000000000000000 \
b00000000000000000000000000000000 ]
b00000000000000000000000000000000 ^
b00000000000000000000000000000000 _
b00000000000000000000000000000000 `
b00000000000000000000000000000000 a
b00000000000000000000000000000000 b
b00000000000000000000000000000000 c
b00000000000000000000000000000000 d
b00000000000000000000000000000000 e
b00000000000000000000000000000000 f
b00000000000000000000000000000000 g
b00000000000000000000000000000000 h
b00000000000000000000000000000000 i
b000000000000000000000000000000000000000000000000000000000000000000000000000000000000000000000000000000000000000000000000000000000000000000000000000000000000000000000000000000000000000000000000000000000000000000000000000000000000000000000000000000000000000000000000000000000000000000000000000000000000000000000000000000000000000000000000000000000000000000000000000000000000000000000000000000000000000000000000000000000000000000000000000000000000000000000000000000000000000000000000000000000000000000000000000000000000000000000000000000000000000000000000000000000000000000000000000000000000000000000000000000000000000000000000000000000000000000000000000000000000000000000000000000000000000000000000000000000000000000000000000000000000000000000000000000000000000000000000 j
b00000000000000000000000000000000000000000000000000000000000000000000000000000000000000000000000000000000000000000000000000000000 $!
0(!
b00000000000000000000000000100000 )!
1*!
b000 +!
b00 ,!
b00000001000000000000000000000000 -!
b00000000000000000000000000000000 .!
b00000001000000000000000000000000 /!
b00000000000000100000000000000000 0!
b00000000000000000000000000000000 1!
#1
b00000000000000000000000000000001 %
b00000001000100000000000000000000 9
b00000001000011111111111111010000 ;
b00000001000100000000000000000000 <
b00000001000011111111111111010000 >
b00000001000011111111111111010000 A
b00000000000011111111111111010000 H
b00000001000100000000000000000000 K
b00000000000000000000000000100000 i
1(!
#2
0(!
#3
b00000000000000000000000000000010 %
1(!
#4
0(!
#5
b00000000000000000000000000000011 %
1(!
#6
0(!
#7
b00000000000000000000000000000100 %
1(!
#8
0(!
#9
b00000000000000000000000000000101 %
1(!
#10
0(!
#11
0$
b00000000000000000000000000000110 %
1(!
#12
b000000000000000000000000000000000000000000000000000000000000000001000011111111111111010000000101000000010000000000000000000000000000000000000000000000000000000000000000000000000000000000000000000000010000111111111111110100000000000100000000000000000000000000000000000000000000000000000000000000000000000000000000000000000000000100001111111111111101000000000001000000000000000000000000000000000000000000000000000000000000000000000000000000000000000000000000000000000000000000000100010000000000000000000010000000100000000000000000000000000001000011111111111111111111111111010000111111000010000000100001000100110000000100000000000000000000000000000000000000000000000000000000000000000000000000000000000000001111110100000001000000010001001100000001000000000000000000000000 j
b00000000000000000000000000000000000000000000000000000000000000000100001111111111111101000000010100000001000000000000000000000000 $!
0(!
#13
b00000000000000000000000000000111 %
b00000010000100010010011000100011 &
b0100011 '
b0000001 (
b010 )
0,
10
b00000001000000000000000000000100 3
b01100 4
b00001 6
b01100 7
b00000000000000000000000000101100 8
b00000001000011111111111111010000 9
b00000001000011111111111111111100 ;
b00000001000011111111111111010000 <
b00000000000000000000000000101100 =
b00000001000011111111111111111100 >
b00000001000000000000000000000100 @
b00000001000011111111111111111100 A
b00000000000000000000000000000100 G
b00000000000011111111111111111100 H
b00000001000011111111111111010000 K
1(!
#14
b000000000000000000000000000000000000000000000000000000000000000001000011111111111111111100011000000000010000000000000000000001000000000000000000000000000000000000000000000000000000000000000000000000010000111111111111111111000000000100000000000000000000010000000000000000000000000000000000000000000000000000000000000000000000000100001111111111111111110000000001000000000000000000000100000000000000000000000000000000000000000000000000000000000000000000000000000000000000000000000100001111111111111101000000001000100000000000000000000000000000110000000000000000000000000000101100000000101000001000100110001000110000000100000000000000000000010000000000000000000000000000000000000000000000000000000000000000000000001000010001001001100010001100000001000000000000000000000100 j
b00000000000000000000000000000000000000000000000000000000000000000100001111111111111111110001100000000001000000000000000000000100 $!
0(!
#15
b00000000000000000000000000001000 %
b00000001000000000000011110110111 &
b0110111 '
b0000000 (
b000 )
1,
0-
00
b11 1
b1111 2
b00000001000000000000000000001000 3
b01111 4
b00000 5
b10000 6
b00000 7
b00000001000000000000000000000000 8
b00000000000000000000000000000000 9
b00000000000000000000000000000000 ;
b00000001000000000000000000001000 <
b00000001000000000000000000000000 =
b00000000000000000000000000000000 >
b00000001000000000000000000001000 @
b00000000000000000000000000000000 A
b00000000000000000000000000001000 G
b11111111000000000000000000000000 H
1(!
#16
b000000000000000000000000000000000000000000000000000000000000000000000000000000000000000000011111000000010000000000000000000010000000000000000000000000000000000000000000000000000000000000000000000000000000000000000000000000000000000100000000000000000000100000000000000000000000000000000000000000000000000000000000000000000000000000000000000000000000000000000001000000000000000000001000000000000000000000000000000000000000000000000000000000000000000000000000000000000000000000000000000000000000000000000010000000000000000000000000000000000000000000000001000000000000000000000000000000000010000000000111101101110000000100000000000000000000100000000000000000000000000000000000000000000000000000000000000000000000000100000000000001111011011100000001000000000000000000001000 j
b00000000000000000000000000000000000000000000000000000000000000000000000000000000000000000001111100000001000000000000000000001000 $!
0(!
#17
b00000000000000000000000000001001 %
b00100100100001111010100010000011 &
b0000011 '
b0010010 (
b010 )
1-
1/
b01 1
b0000 2
b00000001000000000000000000001100 3
b10001 4
b01111 5
b01000 6
b01000 7
b00000000000000000000001001001000 8
b00000000000000000000001001001000 ;
b00000000000000000000000000000000 <
b00000000000000000000001001001000 =
b00000000000000000000001001001000 >
b00000001000000000000000000001100 @
b00000000000000000000001001001000 A
b00000000000000000000000000001100 G
b11111111000000000000001001001000 H
1(!
#18
b000000000000000000000000000000000000000000000000000000000000000000000000000000001001001000100011000000010000000000000000000011000000000000000000000000000000000000000000000000000000000000000000000000000000000000000010010010000000000100000000000000000000110000000000000000000000000000000000000000000000000000000000000000000000000000000000000000100100100000000001000000000000000000001100000000000000000000000000000000000000000000000000000000000000000000000000000000000000000000000000000000000000000000000001000011110000000000000000000000000000100000000000000000000000001001001000001001001001000011111000100000110000000100000000000000000000110000000000000000000000000000000000000000000000000000000000000000000010010010000111101010001000001100000001000000000000000000001100 j
b00000000000000000000000000000000000000000000000000000000000000000000000000000000100100100010001100000001000000000000000000001100 $!
0(!
#19
b00000000000000000000000000001010 %
b00100100100001111000011100010011 &
b0010011 '
b000 )
0/
b00 1
b00000001000000000000000000010000 3
b01110 4
b00000001000000000000000000010000 @
b00000000000000000000000000010000 G
b00000000000000000000001001001000 Z
1(!
#20
b000000000000000000000000000000000000000000000000000000000000000000000000000000001001001000011101000000010000000000000000000100000000000000000000000000000000000000000000000000000000000000000000000000000000000000000010010010000000000100000000000000000001000000000000000000000000000000000000000000000000000000000000000000000000000000000000000000100100100000000001000000000000000000010000000000000000000000000000000000000000000000000000000000000000000000000000000000000000000000000000000000000000000000000001000011110000000000000000000000000000100000000000000000000000001001001000001001000001000011110111000100110000000100000000000000000001000000000000000000000000000000000000000000000000000000000000000000000010010010000111100001110001001100000001000000000000000000010000 j
b00000000000000000000000000000000000000000000000000000000000000000000000000000000100100100001110100000001000000000000000000010000 $!
0(!
#21
b00000000000000000000000000001011 %
b00000000010001110010100000000011 &
b0000011 '
b0000000 (
b010 )
1/
b01 1
b00000001000000000000000000010100 3
b10000 4
b01110 5
b00100 6
b00100 7
b00000000000000000000000000000100 8
b00000000000000000000001001001000 9
b00000000000000000000001001001100 ;
b00000000000000000000001001001000 <
b00000000000000000000000000000100 =
b00000000000000000000001001001100 >
b00000001000000000000000000010100 @
b00000000000000000000001001001100 A
b00000000000000000000000000010100 G
b11111111000000000000001001001100 H
b00000000000000000000001001001000 W
1(!
#22
b000000000000000000000000000000000000000000000000000000000000000000000000000000001001001100100001000000010000000000000000000101000000000000000000000000000000000000000000000000000000000000000000000000000000000000000010010011000000000100000000000000000001010000000000000000000000000000000000000000000000000000000000000000000000000000000000000000100100110000000001000000000000000000010100000000000000000000000000000000000000000000000000000000000000000000000000000000000000000000000000000000000000100100100000100011100000000000000000000000000000010000000000000000000000000000000100000000001000100011101000000000110000000100000000000000000001010000000000000000000000000000000000000000000000000000000000000000000000000001000111001010000000001100000001000000000000000000010100 j
b00000000000000000000000000000000000000000000000000000000000000000000000000000000100100110010000100000001000000000000000000010100 $!
0(!
#23
b00000000000000000000000000001100 %
b00100100100001111000011100010011 &
b0010011 '
b0010010 (
b000 )
0/
b00 1
b00000001000000000000000000011000 3
b01110 4
b01111 5
b01000 6
b01000 7
b00000000000000000000001001001000 8
b00000000000000000000000000000000 9
b00000000000000000000001001001000 ;
b00000000000000000000000000000000 <
b00000000000000000000001001001000 =
b00000000000000000000001001001000 >
b00000001000000000000000000011000 @
b00000000000000000000001001001000 A
b00000000000000000000000000011000 G
b11111111000000000000001001001000 H
b00000000000000000000001001001100 Y
1(!
#24
b000000000000000000000000000000000000000000000000000000000000000000000000000000001001001000011101000000010000000000000000000110000000000000000000000000000000000000000000000000000000000000000000000000000000000000000010010010000000000100000000000000000001100000000000000000000000000000000000000000000000000000000000000000000000000000000000000000100100100000000001000000000000000000011000000000000000000000000000000000000000000000000000000000000000000000000000000000000000000000000000000000000000000000000001000011110000000000000000000000000000100000000000000000000000001001001000001001000001000011110111000100110000000100000000000000000001100000000000000000000000000000000000000000000000000000000000000000000010010010000111100001110001001100000001000000000000000000011000 j
b00000000000000000000000000000000000000000000000000000000000000000000000000000000100100100001110100000001000000000000000000011000 $!
0(!
#25
b00000000000000000000000000001101 %
b00000000100001110010010100000011 &
b0000011 '
b0000000 (
b010 )
1/
b01 1
b00000001000000000000000000011100 3
b01010 4
b01110 5
b00000000000000000000000000001000 8
b00000000000000000000001001001000 9
b00000000000000000000001001010000 ;
b00000000000000000000001001001000 <
b00000000000000000000000000001000 =
b00000000000000000000001001010000 >
b00000001000000000000000000011100 @
b00000000000000000000001001010000 A
b00000000000000000000000000011100 G
b11111111000000000000001001010000 H
1(!
#26
b000000000000000000000000000000000000000000000000000000000000000000000000000000001001010000010101000000010000000000000000000111000000000000000000000000000000000000000000000000000000000000000000000000000000000000000010010100000000000100000000000000000001110000000000000000000000000000000000000000000000000000000000000000000000000000000000000000100101000000000001000000000000000000011100000000000000000000000000000000000000000000000000000000000000000000000000000000000000000000000000000000000000100100100001000011100000000000000000000000000000100000000000000000000000000000001000000000001001000011100101000000110000000100000000000000000001110000000000000000000000000000000000000000000000000000000000000000000000000010000111001001010000001100000001000000000000000000011100 j
b00000000000000000000000000000000000000000000000000000000000000000000000000000000100101000001010100000001000000000000000000011100 $!
0(!
#27
b00000000000000000000000000001110 %
b00100100100001111000011100010011 &
b0010011 '
b0010010 (
b000 )
0/
b00 1
b00000001000000000000000000100000 3
b01110 4
b01111 5
b00000000000000000000001001001000 8
b00000000000000000000000000000000 9
b00000000000000000000001001001000 ;
b00000000000000000000000000000000 <
b00000000000000000000001001001000 =
b00000000000000000000001001001000 >
b00000001000000000000000000100000 @
b00000000000000000000001001001000 A
b00000000000000000000000000100000 G
b11111111000000000000001001001000 H
b00000000000000000000001001010000 S
1(!
#28
b000000000000000000000000000000000000000000000000000000000000000000000000000000001001001000011101000000010000000000000000001000000000000000000000000000000000000000000000000000000000000000000000000000000000000000000010010010000000000100000000000000000010000000000000000000000000000000000000000000000000000000000000000000000000000000000000000000100100100000000001000000000000000000100000000000000000000000000000000000000000000000000000000000000000000000000000000000000000000000000000000000000000000000000001000011110000000000000000000000000000100000000000000000000000001001001000001001000001000011110111000100110000000100000000000000000010000000000000000000000000000000000000000000000000000000000000000000000010010010000111100001110001001100000001000000000000000000100000 j
b00000000000000000000000000000000000000000000000000000000000000000000000000000000100100100001110100000001000000000000000000100000 $!
0(!
#29
b00000000000000000000000000001111 %
b00000000110001110010010110000011 &
b0000011 '
b0000000 (
b010 )
1/
b01 1
b00000001000000000000000000100100 3
b01011 4
b01110 5
b01100 6
b01100 7
b00000000000000000000000000001100 8
b00000000000000000000001001001000 9
b00000000000000000000001001010100 ;
b00000000000000000000001001001000 <
b00000000000000000000000000001100 =
b00000000000000000000001001010100 >
b00000001000000000000000000100100 @
b00000000000000000000001001010100 A
b00000000000000000000000000100100 G
b11111111000000000000001001010100 H
1(!
#30
b000000000000000000000000000000000000000000000000000000000000000000000000000000001001010100010111000000010000000000000000001001000000000000000000000000000000000000000000000000000000000000000000000000000000000000000010010101000000000100000000000000000010010000000000000000000000000000000000000000000000000000000000000000000000000000000000000000100101010000000001000000000000000000100100000000000000000000000000000000000000000000000000000000000000000000000000000000000000000000000000000000000000100100100001100011100000000000000000000000000000110000000000000000000000000000001100000000001001100011100101100000110000000100000000000000000010010000000000000000000000000000000000000000000000000000000000000000000000000011000111001001011000001100000001000000000000000000100100 j
b00000000000000000000000000000000000000000000000000000000000000000000000000000000100101010001011100000001000000000000000000100100 $!
0(!
#31
b00000000000000000000000000010000 %
b00100100100001111000011100010011 &
b0010011 '
b0010010 (
b000 )
0/
b00 1
b00000001000000000000000000101000 3
b01110 4
b01111 5
b01000 6
b01000 7
b00000000000000000000001001001000 8
b00000000000000000000000000000000 9
b00000000000000000000001001001000 ;
b00000000000000000000000000000000 <
b00000000000000000000001001001000 =
b00000000000000000000001001001000 >
b00000001000000000000000000101000 @
b00000000000000000000001001001000 A
b00000000000000000000000000101000 G
b11111111000000000000001001001000 H
b00000000000000000000001001010100 T
1(!
#32
b000000000000000000000000000000000000000000000000000000000000000000000000000000001001001000011101000000010000000000000000001010000000000000000000000000000000000000000000000000000000000000000000000000000000000000000010010010000000000100000000000000000010100000000000000000000000000000000000000000000000000000000000000000000000000000000000000000100100100000000001000000000000000000101000000000000000000000000000000000000000000000000000000000000000000000000000000000000000000000000000000000000000000000000001000011110000000000000000000000000000100000000000000000000000001001001000001001000001000011110111000100110000000100000000000000000010100000000000000000000000000000000000000000000000000000000000000000000010010010000111100001110001001100000001000000000000000000101000 j
b00000000000000000000000000000000000000000000000000000000000000000000000000000000100100100001110100000001000000000000000000101000 $!
0(!
#33
b00000000000000000000000000010001 %
b00000001000001110010011000000011 &
b0000011 '
b0000000 (
b010 )
1/
b01 1
b00000001000000000000000000101100 3
b01100 4
b01110 5
b10000 6
b10000 7
b00000000000000000000000000010000 8
b00000000000000000000001001001000 9
b00000000000000000000001001001100 :
b00000000000000000000001001011000 ;
b00000000000000000000001001001000 <
b00000000000000000000000000010000 =
b00000000000000000000001001011000 >
b00000001000000000000000000101100 @
b00000000000000000000001001011000 A
b00000000000000000000001001001100 C
b00000000000000000000000000101100 G
b11111111000000000000001001011000 H
1(!
#34
b000000000000000000000000000000000000000000000000000000000000000000000000000000001001011000011001000000010000000000000000001011000000000000000000000000000000000000000000000000000000000000000000000000000000000000000010010110000000000100000000000000000010110000000000000000000000000000000000000000000000000000000000000000000000000000000000000000100101100000000001000000000000000000101100000000000000000000000000000000000000000000000000000000000000000000000000000010010011000000000000000000000000100100100010000011100000000000000000000000000001000000000000000000000000000000010000000000001010000011100110000000110000000100000000000000000010110000000000000000000000000000000000000000000000000000000000000000000000000100000111001001100000001100000001000000000000000000101100 j
b00000000000000000000000000000000000000000000000000000000000000000000000000000000100101100001100100000001000000000000000000101100 $!
0(!
#35
b00000000000000000000000000010010 %
b00100100100001111000011100010011 &
b0010011 '
b0010010 (
b000 )
0/
b00 1
b00000001000000000000000000110000 3
b01110 4
b01111 5
b01000 6
b01000 7
b00000000000000000000001001001000 8
b00000000000000000000000000000000 9
b00000000000000000000000000000000 :
b00000000000000000000001001001000 ;
b00000000000000000000000000000000 <
b00000000000000000000001001001000 =
b00000000000000000000001001001000 >
b00000001000000000000000000110000 @
b00000000000000000000001001001000 A
b00000000000000000000000000000000 C
b00000000000000000000000000110000 G
b11111111000000000000001001001000 H
b00000000000000000000001001011000 U
1(!
#36
b000000000000000000000000000000000000000000000000000000000000000000000000000000001001001000011101000000010000000000000000001100000000000000000000000000000000000000000000000000000000000000000000000000000000000000000010010010000000000100000000000000000011000000000000000000000000000000000000000000000000000000000000000000000000000000000000000000100100100000000001000000000000000000110000000000000000000000000000000000000000000000000000000000000000000000000000000000000000000000000000000000000000000000000001000011110000000000000000000000000000100000000000000000000000001001001000001001000001000011110111000100110000000100000000000000000011000000000000000000000000000000000000000000000000000000000000000000000010010010000111100001110001001100000001000000000000000000110000 j
b00000000000000000000000000000000000000000000000000000000000000000000000000000000100100100001110100000001000000000000000000110000 $!
0(!
#37
b00000000000000000000000000010011 %
b00000001010001110010011010000011 &
b0000011 '
b0000000 (
b010 )
1/
b01 1
b00000001000000000000000000110100 3
b01101 4
b01110 5
b10100 6
b10100 7
b00000000000000000000000000010100 8
b00000000000000000000001001001000 9
b00000000000000000000001001011100 ;
b00000000000000000000001001001000 <
b00000000000000000000000000010100 =
b00000000000000000000001001011100 >
b00000001000000000000000000110100 @
b00000000000000000000001001011100 A
b00000000000000000000000000110100 G
b11111111000000000000001001011100 H
1(!
#38
b000000000000000000000000000000000000000000000000000000000000000000000000000000001001011100011011000000010000000000000000001101000000000000000000000000000000000000000000000000000000000000000000000000000000000000000010010111000000000100000000000000000011010000000000000000000000000000000000000000000000000000000000000000000000000000000000000000100101110000000001000000000000000000110100000000000000000000000000000000000000000000000000000000000000000000000000000000000000000000000000000000000000100100100010100011100000000000000000000000000001010000000000000000000000000000010100000000001010100011100110100000110000000100000000000000000011010000000000000000000000000000000000000000000000000000000000000000000000000101000111001001101000001100000001000000000000000000110100 j
b00000000000000000000000000000000000000000000000000000000000000000000000000000000100101110001101100000001000000000000000000110100 $!
0(!
#39
b00000000000000000000000000010100 %
b00100100100001111000011100010011 &
b0010011 '
b0010010 (
b000 )
0/
b00 1
b00000001000000000000000000111000 3
b01110 4
b01111 5
b01000 6
b01000 7
b00000000000000000000001001001000 8
b00000000000000000000000000000000 9
b00000000000000000000001001001000 ;
b00000000000000000000000000000000 <
b00000000000000000000001001001000 =
b00000000000000000000001001001000 >
b00000001000000000000000000111000 @
b00000000000000000000001001001000 A
b00000000000000000000000000111000 G
b11111111000000000000001001001000 H
b00000000000000000000001001011100 V
1(!
#40
b000000000000000000000000000000000000000000000000000000000000000000000000000000001001001000011101000000010000000000000000001110000000000000000000000000000000000000000000000000000000000000000000000000000000000000000010010010000000000100000000000000000011100000000000000000000000000000000000000000000000000000000000000000000000000000000000000000100100100000000001000000000000000000111000000000000000000000000000000000000000000000000000000000000000000000000000000000000000000000000000000000000000000000000001000011110000000000000000000000000000100000000000000000000000001001001000001001000001000011110111000100110000000100000000000000000011100000000000000000000000000000000000000000000000000000000000000000000010010010000111100001110001001100000001000000000000000000111000 j
b00000000000000000000000000000000000000000000000000000000000000000000000000000000100100100001110100000001000000000000000000111000 $!
0(!
