project/pd4/verif/sim/verilator/test_pd/test3.vcd
$version Generated by VerilatedVcd $end
$timescale 1ps $end
 $scope module TOP $end
  $scope module $unit $end
   $var wire 32 u" ZERO [31:0] $end
  $upscope $end
  $scope module top $end
   $var wire 1 c" clock $end
   $var wire 1 $ reset $end
   $scope module clkg $end
    $var wire 1 c" clk $end
    $var wire 1 $ rst $end
    $var wire 32 % counter [31:0] $end
   $upscope $end
   $scope module dut $end
    $var wire 1 c" clk $end
    $var wire 1 $ reset $end
    $scope module core $end
     $var wire 32 d" AWIDTH [31:0] $end
     $var wire 32 d" DWIDTH [31:0] $end
     $var wire 1 c" clk $end
     $var wire 1 $ reset $end
     $var wire 1 & c_pcsel $end
     $var wire 1 ' c_immsel $end
     $var wire 1 ( c_regwren $end
     $var wire 1 ) c_rs1sel $end
     $var wire 1 * c_rs2sel $end
     $var wire 1 + c_memren $end
     $var wire 1 , c_memwren $end
     $var wire 2 - c_wbsel [1:0] $end
     $var wire 4 . c_alusel [3:0] $end
     $var wire 32 / f_pc [31:0] $end
     $var wire 32 0 f_insn [31:0] $end
     $var wire 7 1 d_opcode [6:0] $end
     $var wire 5 2 d_rd [4:0] $end
     $var wire 5 3 d_rs1 [4:0] $end
     $var wire 5 4 d_rs2 [4:0] $end
     $var wire 7 5 d_funct7 [6:0] $end
     $var wire 3 6 d_funct3 [2:0] $end
     $var wire 5 7 d_shamt [4:0] $end
     $var wire 32 8 d_imm [31:0] $end
     $var wire 32 8 igen_imm [31:0] $end
     $var wire 32 9 r_rs1data [31:0] $end
     $var wire 32 : r_rs2data [31:0] $end
     $var wire 32 ; e_rs1 [31:0] $end
     $var wire 32 < e_rs2 [31:0] $end
     $var wire 32 = e_res [31:0] $end
     $var wire 1 > e_brtaken $end
     $var wire 32 ? m_data_o [31:0] $end
     $var wire 1 e" m_memren $end
     $var wire 1 e" read_en $end
     $var wire 2 @ m_size_encoded [1:0] $end
     $var wire 3 A m_funct3 [2:0] $end
     $var wire 32 B wb_data [31:0] $end
     $var wire 32 C wb_nextPC [31:0] $end
     $var wire 1 D is_program $end
     $scope module control1 $end
      $var wire 32 d" DWIDTH [31:0] $end
      $var wire 32 0 insn_i [31:0] $end
      $var wire 7 1 opcode_i [6:0] $end
      $var wire 7 5 funct7_i [6:0] $end
      $var wire 3 6 funct3_i [2:0] $end
      $var wire 1 & pcsel_o $end
      $var wire 1 ' immsel_o $end
      $var wire 1 ( regwren_o $end
      $var wire 1 ) rs1sel_o $end
      $var wire 1 * rs2sel_o $end
      $var wire 1 + memren_o $end
      $var wire 1 , memwren_o $end
      $var wire 2 - wbsel_o [1:0] $end
      $var wire 4 . alusel_o [3:0] $end
     $upscope $end
     $scope module decode1 $end
      $var wire 32 d" DWIDTH [31:0] $end
      $var wire 32 d" AWIDTH [31:0] $end
      $var wire 1 c" clk $end
      $var wire 1 $ rst $end
      $var wire 32 0 insn_i [31:0] $end
      $var wire 32 / pc_i [31:0] $end
      $var wire 32 E pc_o [31:0] $end
      $var wire 32 0 insn_o [31:0] $end
      $var wire 7 1 opcode_o [6:0] $end
      $var wire 5 2 rd_o [4:0] $end
      $var wire 5 3 rs1_o [4:0] $end
      $var wire 5 4 rs2_o [4:0] $end
      $var wire 7 5 funct7_o [6:0] $end
      $var wire 3 6 funct3_o [2:0] $end
      $var wire 5 7 shamt_o [4:0] $end
      $var wire 32 8 imm_o [31:0] $end
     $upscope $end
     $scope module e_alu1 $end
      $var wire 32 d" DWIDTH [31:0] $end
      $var wire 32 d" AWIDTH [31:0] $end
      $var wire 32 / pc_i [31:0] $end
      $var wire 32 ; rs1_i [31:0] $end
      $var wire 32 < rs2_i [31:0] $end
      $var wire 3 6 funct3_i [2:0] $end
      $var wire 7 5 funct7_i [6:0] $end
      $var wire 7 1 opcode_i [6:0] $end
      $var wire 32 8 imm_i [31:0] $end
      $var wire 4 . alusel_i [3:0] $end
      $var wire 32 = res_o [31:0] $end
      $var wire 1 > brtaken_o $end
      $var wire 1 F breq $end
      $var wire 1 G brlt $end
      $scope module bc $end
       $var wire 32 d" DWIDTH [31:0] $end
       $var wire 7 1 opcode_i [6:0] $end
       $var wire 3 6 funct3_i [2:0] $end
       $var wire 32 ; rs1_i [31:0] $end
       $var wire 32 < rs2_i [31:0] $end
       $var wire 1 F breq_o $end
       $var wire 1 G brlt_o $end
      $upscope $end
     $upscope $end
     $scope module fetch1 $end
      $var wire 32 d" DWIDTH [31:0] $end
      $var wire 32 d" AWIDTH [31:0] $end
      $var wire 32 f" BASEADDR [31:0] $end
      $var wire 1 c" clk $end
      $var wire 1 $ rst $end
      $var wire 32 C next_pc_i [31:0] $end
      $var wire 32 / pc_o [31:0] $end
      $var wire 32 g" insn_o [31:0] $end
      $var wire 32 E pc [31:0] $end
     $upscope $end
     $scope module igen1 $end
      $var wire 32 d" DWIDTH [31:0] $end
      $var wire 7 1 opcode_i [6:0] $end
      $var wire 32 0 insn_i [31:0] $end
      $var wire 32 8 imm_o [31:0] $end
     $upscope $end
     $scope module memory1 $end
      $var wire 32 d" AWIDTH [31:0] $end
      $var wire 32 d" DWIDTH [31:0] $end
      $var wire 32 h" BASE_ADDR [31:0] $end
      $var wire 1 c" clk $end
      $var wire 1 $ rst $end
      $var wire 32 / pc_i [31:0] $end
      $var wire 32 : data_i [31:0] $end
      $var wire 32 = addr_i [31:0] $end
      $var wire 3 A funct3_i [2:0] $end
      $var wire 1 e" memren_i $end
      $var wire 1 e" read_en_i $end
      $var wire 1 , write_en_i $end
      $var wire 32 0 insn_o [31:0] $end
      $var wire 32 ? data_o [31:0] $end
      $var wire 32 H program_counter [31:0] $end
      $var wire 32 i" MEM_BYTES [31:0] $end
      $var wire 32 # i [31:0] $end
      $var wire 32 I address [31:0] $end
     $upscope $end
     $scope module register_file1 $end
      $var wire 32 d" DWIDTH [31:0] $end
      $var wire 1 c" clk $end
      $var wire 1 $ rst $end
      $var wire 5 3 rs1_i [4:0] $end
      $var wire 5 4 rs2_i [4:0] $end
      $var wire 5 2 rd_i [4:0] $end
      $var wire 32 B datawb_i [31:0] $end
      $var wire 1 ( regwren_i $end
      $var wire 32 9 rs1data_o [31:0] $end
      $var wire 32 : rs2data_o [31:0] $end
      $var wire 32 J x[0] [31:0] $end
      $var wire 32 K x[1] [31:0] $end
      $var wire 32 L x[2] [31:0] $end
      $var wire 32 M x[3] [31:0] $end
      $var wire 32 N x[4] [31:0] $end
      $var wire 32 O x[5] [31:0] $end
      $var wire 32 P x[6] [31:0] $end
      $var wire 32 Q x[7] [31:0] $end
      $var wire 32 R x[8] [31:0] $end
      $var wire 32 S x[9] [31:0] $end
      $var wire 32 T x[10] [31:0] $end
      $var wire 32 U x[11] [31:0] $end
      $var wire 32 V x[12] [31:0] $end
      $var wire 32 W x[13] [31:0] $end
      $var wire 32 X x[14] [31:0] $end
      $var wire 32 Y x[15] [31:0] $end
      $var wire 32 Z x[16] [31:0] $end
      $var wire 32 [ x[17] [31:0] $end
      $var wire 32 \ x[18] [31:0] $end
      $var wire 32 ] x[19] [31:0] $end
      $var wire 32 ^ x[20] [31:0] $end
      $var wire 32 _ x[21] [31:0] $end
      $var wire 32 ` x[22] [31:0] $end
      $var wire 32 a x[23] [31:0] $end
      $var wire 32 b x[24] [31:0] $end
      $var wire 32 c x[25] [31:0] $end
      $var wire 32 d x[26] [31:0] $end
      $var wire 32 e x[27] [31:0] $end
      $var wire 32 f x[28] [31:0] $end
      $var wire 32 g x[29] [31:0] $end
      $var wire 32 h x[30] [31:0] $end
      $var wire 32 i x[31] [31:0] $end
      $scope module unnamedblk1 $end
       $var wire 32 j i [31:0] $end
      $upscope $end
     $upscope $end
     $scope module wb_wb1 $end
      $var wire 32 d" DWIDTH [31:0] $end
      $var wire 32 d" AWIDTH [31:0] $end
      $var wire 32 / pc_i [31:0] $end
      $var wire 32 = alu_res_i [31:0] $end
      $var wire 32 ? memory_data_i [31:0] $end
      $var wire 2 - wbsel_i [1:0] $end
      $var wire 1 > brtaken_i $end
      $var wire 32 8 imm_i [31:0] $end
      $var wire 1 & pcsel_i $end
      $var wire 32 B writeback_data_o [31:0] $end
      $var wire 32 C next_pc_o [31:0] $end
     $upscope $end
    $upscope $end
   $upscope $end
   $scope module genblk3 $end
    $var wire 32 k tick [31:0] $end
    $scope module genblk3 $end
     $scope module check_D__Vstatic__check_D_func $end
      $var wire 32 l pc [31:0] $end
      $var wire 7 m opcode [6:0] $end
      $var wire 5 n rd [4:0] $end
      $var wire 5 o rs1 [4:0] $end
      $var wire 5 p rs2 [4:0] $end
      $var wire 3 q funct3 [2:0] $end
      $var wire 7 r funct7 [6:0] $end
      $var wire 32 s imm [31:0] $end
      $var wire 5 j" shamt [4:0] $end
      $var wire 128 t p [127:0] $end
      $var wire 224 k" t [223:0] $end
     $upscope $end
     $scope module check_E__Vstatic__check_E_func $end
      $var wire 32 x pc [31:0] $end
      $var wire 32 y alu_res [31:0] $end
      $var wire 1 z br_taken [0:0] $end
      $var wire 128 { p [127:0] $end
     $upscope $end
     $scope module check_F__Vstatic__check_F_func $end
      $var wire 32 !! pc [31:0] $end
      $var wire 32 "! insn [31:0] $end
      $var wire 128 #! p [127:0] $end
     $upscope $end
     $scope module check_M__Vstatic__check_M_func $end
      $var wire 32 '! pc [31:0] $end
      $var wire 32 (! address [31:0] $end
      $var wire 1 r" rw [0:0] $end
      $var wire 2 )! size_encoded [1:0] $end
      $var wire 32 *! data [31:0] $end
      $var wire 128 +! p [127:0] $end
     $upscope $end
     $scope module check_R__Vstatic__check_R_func $end
      $var wire 5 /! read_rs1 [4:0] $end
      $var wire 5 0! read_rs2 [4:0] $end
      $var wire 32 1! read_rs1_data [31:0] $end
      $var wire 32 2! read_rs2_data [31:0] $end
      $var wire 128 3! p [127:0] $end
     $upscope $end
     $scope module check_W__Vstatic__check_W_func $end
      $var wire 32 7! pc [31:0] $end
      $var wire 1 8! enable [0:0] $end
      $var wire 5 9! destination [4:0] $end
      $var wire 32 :! data [31:0] $end
      $var wire 128 ;! p [127:0] $end
     $upscope $end
    $upscope $end
    $scope module pre_check $end
     $var wire 32 s" res [31:0] $end
    $upscope $end
    $scope module tick_check $end
     $var wire 1 ?! res $end
     $var wire 1 t" tick_ok $end
     $var wire 1 @! correct $end
     $var wire 4096 A! msg [4095:0] $end
    $upscope $end
   $upscope $end
  $upscope $end
 $upscope $end
$enddefinitions $end


#0
b00000000000001000000000000000000 #
1$
b00000000000000000000000000000000 %
0&
1'
1(
1)
0*
0+
0,
b00 -
b0000 .
b00000001000000000000000000000000 /
b11111100000000010000000100010011 0
b0010011 1
b00010 2
b00010 3
b00000 4
b1111110 5
b000 6
b00000 7
b11111111111111111111111111000000 8
b00000000000000000000000000000000 9
b00000000000000000000000000000000 :
b00000000000000000000000000000000 ;
b11111111111111111111111111000000 <
b11111111111111111111111111000000 =
0>
b00000000000000000000000000000000 ?
b00 @
b010 A
b11111111111111111111111111000000 B
b00000001000000000000000000000100 C
0D
b00000001000000000000000000000000 E
0F
0G
b00000000000000000000000000000000 H
b11111110111111111111111111000000 I
b00000000000000000000000000000000 J
b00000000000000000000000000000000 K
b00000000000000000000000000000000 L
b00000000000000000000000000000000 M
b00000000000000000000000000000000 N
b00000000000000000000000000000000 O
b00000000000000000000000000000000 P
b00000000000000000000000000000000 Q
b00000000000000000000000000000000 R
b00000000000000000000000000000000 S
b00000000000000000000000000000000 T
b00000000000000000000000000000000 U
b00000000000000000000000000000000 V
b00000000000000000000000000000000 W
b00000000000000000000000000000000 X
b00000000000000000000000000000000 Y
b00000000000000000000000000000000 Z
b00000000000000000000000000000000 [
b00000000000000000000000000000000 \
b00000000000000000000000000000000 ]
b00000000000000000000000000000000 ^
b00000000000000000000000000000000 _
b00000000000000000000000000000000 `
b00000000000000000000000000000000 a
b00000000000000000000000000000000 b
b00000000000000000000000000000000 c
b00000000000000000000000000000000 d
b00000000000000000000000000000000 e
b00000000000000000000000000000000 f
b00000000000000000000000000000000 g
b00000000000000000000000000000000 h
b00000000000000000000000000000000 i
b00000000000000000000000000000000 j
b00000000000000000000000000000000 k
b00000000000000000000000000000000 l
b0000000 m
b00000 n
b00000 o
b00000 p
b000 q
b0000000 r
b00000000000000000000000000000000 s
b00000000000000000000000000000000000000000000000000000000000000000000000000000000000000000000000000000000000000000000000000000000 t
b00000000000000000000000000000000 x
b00000000000000000000000000000000 y
0z
b00000000000000000000000000000000000000000000000000000000000000000000000000000000000000000000000000000000000000000000000000000000 {
b00000000000000000000000000000000 !!
b00000000000000000000000000000000 "!
b00000000000000000000000000000000000000000000000000000000000000000000000000000000000000000000000000000000000000000000000000000000 #!
b00000000000000000000000000000000 '!
b00000000000000000000000000000000 (!
b00 )!
b00000000000000000000000000000000 *!
b00000000000000000000000000000000000000000000000000000000000000000000000000000000000000000000000000000000000000000000000000000000 +!
b00000 /!
b00000 0!
b00000000000000000000000000000000 1!
b00000000000000000000000000000000 2!
b00000000000000000000000000000000000000000000000000000000000000000000000000000000000000000000000000000000000000000000000000000000 3!
b00000000000000000000000000000000 7!
08!
b00000 9!
b00000000000000000000000000000000 :!
b00000000000000000000000000000000000000000000000000000000000000000000000000000000000000000000000000000000000000000000000000000000 ;!
0?!
1@!
b0000000000000000000000000000000000000000000000000000000000000000000000000000000000000000000000000000000000000000000000000000000000000000000000000000000000000000000000000000000000000000000000000000000000000000000000000000000000000000000000000000000000000000000000000000000000000000000000000000000000000000000000000000000000000000000000000000000000000000000000000000000000000000000000000000000000000000000000000000000000000000000000000000000000000000000000000000000000000000000000000000000000000000000000000000000000000000000000000000000000000000000000000000000000000000000000000000000000000000000000000000000000000000000000000000000000000000000000000000000000000000000000000000000000000000000000000000000000000000000000000000000000000000000000000000000000000000000000000000000000000000000000000000000000000000000000000000000000000000000000000000000000000000000000000000000000000000000000000000000000000000000000000000000000000000000000000000000000000000000000000000000000000000000000000000000000000000000000000000000000000000000000000000000000000000000000000000000000000000000000000000000000000000000000000000000000000000000000000000000000000000000000000000000000000000000000000000000000000000000000000000000000000000000000000000000000000000000000000000000000000000000000000000000000000000000000000000000000000000000000000000000000000000000000000000000000000000000000000000000000000000000000000000000000000000000000000000000000000000000000000000000000000000000000000000000000000000000000000000000000000000000000000000000000000000000000000000000000000000000000000000000000000000000000000000000000000000000000000000000000000000000000000000000000000000000000000000000000000000000000000000000000000000000000000000000000000000000000000000000000000000000000000000000000000000000000000000000000000000000000000000000000000000000000000000000000000000000000000000000000000000000000000000000000000000000000000000000000000000000000000000000000000000000000000000000000000000000000000000000000000000000000000000000000000000000000000000000000000000000000000000000000000000000000000000000000000000000000000000000000000000000000000000000000000000000000000000000000000000000000000000000000000000000000000000000000000000000000000000000000000000000000000000000000000000000000000000000000000000000000000000000000000000000000000000000000000000000000000000000000000000000000000000000000000000000000000000000000000000000000000000000000000000000000000000000000000000000000000000000000000000000000000000000000000000000000000000000000000000000000000000000000000000000000000000000000000000000000000000000000000000000000000000000000000000000000000000000000000000000000000000000000000000000000000000000000000000000000000000000000000000000000000000000000000000000000000000000000000000000000000000000000000000000000000000000000000000000000000000000000000000000000000000000000000000000000000000000000000000000000000000000000000000000000000000000000000000000000000000000000000000000000000000000000000000000000000000000000000000000000000000000000000000000000000000000000000000000000000000000000000000000000000000000000000000000000000000000000000000000000000000000000000000000000000000000000000000000000000000000000000000000000000000000000000000000000000000000000000000000000000000000000000000000000000000000000000000000000000000000000000000000000000000000000000000000000000000000000000000000000000000000000000000000000000000000000000000000000000000000000000000000000000000000000000000000000000000000000000000000000000000000000000000000000000000000000000000000000000000000000000000000000000000000000000000000000000000000000000000000000000000000000000000000000000000000000000000000000000000000000000000000000000000000000000000000000000000000000000000000000000000000000000000000000000000000000000000000000000000000000000000000000000000000000000000000000000000000000000000000000000000000000000000000000000000000000000000000000000000000000000000000000000000000000000000000000000000000000000000000000000000000000000000000000000000000000000000000000000000000000000000000000000000000000000000000000000000000000000000000000000000000000000000 A!
0c"
b00000000000000000000000000100000 d"
1e"
b00000001000000000000000000000000 f"
b00000000000000000000000000000000 g"
b00000001000000000000000000000000 h"
b00000000000100000000000000000000 i"
b00000 j"
b00000000000000000000000000000000000000000000000000000000000000000000000000000000000000000000000000000000000000000000000000000000000000000000000000000000000000000000000000000000000000000000000000000000000000000000000000000000 k"
0r"
b00000000000000000000000000000000 s"
0t"
b00000000000000000000000000000000 u"
#1
b00000000000000000000000000000001 %
b00000001000100000000000000000000 9
b00000001000100000000000000000000 ;
b00000001000011111111111111000000 =
b00000001000011111111111111000000 B
b00000000000011111111111111000000 I
b00000001000100000000000000000000 L
b00000000000000000000000000100000 j
1c"
#2
0c"
#3
b00000000000000000000000000000010 %
1c"
#4
0c"
#5
b00000000000000000000000000000011 %
1c"
#6
0c"
#7
b00000000000000000000000000000100 %
1c"
#8
0c"
#9
b00000000000000000000000000000101 %
1c"
#10
0c"
#11
0$
b00000000000000000000000000000110 %
1c"
#12
b00000000000000000000000000000001 k
b00000001000000000000000000000000 l
b0010011 m
b00010 n
b00010 o
b1111110 r
b11111111111111111111111111000000 s
b00000000000000000000000000000000111111111111111111111111110000001111110000000000001000010001001100000001000000000000000000000000 t
b00000001000000000000000000000000 x
b00000001000011111111111111000000 y
b00000000000000000000000000000000000000000000000000000000000000000000000100001111111111111100000000000001000000000000000000000000 {
b00000001000000000000000000000000 !!
b11111100000000010000000100010011 "!
b00000000000000000000000000000000000000000000000000000000000000001111110000000001000000010001001100000001000000000000000000000000 #!
b00000001000000000000000000000000 '!
b00000001000011111111111111000000 (!
b00000000000000000000000000000000000000000000000000000000000000000000000100001111111111111100000000000001000000000000000000000000 +!
b00010 /!
b00000001000100000000000000000000 1!
b00000000000000000000000000000000000000000000000000000000000000000000000000000000000000000000010001000000000000000000000000000010 3!
b00000001000000000000000000000000 7!
18!
b00010 9!
b00000001000011111111111111000000 :!
b00000000000000000000000000000000000000000000000000000000000000000100001111111111111100000000010100000001000000000000000000000000 ;!
1?!
0c"
#13
b00000000000000000000000000000111 %
0(
1,
b00000001000000000000000000000100 /
b00000010000100010010111000100011 0
b0100011 1
b11100 2
b00001 4
b0000001 5
b010 6
b11100 7
b00000000000000000000000000111100 8
b00000001000011111111111111000000 9
b00000001000011111111111111000000 ;
b00000000000000000000000000111100 <
b00000001000011111111111111111100 =
b10 @
b00000001000011111111111111111100 B
b00000001000000000000000000001000 C
b00000001000000000000000000000100 E
b00000000000000000000000000000100 H
b00000000000011111111111111111100 I
b00000001000011111111111111000000 L
1c"
#14
b00000000000000000000000000000010 k
b00000001000000000000000000000100 l
b0100011 m
b11100 n
b00001 p
b010 q
b0000001 r
b00000000000000000000000000111100 s
b00000000000000000000000000000001000000000000000000000000001111000000001010000010001011100010001100000001000000000000000000000100 t
b00000001000000000000000000000100 x
b00000001000011111111111111111100 y
b00000000000000000000000000000000000000000000000000000000000000000000000100001111111111111111110000000001000000000000000000000100 {
b00000001000000000000000000000100 !!
b00000010000100010010111000100011 "!
b00000000000000000000000000000000000000000000000000000000000000000000001000010001001011100010001100000001000000000000000000000100 #!
b00000001000000000000000000000100 '!
b00000001000011111111111111111100 (!
b10 )!
b00000000000000000000000000000000000000000000000000000000000000100000000100001111111111111111110000000001000000000000000000000100 +!
b00001 0!
b00000001000011111111111111000000 1!
b00000000000000000000000000000000000000000000000000000000000000000000000000000000000000000000010000111111111111110000000000100010 3!
b00000001000000000000000000000100 7!
08!
b11100 9!
b00000001000011111111111111111100 :!
b00000000000000000000000000000000000000000000000000000000000000000100001111111111111111110011100000000001000000000000000000000100 ;!
0c"
#15
b00000000000000000000000000001000 %
b00000001000000000000000000001000 /
b00000010000000010010011000100011 0
b01100 2
b00000 4
b01100 7
b00000000000000000000000000101100 8
b00000000000000000000000000101100 <
b00000001000011111111111111101100 =
b00000001000011111111111111101100 B
b00000001000000000000000000001100 C
b00000001000000000000000000001000 E
b00000000000000000000000000001000 H
b00000000000011111111111111101100 I
1c"
#16
b00000000000000000000000000000011 k
b00000001000000000000000000001000 l
b01100 n
b00000 p
b00000000000000000000000000101100 s
b00000000000000000000000000000000000000000000000000000000001011000000001010000000001001100010001100000001000000000000000000001000 t
b00000001000000000000000000001000 x
b00000001000011111111111111101100 y
b00000000000000000000000000000000000000000000000000000000000000000000000100001111111111111110110000000001000000000000000000001000 {
b00000001000000000000000000001000 !!
b00000010000000010010011000100011 "!
b00000000000000000000000000000000000000000000000000000000000000000000001000000001001001100010001100000001000000000000000000001000 #!
b00000001000000000000000000001000 '!
b00000001000011111111111111101100 (!
b00000000000000000000000000000000000000000000000000000000000000100000000100001111111111111110110000000001000000000000000000001000 +!
b00000 0!
b00000000000000000000000000000000000000000000000000000000000000000000000000000000000000000000010000111111111111110000000000000010 3!
b00000001000000000000000000001000 7!
b01100 9!
b00000001000011111111111111101100 :!
b00000000000000000000000000000000000000000000000000000000000000000100001111111111111110110001100000000001000000000000000000001000 ;!
0c"
#17
b00000000000000000000000000001001 %
b00000001000000000000000000001100 /
b00000010000000010010010000100011 0
b01000 2
b01000 7
b00000000000000000000000000101000 8
b00000000000000000000000000101000 <
b00000001000011111111111111101000 =
b00000001000011111111111111101000 B
b00000001000000000000000000010000 C
b00000001000000000000000000001100 E
b00000000000000000000000000001100 H
b00000000000011111111111111101000 I
1c"
#18
b00000000000000000000000000000100 k
b00000001000000000000000000001100 l
b01000 n
b00000000000000000000000000101000 s
b00000000000000000000000000000000000000000000000000000000001010000000001010000000001001000010001100000001000000000000000000001100 t
b00000001000000000000000000001100 x
b00000001000011111111111111101000 y
b00000000000000000000000000000000000000000000000000000000000000000000000100001111111111111110100000000001000000000000000000001100 {
b00000001000000000000000000001100 !!
b00000010000000010010010000100011 "!
b00000000000000000000000000000000000000000000000000000000000000000000001000000001001001000010001100000001000000000000000000001100 #!
b00000001000000000000000000001100 '!
b00000001000011111111111111101000 (!
b00000000000000000000000000000000000000000000000000000000000000100000000100001111111111111110100000000001000000000000000000001100 +!
b00000001000000000000000000001100 7!
b01000 9!
b00000001000011111111111111101000 :!
b00000000000000000000000000000000000000000000000000000000000000000100001111111111111110100001000000000001000000000000000000001100 ;!
0c"
#19
b00000000000000000000000000001010 %
b00000001000000000000000000010000 /
b00000010000000010010011000100011 0
b01100 2
b01100 7
b00000000000000000000000000101100 8
b00000000000000000000000000101100 <
b00000001000011111111111111101100 =
b00000001000011111111111111101100 B
b00000001000000000000000000010100 C
b00000001000000000000000000010000 E
b00000000000000000000000000010000 H
b00000000000011111111111111101100 I
1c"
#20
b00000000000000000000000000000101 k
b00000001000000000000000000010000 l
b01100 n
b00000000000000000000000000101100 s
b00000000000000000000000000000000000000000000000000000000001011000000001010000000001001100010001100000001000000000000000000010000 t
b00000001000000000000000000010000 x
b00000001000011111111111111101100 y
b00000000000000000000000000000000000000000000000000000000000000000000000100001111111111111110110000000001000000000000000000010000 {
b00000001000000000000000000010000 !!
b00000010000000010010011000100011 "!
b00000000000000000000000000000000000000000000000000000000000000000000001000000001001001100010001100000001000000000000000000010000 #!
b00000001000000000000000000010000 '!
b00000001000011111111111111101100 (!
b00000000000000000000000000000000000000000000000000000000000000100000000100001111111111111110110000000001000000000000000000010000 +!
b00000001000000000000000000010000 7!
b01100 9!
b00000001000011111111111111101100 :!
b00000000000000000000000000000000000000000000000000000000000000000100001111111111111110110001100000000001000000000000000000010000 ;!
0c"
#21
b00000000000000000000000000001011 %
1&
1(
0)
0,
b10 -
b00000001000000000000000000010100 /
b00000010100000000000000001101111 0
b1101111 1
b00000 2
b00000 3
b01000 4
b000 6
b01000 7
b00000000000000000000000000101000 8
b00000000000000000000000000000000 9
b00000001000000000000000000010100 ;
b00000000000000000000000000101000 <
b00000001000000000000000000111100 =
b00000010110000010010011100000011 ?
b00 @
b00000001000000000000000000011000 B
b00000001000000000000000000111100 C
b00000001000000000000000000010100 E
b00000000000000000000000000010100 H
b00000000000000000000000000111100 I
1c"
#22
b00000000000000000000000000000110 k
b00000001000000000000000000010100 l
b1101111 m
b00000 n
b00000 o
b01000 p
b000 q
b00000000000000000000000000101000 s
b00000000000000000000000000001000000000000000000000000000001010000000001000010000000000000110111100000001000000000000000000010100 t
b00000001000000000000000000010100 x
b00000001000000000000000000111100 y
b00000000000000000000000000000000000000000000000000000000000000000000000100000000000000000011110000000001000000000000000000010100 {
b00000001000000000000000000010100 !!
b00000010100000000000000001101111 "!
b00000000000000000000000000000000000000000000000000000000000000000000001010000000000000000110111100000001000000000000000000010100 #!
b00000001000000000000000000010100 '!
b00000001000000000000000000111100 (!
b00 )!
b00000010110000010010011100000011 *!
b00000000000000000000000000000000000010110000010010011100000011000000000100000000000000000011110000000001000000000000000000010100 +!
b00000 /!
b01000 0!
b00000000000000000000000000000000 1!
b00000000000000000000000000000000000000000000000000000000000000000000000000000000000000000000000000000000000000000000000100000000 3!
b00000001000000000000000000010100 7!
18!
b00000 9!
b00000001000000000000000000011000 :!
b00000000000000000000000000000000000000000000000000000000000000000100000000000000000001100000000100000001000000000000000000010100 ;!
0c"
#23
b00000000000000000000000000001100 %
0&
1)
1+
b01 -
b00000001000000000000000000111100 /
b00000010110000010010011100000011 0
b0000011 1
b01110 2
b00010 3
b01100 4
b010 6
b01100 7
b00000000000000000000000000101100 8
b00000001000011111111111111000000 9
b00000001000011111111111111000000 ;
b00000000000000000000000000101100 <
b00000001000011111111111111101100 =
b00000000000000000000000000000000 ?
b10 @
b00000000000000000000000000000000 B
b00000001000000000000000001000000 C
b00000001000000000000000000111100 E
b00000000000000000000000000111100 H
b00000000000011111111111111101100 I
1c"
#24
b00000000000000000000000000000111 k
b00000001000000000000000000111100 l
b0000011 m
b01110 n
b00010 o
b01100 p
b010 q
b00000000000000000000000000101100 s
b00000000000000000000000000001100000000000000000000000000001011000000001010011000001001110000001100000001000000000000000000111100 t
b00000001000000000000000000111100 x
b00000001000011111111111111101100 y
b00000000000000000000000000000000000000000000000000000000000000000000000100001111111111111110110000000001000000000000000000111100 {
b00000001000000000000000000111100 !!
b00000010110000010010011100000011 "!
b00000000000000000000000000000000000000000000000000000000000000000000001011000001001001110000001100000001000000000000000000111100 #!
b00000001000000000000000000111100 '!
b00000001000011111111111111101100 (!
b10 )!
b00000000000000000000000000000000 *!
b00000000000000000000000000000000000000000000000000000000000000100000000100001111111111111110110000000001000000000000000000111100 +!
b00010 /!
b01100 0!
b00000001000011111111111111000000 1!
b00000000000000000000000000000000000000000000000000000000000000000000000000000000000000000000010000111111111111110000000110000010 3!
b00000001000000000000000000111100 7!
b01110 9!
b00000000000000000000000000000000 :!
b00000000000000000000000000000000000000000000000000000000000000000000000000000000000000000001110100000001000000000000000000111100 ;!
0c"
#25
b00000000000000000000000000001101 %
0+
b00 -
b00000001000000000000000001000000 /
b00000000100100000000011110010011 0
b0010011 1
b01111 2
b00000 3
b01001 4
b0000000 5
b000 6
b01001 7
b00000000000000000000000000001001 8
b00000000000000000000000000000000 9
b00000000000000000000000000000000 ;
b00000000000000000000000000001001 <
b00000000000000000000000000001001 =
b00100011000000100000000100100110 ?
b00 @
b00000000000000000000000000001001 B
b00000001000000000000000001000100 C
b00000001000000000000000001000000 E
b00000000000000000000000001000000 H
b11111111000000000000000000001001 I
1c"
#26
b00000000000000000000000000001000 k
b00000001000000000000000001000000 l
b0010011 m
b01111 n
b00000 o
b01001 p
b000 q
b0000000 r
b00000000000000000000000000001001 s
b00000000000000000000000000001001000000000000000000000000000010010000000000010010000001111001001100000001000000000000000001000000 t
b00000001000000000000000001000000 x
b00000000000000000000000000001001 y
b00000000000000000000000000000000000000000000000000000000000000000000000000000000000000000000100100000001000000000000000001000000 {
b00000001000000000000000001000000 !!
b00000000100100000000011110010011 "!
b00000000000000000000000000000000000000000000000000000000000000000000000010010000000001111001001100000001000000000000000001000000 #!
b00000001000000000000000001000000 '!
b00000000000000000000000000001001 (!
b00 )!
b00100011000000100000000100100110 *!
b00000000000000000000000000000000100011000000100000000100100110000000000000000000000000000000100100000001000000000000000001000000 +!
b00000 /!
b01001 0!
b00000000000000000000000000000000 1!
b00000000000000000000000000000000000000000000000000000000000000000000000000000000000000000000000000000000000000000000000100100000 3!
b00000001000000000000000001000000 7!
b01111 9!
b00000000000000000000000000001001 :!
b00000000000000000000000000000000000000000000000000000000000000000000000000000000000000100101111100000001000000000000000001000000 ;!
0c"
#27
b00000000000000000000000000001110 %
0(
1*
b00000001000000000000000001000100 /
b11111100111001111101101011100011 0
b1100011 1
b10101 2
b01111 3
b01110 4
b1111110 5
b101 6
b10100 7
b11111111111111111111111111010100 8
b00000000000000000000000000001001 9
b00000000000000000000000000001001 ;
b00000000000000000000000000000000 <
b00000001000000000000000000011000 =
1>
b00000010110000010010011110000011 ?
b01 @
b00000001000000000000000000011000 B
b00000001000000000000000000011000 C
b00000001000000000000000001000100 E
b00000000000000000000000001000100 H
b00000000000000000000000000011000 I
b00000000000000000000000000001001 Y
1c"
