project/pd4/verif/sim/verilator/test_pd/test1.vcd
$version Generated by VerilatedVcd $end
$timescale 1ps $end
 $scope module TOP $end
  $scope module $unit $end
   $var wire 32 t" ZERO [31:0] $end
  $upscope $end
  $scope module top $end
   $var wire 1 b" clock $end
   $var wire 1 $ reset $end
   $scope module clkg $end
    $var wire 1 b" clk $end
    $var wire 1 $ rst $end
    $var wire 32 % counter [31:0] $end
   $upscope $end
   $scope module dut $end
    $var wire 1 b" clk $end
    $var wire 1 $ reset $end
    $scope module core $end
     $var wire 32 c" AWIDTH [31:0] $end
     $var wire 32 c" DWIDTH [31:0] $end
     $var wire 1 b" clk $end
     $var wire 1 $ reset $end
     $var wire 1 & c_pcsel $end
     $var wire 1 ' c_immsel $end
     $var wire 1 ( c_regwren $end
     $var wire 1 ) c_rs1sel $end
     $var wire 1 * c_rs2sel $end
     $var wire 1 + c_memren $end
     $var wire 1 , c_memwren $end
     $var wire 2 - c_wbsel [1:0] $end
     $var wire 4 . c_alusel [3:0] $end
     $var wire 32 / f_pc [31:0] $end
     $var wire 32 0 f_insn [31:0] $end
     $var wire 7 1 d_opcode [6:0] $end
     $var wire 5 2 d_rd [4:0] $end
     $var wire 5 3 d_rs1 [4:0] $end
     $var wire 5 4 d_rs2 [4:0] $end
     $var wire 7 5 d_funct7 [6:0] $end
     $var wire 3 6 d_funct3 [2:0] $end
     $var wire 5 7 d_shamt [4:0] $end
     $var wire 32 8 d_imm [31:0] $end
     $var wire 32 8 igen_imm [31:0] $end
     $var wire 32 9 r_rs1data [31:0] $end
     $var wire 32 : r_rs2data [31:0] $end
     $var wire 32 ; e_rs1 [31:0] $end
     $var wire 32 < e_rs2 [31:0] $end
     $var wire 32 = e_res [31:0] $end
     $var wire 1 > e_brtaken $end
     $var wire 32 ? m_data_o [31:0] $end
     $var wire 1 d" m_memren $end
     $var wire 1 d" read_en $end
     $var wire 2 @ m_size_encoded [1:0] $end
     $var wire 3 A m_funct3 [2:0] $end
     $var wire 32 B wb_data [31:0] $end
     $var wire 32 C wb_nextPC [31:0] $end
     $scope module control1 $end
      $var wire 32 c" DWIDTH [31:0] $end
      $var wire 32 0 insn_i [31:0] $end
      $var wire 7 1 opcode_i [6:0] $end
      $var wire 7 5 funct7_i [6:0] $end
      $var wire 3 6 funct3_i [2:0] $end
      $var wire 1 & pcsel_o $end
      $var wire 1 ' immsel_o $end
      $var wire 1 ( regwren_o $end
      $var wire 1 ) rs1sel_o $end
      $var wire 1 * rs2sel_o $end
      $var wire 1 + memren_o $end
      $var wire 1 , memwren_o $end
      $var wire 2 - wbsel_o [1:0] $end
      $var wire 4 . alusel_o [3:0] $end
     $upscope $end
     $scope module decode1 $end
      $var wire 32 c" DWIDTH [31:0] $end
      $var wire 32 c" AWIDTH [31:0] $end
      $var wire 1 b" clk $end
      $var wire 1 $ rst $end
      $var wire 32 0 insn_i [31:0] $end
      $var wire 32 / pc_i [31:0] $end
      $var wire 32 D pc_o [31:0] $end
      $var wire 32 0 insn_o [31:0] $end
      $var wire 7 1 opcode_o [6:0] $end
      $var wire 5 2 rd_o [4:0] $end
      $var wire 5 3 rs1_o [4:0] $end
      $var wire 5 4 rs2_o [4:0] $end
      $var wire 7 5 funct7_o [6:0] $end
      $var wire 3 6 funct3_o [2:0] $end
      $var wire 5 7 shamt_o [4:0] $end
      $var wire 32 8 imm_o [31:0] $end
     $upscope $end
     $scope module e_alu1 $end
      $var wire 32 c" DWIDTH [31:0] $end
      $var wire 32 c" AWIDTH [31:0] $end
      $var wire 32 / pc_i [31:0] $end
      $var wire 32 ; rs1_i [31:0] $end
      $var wire 32 < rs2_i [31:0] $end
      $var wire 3 6 funct3_i [2:0] $end
      $var wire 7 5 funct7_i [6:0] $end
      $var wire 7 1 opcode_i [6:0] $end
      $var wire 32 8 imm_i [31:0] $end
      $var wire 4 . alusel_i [3:0] $end
      $var wire 32 = res_o [31:0] $end
      $var wire 1 > brtaken_o $end
      $var wire 1 E breq $end
      $var wire 1 F brlt $end
      $scope module bc $end
       $var wire 32 c" DWIDTH [31:0] $end
       $var wire 7 1 opcode_i [6:0] $end
       $var wire 3 6 funct3_i [2:0] $end
       $var wire 32 ; rs1_i [31:0] $end
       $var wire 32 < rs2_i [31:0] $end
       $var wire 1 E breq_o $end
       $var wire 1 F brlt_o $end
      $upscope $end
     $upscope $end
     $scope module fetch1 $end
      $var wire 32 c" DWIDTH [31:0] $end
      $var wire 32 c" AWIDTH [31:0] $end
      $var wire 32 e" BASEADDR [31:0] $end
      $var wire 1 b" clk $end
      $var wire 1 $ rst $end
      $var wire 32 C next_pc_i [31:0] $end
      $var wire 32 / pc_o [31:0] $end
      $var wire 32 f" insn_o [31:0] $end
      $var wire 32 D pc [31:0] $end
     $upscope $end
     $scope module igen1 $end
      $var wire 32 c" DWIDTH [31:0] $end
      $var wire 7 1 opcode_i [6:0] $end
      $var wire 32 0 insn_i [31:0] $end
      $var wire 32 8 imm_o [31:0] $end
     $upscope $end
     $scope module memory1 $end
      $var wire 32 c" AWIDTH [31:0] $end
      $var wire 32 c" DWIDTH [31:0] $end
      $var wire 32 g" BASE_ADDR [31:0] $end
      $var wire 1 b" clk $end
      $var wire 1 $ rst $end
      $var wire 32 / pc_i [31:0] $end
      $var wire 32 : data_i [31:0] $end
      $var wire 32 = addr_i [31:0] $end
      $var wire 3 A funct3_i [2:0] $end
      $var wire 1 d" memren_i $end
      $var wire 1 d" read_en_i $end
      $var wire 1 , write_en_i $end
      $var wire 32 0 insn_o [31:0] $end
      $var wire 32 ? data_o [31:0] $end
      $var wire 32 G program_counter [31:0] $end
      $var wire 32 h" MEM_BYTES [31:0] $end
      $var wire 32 # i [31:0] $end
      $var wire 32 H address [31:0] $end
     $upscope $end
     $scope module register_file1 $end
      $var wire 32 c" DWIDTH [31:0] $end
      $var wire 1 b" clk $end
      $var wire 1 $ rst $end
      $var wire 5 3 rs1_i [4:0] $end
      $var wire 5 4 rs2_i [4:0] $end
      $var wire 5 2 rd_i [4:0] $end
      $var wire 32 B datawb_i [31:0] $end
      $var wire 1 ( regwren_i $end
      $var wire 32 9 rs1data_o [31:0] $end
      $var wire 32 : rs2data_o [31:0] $end
      $var wire 32 I x[0] [31:0] $end
      $var wire 32 J x[1] [31:0] $end
      $var wire 32 K x[2] [31:0] $end
      $var wire 32 L x[3] [31:0] $end
      $var wire 32 M x[4] [31:0] $end
      $var wire 32 N x[5] [31:0] $end
      $var wire 32 O x[6] [31:0] $end
      $var wire 32 P x[7] [31:0] $end
      $var wire 32 Q x[8] [31:0] $end
      $var wire 32 R x[9] [31:0] $end
      $var wire 32 S x[10] [31:0] $end
      $var wire 32 T x[11] [31:0] $end
      $var wire 32 U x[12] [31:0] $end
      $var wire 32 V x[13] [31:0] $end
      $var wire 32 W x[14] [31:0] $end
      $var wire 32 X x[15] [31:0] $end
      $var wire 32 Y x[16] [31:0] $end
      $var wire 32 Z x[17] [31:0] $end
      $var wire 32 [ x[18] [31:0] $end
      $var wire 32 \ x[19] [31:0] $end
      $var wire 32 ] x[20] [31:0] $end
      $var wire 32 ^ x[21] [31:0] $end
      $var wire 32 _ x[22] [31:0] $end
      $var wire 32 ` x[23] [31:0] $end
      $var wire 32 a x[24] [31:0] $end
      $var wire 32 b x[25] [31:0] $end
      $var wire 32 c x[26] [31:0] $end
      $var wire 32 d x[27] [31:0] $end
      $var wire 32 e x[28] [31:0] $end
      $var wire 32 f x[29] [31:0] $end
      $var wire 32 g x[30] [31:0] $end
      $var wire 32 h x[31] [31:0] $end
      $scope module unnamedblk1 $end
       $var wire 32 i i [31:0] $end
      $upscope $end
     $upscope $end
     $scope module wb_wb1 $end
      $var wire 32 c" DWIDTH [31:0] $end
      $var wire 32 c" AWIDTH [31:0] $end
      $var wire 32 / pc_i [31:0] $end
      $var wire 32 = alu_res_i [31:0] $end
      $var wire 32 ? memory_data_i [31:0] $end
      $var wire 2 - wbsel_i [1:0] $end
      $var wire 1 > brtaken_i $end
      $var wire 32 8 imm_i [31:0] $end
      $var wire 1 & pcsel_i $end
      $var wire 32 B writeback_data_o [31:0] $end
      $var wire 32 C next_pc_o [31:0] $end
     $upscope $end
    $upscope $end
   $upscope $end
   $scope module genblk3 $end
    $var wire 32 j tick [31:0] $end
    $scope module genblk3 $end
     $scope module check_D__Vstatic__check_D_func $end
      $var wire 32 k pc [31:0] $end
      $var wire 7 l opcode [6:0] $end
      $var wire 5 m rd [4:0] $end
      $var wire 5 n rs1 [4:0] $end
      $var wire 5 o rs2 [4:0] $end
      $var wire 3 p funct3 [2:0] $end
      $var wire 7 q funct7 [6:0] $end
      $var wire 32 r imm [31:0] $end
      $var wire 5 i" shamt [4:0] $end
      $var wire 128 s p [127:0] $end
      $var wire 224 j" t [223:0] $end
     $upscope $end
     $scope module check_E__Vstatic__check_E_func $end
      $var wire 32 w pc [31:0] $end
      $var wire 32 x alu_res [31:0] $end
      $var wire 1 y br_taken [0:0] $end
      $var wire 128 z p [127:0] $end
     $upscope $end
     $scope module check_F__Vstatic__check_F_func $end
      $var wire 32 ~ pc [31:0] $end
      $var wire 32 !! insn [31:0] $end
      $var wire 128 "! p [127:0] $end
     $upscope $end
     $scope module check_M__Vstatic__check_M_func $end
      $var wire 32 &! pc [31:0] $end
      $var wire 32 '! address [31:0] $end
      $var wire 1 q" rw [0:0] $end
      $var wire 2 (! size_encoded [1:0] $end
      $var wire 32 )! data [31:0] $end
      $var wire 128 *! p [127:0] $end
     $upscope $end
     $scope module check_R__Vstatic__check_R_func $end
      $var wire 5 .! read_rs1 [4:0] $end
      $var wire 5 /! read_rs2 [4:0] $end
      $var wire 32 0! read_rs1_data [31:0] $end
      $var wire 32 1! read_rs2_data [31:0] $end
      $var wire 128 2! p [127:0] $end
     $upscope $end
     $scope module check_W__Vstatic__check_W_func $end
      $var wire 32 6! pc [31:0] $end
      $var wire 1 7! enable [0:0] $end
      $var wire 5 8! destination [4:0] $end
      $var wire 32 9! data [31:0] $end
      $var wire 128 :! p [127:0] $end
     $upscope $end
    $upscope $end
    $scope module pre_check $end
     $var wire 32 r" res [31:0] $end
    $upscope $end
    $scope module tick_check $end
     $var wire 1 >! res $end
     $var wire 1 s" tick_ok $end
     $var wire 1 ?! correct $end
     $var wire 4096 @! msg [4095:0] $end
    $upscope $end
   $upscope $end
  $upscope $end
 $upscope $end
$enddefinitions $end


#0
b00000000000001000000000000000000 #
1$
b00000000000000000000000000000000 %
0&
1'
1(
1)
0*
0+
0,
b00 -
b0000 .
b00000001000000000000000000000000 /
b11111101000000010000000100010011 0
b0010011 1
b00010 2
b00010 3
b10000 4
b1111110 5
b000 6
b10000 7
b11111111111111111111111111010000 8
b00000000000000000000000000000000 9
b00000000000000000000000000000000 :
b00000000000000000000000000000000 ;
b11111111111111111111111111010000 <
b11111111111111111111111111010000 =
0>
b00000000000000000000000000000000 ?
b00 @
b010 A
b11111111111111111111111111010000 B
b00000001000000000000000000000100 C
b00000001000000000000000000000000 D
0E
0F
b00000000000000000000000000000000 G
b11111110111111111111111111010000 H
b00000000000000000000000000000000 I
b00000000000000000000000000000000 J
b00000000000000000000000000000000 K
b00000000000000000000000000000000 L
b00000000000000000000000000000000 M
b00000000000000000000000000000000 N
b00000000000000000000000000000000 O
b00000000000000000000000000000000 P
b00000000000000000000000000000000 Q
b00000000000000000000000000000000 R
b00000000000000000000000000000000 S
b00000000000000000000000000000000 T
b00000000000000000000000000000000 U
b00000000000000000000000000000000 V
b00000000000000000000000000000000 W
b00000000000000000000000000000000 X
b00000000000000000000000000000000 Y
b00000000000000000000000000000000 Z
b00000000000000000000000000000000 [
b00000000000000000000000000000000 \
b00000000000000000000000000000000 ]
b00000000000000000000000000000000 ^
b00000000000000000000000000000000 _
b00000000000000000000000000000000 `
b00000000000000000000000000000000 a
b00000000000000000000000000000000 b
b00000000000000000000000000000000 c
b00000000000000000000000000000000 d
b00000000000000000000000000000000 e
b00000000000000000000000000000000 f
b00000000000000000000000000000000 g
b00000000000000000000000000000000 h
b00000000000000000000000000000000 i
b00000000000000000000000000000000 j
b00000000000000000000000000000000 k
b0000000 l
b00000 m
b00000 n
b00000 o
b000 p
b0000000 q
b00000000000000000000000000000000 r
b00000000000000000000000000000000000000000000000000000000000000000000000000000000000000000000000000000000000000000000000000000000 s
b00000000000000000000000000000000 w
b00000000000000000000000000000000 x
0y
b00000000000000000000000000000000000000000000000000000000000000000000000000000000000000000000000000000000000000000000000000000000 z
b00000000000000000000000000000000 ~
b00000000000000000000000000000000 !!
b00000000000000000000000000000000000000000000000000000000000000000000000000000000000000000000000000000000000000000000000000000000 "!
b00000000000000000000000000000000 &!
b00000000000000000000000000000000 '!
b00 (!
b00000000000000000000000000000000 )!
b00000000000000000000000000000000000000000000000000000000000000000000000000000000000000000000000000000000000000000000000000000000 *!
b00000 .!
b00000 /!
b00000000000000000000000000000000 0!
b00000000000000000000000000000000 1!
b00000000000000000000000000000000000000000000000000000000000000000000000000000000000000000000000000000000000000000000000000000000 2!
b00000000000000000000000000000000 6!
07!
b00000 8!
b00000000000000000000000000000000 9!
b00000000000000000000000000000000000000000000000000000000000000000000000000000000000000000000000000000000000000000000000000000000 :!
0>!
1?!
b0000000000000000000000000000000000000000000000000000000000000000000000000000000000000000000000000000000000000000000000000000000000000000000000000000000000000000000000000000000000000000000000000000000000000000000000000000000000000000000000000000000000000000000000000000000000000000000000000000000000000000000000000000000000000000000000000000000000000000000000000000000000000000000000000000000000000000000000000000000000000000000000000000000000000000000000000000000000000000000000000000000000000000000000000000000000000000000000000000000000000000000000000000000000000000000000000000000000000000000000000000000000000000000000000000000000000000000000000000000000000000000000000000000000000000000000000000000000000000000000000000000000000000000000000000000000000000000000000000000000000000000000000000000000000000000000000000000000000000000000000000000000000000000000000000000000000000000000000000000000000000000000000000000000000000000000000000000000000000000000000000000000000000000000000000000000000000000000000000000000000000000000000000000000000000000000000000000000000000000000000000000000000000000000000000000000000000000000000000000000000000000000000000000000000000000000000000000000000000000000000000000000000000000000000000000000000000000000000000000000000000000000000000000000000000000000000000000000000000000000000000000000000000000000000000000000000000000000000000000000000000000000000000000000000000000000000000000000000000000000000000000000000000000000000000000000000000000000000000000000000000000000000000000000000000000000000000000000000000000000000000000000000000000000000000000000000000000000000000000000000000000000000000000000000000000000000000000000000000000000000000000000000000000000000000000000000000000000000000000000000000000000000000000000000000000000000000000000000000000000000000000000000000000000000000000000000000000000000000000000000000000000000000000000000000000000000000000000000000000000000000000000000000000000000000000000000000000000000000000000000000000000000000000000000000000000000000000000000000000000000000000000000000000000000000000000000000000000000000000000000000000000000000000000000000000000000000000000000000000000000000000000000000000000000000000000000000000000000000000000000000000000000000000000000000000000000000000000000000000000000000000000000000000000000000000000000000000000000000000000000000000000000000000000000000000000000000000000000000000000000000000000000000000000000000000000000000000000000000000000000000000000000000000000000000000000000000000000000000000000000000000000000000000000000000000000000000000000000000000000000000000000000000000000000000000000000000000000000000000000000000000000000000000000000000000000000000000000000000000000000000000000000000000000000000000000000000000000000000000000000000000000000000000000000000000000000000000000000000000000000000000000000000000000000000000000000000000000000000000000000000000000000000000000000000000000000000000000000000000000000000000000000000000000000000000000000000000000000000000000000000000000000000000000000000000000000000000000000000000000000000000000000000000000000000000000000000000000000000000000000000000000000000000000000000000000000000000000000000000000000000000000000000000000000000000000000000000000000000000000000000000000000000000000000000000000000000000000000000000000000000000000000000000000000000000000000000000000000000000000000000000000000000000000000000000000000000000000000000000000000000000000000000000000000000000000000000000000000000000000000000000000000000000000000000000000000000000000000000000000000000000000000000000000000000000000000000000000000000000000000000000000000000000000000000000000000000000000000000000000000000000000000000000000000000000000000000000000000000000000000000000000000000000000000000000000000000000000000000000000000000000000000000000000000000000000000000000000000000000000000000000000000000000000000000000000000000000000000000000000000000000000000000000000000000000000000000000000000000000000000000000000000000000000000000000000000000000000000000000000000000000000000000000000000000000000000000000000000000000000000000000000000000 @!
0b"
b00000000000000000000000000100000 c"
1d"
b00000001000000000000000000000000 e"
b00000000000000000000000000000000 f"
b00000001000000000000000000000000 g"
b00000000000100000000000000000000 h"
b00000 i"
b00000000000000000000000000000000000000000000000000000000000000000000000000000000000000000000000000000000000000000000000000000000000000000000000000000000000000000000000000000000000000000000000000000000000000000000000000000000 j"
0q"
b00000000000000000000000000000000 r"
0s"
b00000000000000000000000000000000 t"
#1
b00000000000000000000000000000001 %
b00000001000100000000000000000000 9
b00000001000100000000000000000000 ;
b00000001000011111111111111010000 =
b00000001000011111111111111010000 B
b00000000000011111111111111010000 H
b00000001000100000000000000000000 K
b00000000000000000000000000100000 i
1b"
#2
0b"
#3
b00000000000000000000000000000010 %
1b"
#4
0b"
#5
b00000000000000000000000000000011 %
1b"
#6
0b"
#7
b00000000000000000000000000000100 %
1b"
#8
0b"
#9
b00000000000000000000000000000101 %
1b"
#10
0b"
#11
0$
b00000000000000000000000000000110 %
1b"
#12
b00000000000000000000000000000001 j
b00000001000000000000000000000000 k
b0010011 l
b00010 m
b00010 n
b10000 o
b1111110 q
b11111111111111111111111111010000 r
b00000000000000000000000000010000111111111111111111111111110100001111110000100000001000010001001100000001000000000000000000000000 s
b00000001000000000000000000000000 w
b00000001000011111111111111010000 x
b00000000000000000000000000000000000000000000000000000000000000000000000100001111111111111101000000000001000000000000000000000000 z
b00000001000000000000000000000000 ~
b11111101000000010000000100010011 !!
b00000000000000000000000000000000000000000000000000000000000000001111110100000001000000010001001100000001000000000000000000000000 "!
b00000001000000000000000000000000 &!
b00000001000011111111111111010000 '!
b00000000000000000000000000000000000000000000000000000000000000000000000100001111111111111101000000000001000000000000000000000000 *!
b00010 .!
b10000 /!
b00000001000100000000000000000000 0!
b00000000000000000000000000000000000000000000000000000000000000000000000000000000000000000000010001000000000000000000001000000010 2!
b00000001000000000000000000000000 6!
17!
b00010 8!
b00000001000011111111111111010000 9!
b00000000000000000000000000000000000000000000000000000000000000000100001111111111111101000000010100000001000000000000000000000000 :!
1>!
0b"
#13
b00000000000000000000000000000111 %
0(
1,
b00000001000000000000000000000100 /
b00000010000100010010011000100011 0
b0100011 1
b01100 2
b00001 4
b0000001 5
b010 6
b01100 7
b00000000000000000000000000101100 8
b00000001000011111111111111010000 9
b00000001000011111111111111010000 ;
b00000000000000000000000000101100 <
b00000001000011111111111111111100 =
b10 @
b00000001000011111111111111111100 B
b00000001000000000000000000001000 C
b00000001000000000000000000000100 D
b00000000000000000000000000000100 G
b00000000000011111111111111111100 H
b00000001000011111111111111010000 K
1b"
#14
b00000000000000000000000000000010 j
b00000001000000000000000000000100 k
b0100011 l
b01100 m
b00001 o
b010 p
b0000001 q
b00000000000000000000000000101100 r
b00000000000000000000000000000001000000000000000000000000001011000000001010000010001001100010001100000001000000000000000000000100 s
b00000001000000000000000000000100 w
b00000001000011111111111111111100 x
b00000000000000000000000000000000000000000000000000000000000000000000000100001111111111111111110000000001000000000000000000000100 z
b00000001000000000000000000000100 ~
b00000010000100010010011000100011 !!
b00000000000000000000000000000000000000000000000000000000000000000000001000010001001001100010001100000001000000000000000000000100 "!
b00000001000000000000000000000100 &!
b00000001000011111111111111111100 '!
b10 (!
b00000000000000000000000000000000000000000000000000000000000000100000000100001111111111111111110000000001000000000000000000000100 *!
b00001 /!
b00000001000011111111111111010000 0!
b00000000000000000000000000000000000000000000000000000000000000000000000000000000000000000000010000111111111111110100000000100010 2!
b00000001000000000000000000000100 6!
07!
b01100 8!
b00000001000011111111111111111100 9!
b00000000000000000000000000000000000000000000000000000000000000000100001111111111111111110001100000000001000000000000000000000100 :!
0b"
#15
b00000000000000000000000000001000 %
1(
0)
0,
b1111 .
b00000001000000000000000000001000 /
b00000001000000000000011110110111 0
b0110111 1
b01111 2
b00000 3
b10000 4
b0000000 5
b000 6
b00000 7
b00000001000000000000000000000000 8
b00000000000000000000000000000000 9
b00000001000000000000000000001000 ;
b00000001000000000000000000000000 <
b00000001000000000000000000000000 =
b11111101000000010000000100010011 ?
b00 @
b00000001000000000000000000000000 B
b00000001000000000000000000001100 C
b00000001000000000000000000001000 D
b00000000000000000000000000001000 G
b00000000000000000000000000000000 H
1b"
#16
b00000000000000000000000000000011 j
b00000001000000000000000000001000 k
b0110111 l
b01111 m
b00000 n
b10000 o
b000 p
b0000000 q
b00000001000000000000000000000000 r
b00000000000000000000000000010000000000010000000000000000000000000000000000100000000001111011011100000001000000000000000000001000 s
b00000001000000000000000000001000 w
b00000001000000000000000000000000 x
b00000000000000000000000000000000000000000000000000000000000000000000000100000000000000000000000000000001000000000000000000001000 z
b00000001000000000000000000001000 ~
b00000001000000000000011110110111 !!
b00000000000000000000000000000000000000000000000000000000000000000000000100000000000001111011011100000001000000000000000000001000 "!
b00000001000000000000000000001000 &!
b00000001000000000000000000000000 '!
b00 (!
b11111101000000010000000100010011 )!
b00000000000000000000000000000011111101000000010000000100010011000000000100000000000000000000000000000001000000000000000000001000 *!
b00000 .!
b10000 /!
b00000000000000000000000000000000 0!
b00000000000000000000000000000000000000000000000000000000000000000000000000000000000000000000000000000000000000000000001000000000 2!
b00000001000000000000000000001000 6!
17!
b01111 8!
b00000001000000000000000000000000 9!
b00000000000000000000000000000000000000000000000000000000000000000100000000000000000000000001111100000001000000000000000000001000 :!
0b"
#17
b00000000000000000000000000001001 %
1)
1+
b01 -
b0000 .
b00000001000000000000000000001100 /
b00100100100001111010100010000011 0
b0000011 1
b10001 2
b01111 3
b01000 4
b0010010 5
b010 6
b01000 7
b00000000000000000000001001001000 8
b00000001000000000000000000000000 9
b00000001000000000000000000000000 ;
b00000000000000000000001001001000 <
b00000001000000000000001001001000 =
b00000000000000000000000000001100 ?
b10 @
b00000000000000000000000000001100 B
b00000001000000000000000000010000 C
b00000001000000000000000000001100 D
b00000000000000000000000000001100 G
b00000000000000000000001001001000 H
b00000001000000000000000000000000 X
1b"
#18
b00000000000000000000000000000100 j
b00000001000000000000000000001100 k
b0000011 l
b10001 m
b01111 n
b01000 o
b010 p
b0010010 q
b00000000000000000000001001001000 r
b00000000000000000000000000001000000000000000000000000010010010000010010010010000111110001000001100000001000000000000000000001100 s
b00000001000000000000000000001100 w
b00000001000000000000001001001000 x
b00000000000000000000000000000000000000000000000000000000000000000000000100000000000000100100100000000001000000000000000000001100 z
b00000001000000000000000000001100 ~
b00100100100001111010100010000011 !!
b00000000000000000000000000000000000000000000000000000000000000000010010010000111101010001000001100000001000000000000000000001100 "!
b00000001000000000000000000001100 &!
b00000001000000000000001001001000 '!
b10 (!
b00000000000000000000000000001100 )!
b00000000000000000000000000000000000000000000000000000000001100100000000100000000000000100100100000000001000000000000000000001100 *!
b01111 .!
b01000 /!
b00000001000000000000000000000000 0!
b00000000000000000000000000000000000000000000000000000000000000000000000000000000000000000000010000000000000000000000000100001111 2!
b00000001000000000000000000001100 6!
b10001 8!
b00000000000000000000000000001100 9!
b00000000000000000000000000000000000000000000000000000000000000000000000000000000000000110010001100000001000000000000000000001100 :!
0b"
#19
b00000000000000000000000000001010 %
0+
b00 -
b00000001000000000000000000010000 /
b00100100100001111000011100010011 0
b0010011 1
b01110 2
b000 6
b00 @
b00000001000000000000001001001000 B
b00000001000000000000000000010100 C
b00000001000000000000000000010000 D
b00000000000000000000000000010000 G
b00000000000000000000000000001100 Z
1b"
#20
b00000000000000000000000000000101 j
b00000001000000000000000000010000 k
b0010011 l
b01110 m
b000 p
b00000000000000000000000000001000000000000000000000000010010010000010010000010000111101110001001100000001000000000000000000010000 s
b00000001000000000000000000010000 w
b00000000000000000000000000000000000000000000000000000000000000000000000100000000000000100100100000000001000000000000000000010000 z
b00000001000000000000000000010000 ~
b00100100100001111000011100010011 !!
b00000000000000000000000000000000000000000000000000000000000000000010010010000111100001110001001100000001000000000000000000010000 "!
b00000001000000000000000000010000 &!
b00 (!
b00000000000000000000000000000000000000000000000000000000001100000000000100000000000000100100100000000001000000000000000000010000 *!
b00000001000000000000000000010000 6!
b01110 8!
b00000001000000000000001001001000 9!
b00000000000000000000000000000000000000000000000000000000000000000100000000000000100100100001110100000001000000000000000000010000 :!
0b"
#21
b00000000000000000000000000001011 %
1+
b01 -
b00000001000000000000000000010100 /
b00000000010001110010100000000011 0
b0000011 1
b10000 2
b01110 3
b00100 4
b0000000 5
b010 6
b00100 7
b00000000000000000000000000000100 8
b00000001000000000000001001001000 9
b00000001000000000000001001001000 ;
b00000000000000000000000000000100 <
b00000001000000000000001001001100 =
b00000000000000000000000000001001 ?
b10 @
b00000000000000000000000000001001 B
b00000001000000000000000000011000 C
b00000001000000000000000000010100 D
b00000000000000000000000000010100 G
b00000000000000000000001001001100 H
b00000001000000000000001001001000 W
1b"
#22
b00000000000000000000000000000110 j
b00000001000000000000000000010100 k
b0000011 l
b10000 m
b01110 n
b00100 o
b010 p
b0000000 q
b00000000000000000000000000000100 r
b00000000000000000000000000000100000000000000000000000000000001000000000010001000111010000000001100000001000000000000000000010100 s
b00000001000000000000000000010100 w
b00000001000000000000001001001100 x
b00000000000000000000000000000000000000000000000000000000000000000000000100000000000000100100110000000001000000000000000000010100 z
b00000001000000000000000000010100 ~
b00000000010001110010100000000011 !!
b00000000000000000000000000000000000000000000000000000000000000000000000001000111001010000000001100000001000000000000000000010100 "!
b00000001000000000000000000010100 &!
b00000001000000000000001001001100 '!
b10 (!
b00000000000000000000000000001001 )!
b00000000000000000000000000000000000000000000000000000000001001100000000100000000000000100100110000000001000000000000000000010100 *!
b01110 .!
b00100 /!
b00000001000000000000001001001000 0!
b00000000000000000000000000000000000000000000000000000000000000000000000000000000000000000000010000000000000010010010000010001110 2!
b00000001000000000000000000010100 6!
b10000 8!
b00000000000000000000000000001001 9!
b00000000000000000000000000000000000000000000000000000000000000000000000000000000000000100110000100000001000000000000000000010100 :!
0b"
#23
b00000000000000000000000000001100 %
0+
b00 -
b00000001000000000000000000011000 /
b00100100100001111000011100010011 0
b0010011 1
b01110 2
b01111 3
b01000 4
b0010010 5
b000 6
b01000 7
b00000000000000000000001001001000 8
b00000001000000000000000000000000 9
b00000001000000000000000000000000 ;
b00000000000000000000001001001000 <
b00000001000000000000001001001000 =
b00000000000000000000000000001100 ?
b00 @
b00000001000000000000001001001000 B
b00000001000000000000000000011100 C
b00000001000000000000000000011000 D
b00000000000000000000000000011000 G
b00000000000000000000001001001000 H
b00000000000000000000000000001001 Y
1b"
#24
b00000000000000000000000000000111 j
b00000001000000000000000000011000 k
b0010011 l
b01110 m
b01111 n
b01000 o
b000 p
b0010010 q
b00000000000000000000001001001000 r
b00000000000000000000000000001000000000000000000000000010010010000010010000010000111101110001001100000001000000000000000000011000 s
b00000001000000000000000000011000 w
b00000001000000000000001001001000 x
b00000000000000000000000000000000000000000000000000000000000000000000000100000000000000100100100000000001000000000000000000011000 z
b00000001000000000000000000011000 ~
b00100100100001111000011100010011 !!
b00000000000000000000000000000000000000000000000000000000000000000010010010000111100001110001001100000001000000000000000000011000 "!
b00000001000000000000000000011000 &!
b00000001000000000000001001001000 '!
b00 (!
b00000000000000000000000000001100 )!
b00000000000000000000000000000000000000000000000000000000001100000000000100000000000000100100100000000001000000000000000000011000 *!
b01111 .!
b01000 /!
b00000001000000000000000000000000 0!
b00000000000000000000000000000000000000000000000000000000000000000000000000000000000000000000010000000000000000000000000100001111 2!
b00000001000000000000000000011000 6!
b01110 8!
b00000001000000000000001001001000 9!
b00000000000000000000000000000000000000000000000000000000000000000100000000000000100100100001110100000001000000000000000000011000 :!
0b"
#25
b00000000000000000000000000001101 %
1+
b01 -
b00000001000000000000000000011100 /
b00000000100001110010010100000011 0
b0000011 1
b01010 2
b01110 3
b0000000 5
b010 6
b00000000000000000000000000001000 8
b00000001000000000000001001001000 9
b00000001000000000000001001001000 ;
b00000000000000000000000000001000 <
b00000001000000000000001001010000 =
b00000000000000000000000000000100 ?
b10 @
b00000000000000000000000000000100 B
b00000001000000000000000000100000 C
b00000001000000000000000000011100 D
b00000000000000000000000000011100 G
b00000000000000000000001001010000 H
1b"
#26
b00000000000000000000000000001000 j
b00000001000000000000000000011100 k
b0000011 l
b01010 m
b01110 n
b010 p
b0000000 q
b00000000000000000000000000001000 r
b00000000000000000000000000001000000000000000000000000000000010000000000010010000111001010000001100000001000000000000000000011100 s
b00000001000000000000000000011100 w
b00000001000000000000001001010000 x
b00000000000000000000000000000000000000000000000000000000000000000000000100000000000000100101000000000001000000000000000000011100 z
b00000001000000000000000000011100 ~
b00000000100001110010010100000011 !!
b00000000000000000000000000000000000000000000000000000000000000000000000010000111001001010000001100000001000000000000000000011100 "!
b00000001000000000000000000011100 &!
b00000001000000000000001001010000 '!
b10 (!
b00000000000000000000000000000100 )!
b00000000000000000000000000000000000000000000000000000000000100100000000100000000000000100101000000000001000000000000000000011100 *!
b01110 .!
b00000001000000000000001001001000 0!
b00000000000000000000000000000000000000000000000000000000000000000000000000000000000000000000010000000000000010010010000100001110 2!
b00000001000000000000000000011100 6!
b01010 8!
b00000000000000000000000000000100 9!
b00000000000000000000000000000000000000000000000000000000000000000000000000000000000000010001010100000001000000000000000000011100 :!
0b"
#27
b00000000000000000000000000001110 %
0+
b00 -
b00000001000000000000000000100000 /
b00100100100001111000011100010011 0
b0010011 1
b01110 2
b01111 3
b0010010 5
b000 6
b00000000000000000000001001001000 8
b00000001000000000000000000000000 9
b00000001000000000000000000000000 ;
b00000000000000000000001001001000 <
b00000001000000000000001001001000 =
b00000000000000000000000000001100 ?
b00 @
b00000001000000000000001001001000 B
b00000001000000000000000000100100 C
b00000001000000000000000000100000 D
b00000000000000000000000000100000 G
b00000000000000000000001001001000 H
b00000000000000000000000000000100 S
1b"
