project/pd5/design/code/top_tb.vcd
$version Generated by VerilatedVcd $end
$timescale 1ps $end
 $scope module TOP $end
  $scope module $unit $end
   $var wire 32 E! ZERO [31:0] $end
  $upscope $end
  $scope module top_tb $end
   $var wire 1 <! clk $end
   $var wire 1 =! rst $end
   $var wire 32 ?! DWIDTH [31:0] $end
   $var wire 32 ?! AWIDTH [31:0] $end
   $var wire 32 2 counter [31:0] $end
   $scope module hut $end
    $var wire 32 ?! AWIDTH [31:0] $end
    $var wire 32 ?! DWIDTH [31:0] $end
    $var wire 1 <! clk $end
    $var wire 1 =! reset $end
    $var wire 1 3 c_pcsel $end
    $var wire 1 4 c_immsel $end
    $var wire 1 5 c_regwren $end
    $var wire 1 6 c_rs1sel $end
    $var wire 1 7 c_rs2sel $end
    $var wire 1 8 c_memren $end
    $var wire 1 9 c_memwren $end
    $var wire 2 : c_wbsel [1:0] $end
    $var wire 4 ; c_alusel [3:0] $end
    $var wire 13 < ctrl_reg[0] [12:0] $end
    $var wire 13 = ctrl_reg[1] [12:0] $end
    $var wire 13 > ctrl_reg[2] [12:0] $end
    $var wire 32 ? f_pc [31:0] $end
    $var wire 32 @ pc [31:0] $end
    $var wire 32 A f_insn [31:0] $end
    $var wire 32 B f_reg_pc [31:0] $end
    $var wire 32 C f_reg_insn [31:0] $end
    $var wire 7 D d_opcode [6:0] $end
    $var wire 5 E d_rd [4:0] $end
    $var wire 5 F d_rs1 [4:0] $end
    $var wire 5 G d_rs2 [4:0] $end
    $var wire 7 H d_funct7 [6:0] $end
    $var wire 3 I d_funct3 [2:0] $end
    $var wire 5 J d_shamt [4:0] $end
    $var wire 32 K d_imm [31:0] $end
    $var wire 32 K igen_imm [31:0] $end
    $var wire 32 L r_rs1data [31:0] $end
    $var wire 32 M r_rs2data [31:0] $end
    $var wire 32 N d_reg_insn [31:0] $end
    $var wire 7 O d_reg_opcode [6:0] $end
    $var wire 5 P d_reg_rd [4:0] $end
    $var wire 5 Q d_reg_rs1 [4:0] $end
    $var wire 5 R d_reg_rs2 [4:0] $end
    $var wire 7 S d_reg_funct7 [6:0] $end
    $var wire 3 T d_reg_funct3 [2:0] $end
    $var wire 32 U d_reg_imm [31:0] $end
    $var wire 32 V d_reg_pc [31:0] $end
    $var wire 32 W d_reg_rs1data [31:0] $end
    $var wire 32 X d_reg_rs2data [31:0] $end
    $var wire 32 Y e_rs1 [31:0] $end
    $var wire 32 Z e_rs2 [31:0] $end
    $var wire 32 [ e_res [31:0] $end
    $var wire 1 \ e_brtaken $end
    $var wire 32 ] e_reg_pc [31:0] $end
    $var wire 7 ^ e_reg_opcode [6:0] $end
    $var wire 3 _ e_reg_funct3 [2:0] $end
    $var wire 32 ` e_reg_imm [31:0] $end
    $var wire 32 a e_reg_res [31:0] $end
    $var wire 32 b e_reg_rs2data [31:0] $end
    $var wire 5 c e_reg_rd [4:0] $end
    $var wire 1 d e_reg_brtaken $end
    $var wire 32 e m_data_o [31:0] $end
    $var wire 1 @! insn_en $end
    $var wire 2 f m_size_encoded [1:0] $end
    $var wire 3 g m_funct3 [2:0] $end
    $var wire 32 h m_reg_pc [31:0] $end
    $var wire 32 i m_reg_res [31:0] $end
    $var wire 32 j m_reg_data [31:0] $end
    $var wire 32 k m_reg_imm [31:0] $end
    $var wire 5 l m_reg_rd [4:0] $end
    $var wire 32 m wb_data [31:0] $end
    $var wire 32 n wb_reg_data [31:0] $end
    $var wire 5 o wb_reg_rd [4:0] $end
    $var wire 1 >! is_program $end
    $scope module control1 $end
     $var wire 32 ?! DWIDTH [31:0] $end
     $var wire 32 C insn_i [31:0] $end
     $var wire 7 D opcode_i [6:0] $end
     $var wire 7 H funct7_i [6:0] $end
     $var wire 3 I funct3_i [2:0] $end
     $var wire 1 3 pcsel_o $end
     $var wire 1 4 immsel_o $end
     $var wire 1 5 regwren_o $end
     $var wire 1 6 rs1sel_o $end
     $var wire 1 7 rs2sel_o $end
     $var wire 1 8 memren_o $end
     $var wire 1 9 memwren_o $end
     $var wire 2 : wbsel_o [1:0] $end
     $var wire 4 ; alusel_o [3:0] $end
    $upscope $end
    $scope module decode1 $end
     $var wire 32 ?! DWIDTH [31:0] $end
     $var wire 32 ?! AWIDTH [31:0] $end
     $var wire 1 <! clk $end
     $var wire 1 =! rst $end
     $var wire 32 C insn_i [31:0] $end
     $var wire 32 B pc_i [31:0] $end
     $var wire 32 B pc_o [31:0] $end
     $var wire 32 C insn_o [31:0] $end
     $var wire 7 D opcode_o [6:0] $end
     $var wire 5 E rd_o [4:0] $end
     $var wire 5 F rs1_o [4:0] $end
     $var wire 5 G rs2_o [4:0] $end
     $var wire 7 H funct7_o [6:0] $end
     $var wire 3 I funct3_o [2:0] $end
     $var wire 5 J shamt_o [4:0] $end
     $var wire 32 K imm_o [31:0] $end
    $upscope $end
    $scope module e_alu1 $end
     $var wire 32 ?! DWIDTH [31:0] $end
     $var wire 32 ?! AWIDTH [31:0] $end
     $var wire 32 V pc_i [31:0] $end
     $var wire 32 Y rs1_i [31:0] $end
     $var wire 32 Z rs2_i [31:0] $end
     $var wire 3 T funct3_i [2:0] $end
     $var wire 7 S funct7_i [6:0] $end
     $var wire 7 O opcode_i [6:0] $end
     $var wire 32 U imm_i [31:0] $end
     $var wire 4 p alusel_i [3:0] $end
     $var wire 32 [ res_o [31:0] $end
     $var wire 1 \ brtaken_o $end
     $var wire 1 q breq $end
     $var wire 1 r brlt $end
     $scope module bc $end
      $var wire 32 ?! DWIDTH [31:0] $end
      $var wire 7 O opcode_i [6:0] $end
      $var wire 3 T funct3_i [2:0] $end
      $var wire 32 Y rs1_i [31:0] $end
      $var wire 32 Z rs2_i [31:0] $end
      $var wire 1 q breq_o $end
      $var wire 1 r brlt_o $end
     $upscope $end
    $upscope $end
    $scope module fetch1 $end
     $var wire 32 ?! DWIDTH [31:0] $end
     $var wire 32 ?! AWIDTH [31:0] $end
     $var wire 32 A! BASEADDR [31:0] $end
     $var wire 1 <! clk $end
     $var wire 1 =! rst $end
     $var wire 32 @ pc_o [31:0] $end
     $var wire 32 B! insn_o [31:0] $end
     $var wire 32 @ pc [31:0] $end
    $upscope $end
    $scope module igen1 $end
     $var wire 32 ?! DWIDTH [31:0] $end
     $var wire 7 D opcode_i [6:0] $end
     $var wire 32 C insn_i [31:0] $end
     $var wire 32 K imm_o [31:0] $end
    $upscope $end
    $scope module memory1 $end
     $var wire 32 ?! AWIDTH [31:0] $end
     $var wire 32 ?! DWIDTH [31:0] $end
     $var wire 32 C! BASE_ADDR [31:0] $end
     $var wire 1 <! clk $end
     $var wire 1 =! rst $end
     $var wire 32 ? pc_i [31:0] $end
     $var wire 32 b data_i [31:0] $end
     $var wire 32 a addr_i [31:0] $end
     $var wire 3 g funct3_i [2:0] $end
     $var wire 1 s memren_i $end
     $var wire 1 t memwren_i $end
     $var wire 1 @! insn_en_i $end
     $var wire 32 A insn_o [31:0] $end
     $var wire 32 e data_o [31:0] $end
     $var wire 32 u program_counter [31:0] $end
     $var wire 32 D! MEM_BYTES [31:0] $end
     $var wire 32 # temp_memory[0] [31:0] $end
     $var wire 32 $ temp_memory[1] [31:0] $end
     $var wire 32 % temp_memory[2] [31:0] $end
     $var wire 32 & temp_memory[3] [31:0] $end
     $var wire 32 ' temp_memory[4] [31:0] $end
     $var wire 32 ( temp_memory[5] [31:0] $end
     $var wire 32 ) temp_memory[6] [31:0] $end
     $var wire 32 * temp_memory[7] [31:0] $end
     $var wire 32 + temp_memory[8] [31:0] $end
     $var wire 32 , temp_memory[9] [31:0] $end
     $var wire 32 - temp_memory[10] [31:0] $end
     $var wire 32 . temp_memory[11] [31:0] $end
     $var wire 32 / temp_memory[12] [31:0] $end
     $var wire 32 0 temp_memory[13] [31:0] $end
     $var wire 32 1 i [31:0] $end
     $var wire 32 v address [31:0] $end
    $upscope $end
    $scope module register_file1 $end
     $var wire 32 ?! DWIDTH [31:0] $end
     $var wire 1 <! clk $end
     $var wire 1 =! rst $end
     $var wire 5 F rs1_i [4:0] $end
     $var wire 5 G rs2_i [4:0] $end
     $var wire 5 o rd_i [4:0] $end
     $var wire 32 n datawb_i [31:0] $end
     $var wire 1 w regwren_i $end
     $var wire 32 L rs1data_o [31:0] $end
     $var wire 32 M rs2data_o [31:0] $end
     $var wire 32 x x[0] [31:0] $end
     $var wire 32 y x[1] [31:0] $end
     $var wire 32 z x[2] [31:0] $end
     $var wire 32 { x[3] [31:0] $end
     $var wire 32 | x[4] [31:0] $end
     $var wire 32 } x[5] [31:0] $end
     $var wire 32 ~ x[6] [31:0] $end
     $var wire 32 !! x[7] [31:0] $end
     $var wire 32 "! x[8] [31:0] $end
     $var wire 32 #! x[9] [31:0] $end
     $var wire 32 $! x[10] [31:0] $end
     $var wire 32 %! x[11] [31:0] $end
     $var wire 32 &! x[12] [31:0] $end
     $var wire 32 '! x[13] [31:0] $end
     $var wire 32 (! x[14] [31:0] $end
     $var wire 32 )! x[15] [31:0] $end
     $var wire 32 *! x[16] [31:0] $end
     $var wire 32 +! x[17] [31:0] $end
     $var wire 32 ,! x[18] [31:0] $end
     $var wire 32 -! x[19] [31:0] $end
     $var wire 32 .! x[20] [31:0] $end
     $var wire 32 /! x[21] [31:0] $end
     $var wire 32 0! x[22] [31:0] $end
     $var wire 32 1! x[23] [31:0] $end
     $var wire 32 2! x[24] [31:0] $end
     $var wire 32 3! x[25] [31:0] $end
     $var wire 32 4! x[26] [31:0] $end
     $var wire 32 5! x[27] [31:0] $end
     $var wire 32 6! x[28] [31:0] $end
     $var wire 32 7! x[29] [31:0] $end
     $var wire 32 8! x[30] [31:0] $end
     $var wire 32 9! x[31] [31:0] $end
     $scope module unnamedblk1 $end
      $var wire 32 :! i [31:0] $end
     $upscope $end
    $upscope $end
    $scope module wb_wb1 $end
     $var wire 32 ?! DWIDTH [31:0] $end
     $var wire 32 ?! AWIDTH [31:0] $end
     $var wire 32 h pc_i [31:0] $end
     $var wire 32 i alu_res_i [31:0] $end
     $var wire 32 j memory_data_i [31:0] $end
     $var wire 2 ;! wbsel_i [1:0] $end
     $var wire 32 k imm_i [31:0] $end
     $var wire 32 m writeback_data_o [31:0] $end
    $upscope $end
   $upscope $end
  $upscope $end
 $upscope $end
$enddefinitions $end


#0
b00000011001001010000010100010011 #
b00000110010001011000010110010011 $
b11111101000000010000000100010011 %
b00000000000000000000000000010011 &
b00000000000000000000000000010011 '
b00000000000000000000000000010011 (
b00000000000000000000000000010011 )
b00000000000000000000000000010011 *
b00000010101000010010011000100011 +
b00000010101000010010010000100011 ,
b00000010100000010010010100000011 -
b00000000101001011000011000110011 .
b00000010110000010010010110000011 /
b00000000101101010000011010110011 0
b00000000000001000000000000000000 1
b00000000000000000000000000000001 2
03
04
05
06
07
08
09
b00 :
b1111 ;
b0000000000000 <
b0000000000000 =
b0000000000000 >
b00000001000000000000000000000000 ?
b00000001000000000000000000000000 @
b00000000000000000000000000000000 A
b00000000000000000000000000000000 B
b00000000000000000000000000000000 C
b0000000 D
b00000 E
b00000 F
b00000 G
b0000000 H
b000 I
b00000 J
b00000000000000000000000000000000 K
b00000000000000000000000000000000 L
b00000000000000000000000000000000 M
b00000000000000000000000000000000 N
b0000000 O
b00000 P
b00000 Q
b00000 R
b0000000 S
b000 T
b00000000000000000000000000000000 U
b00000000000000000000000000000000 V
b00000000000000000000000000000000 W
b00000000000000000000000000000000 X
b00000000000000000000000000000000 Y
b00000000000000000000000000000000 Z
b00000000000000000000000000000000 [
0\
b00000000000000000000000000000000 ]
b0000000 ^
b000 _
b00000000000000000000000000000000 `
b00000000000000000000000000000000 a
b00000000000000000000000000000000 b
b00000 c
0d
b00000000000000000000000000000000 e
b00 f
b010 g
b00000000000000000000000000000000 h
b00000000000000000000000000000000 i
b00000000000000000000000000000000 j
b00000000000000000000000000000000 k
b00000 l
b00000000000000000000000000000000 m
b00000000000000000000000000000000 n
b00000 o
b0000 p
0q
0r
0s
0t
b00000000000000000000000000000000 u
b11111111000000000000000000000000 v
0w
b00000000000000000000000000000000 x
b00000000000000000000000000000000 y
b00000001000100000000000000000000 z
b00000000000000000000000000000000 {
b00000000000000000000000000000000 |
b00000000000000000000000000000000 }
b00000000000000000000000000000000 ~
b00000000000000000000000000000000 !!
b00000000000000000000000000000000 "!
b00000000000000000000000000000000 #!
b00000000000000000000000000000000 $!
b00000000000000000000000000000000 %!
b00000000000000000000000000000000 &!
b00000000000000000000000000000000 '!
b00000000000000000000000000000000 (!
b00000000000000000000000000000000 )!
b00000000000000000000000000000000 *!
b00000000000000000000000000000000 +!
b00000000000000000000000000000000 ,!
b00000000000000000000000000000000 -!
b00000000000000000000000000000000 .!
b00000000000000000000000000000000 /!
b00000000000000000000000000000000 0!
b00000000000000000000000000000000 1!
b00000000000000000000000000000000 2!
b00000000000000000000000000000000 3!
b00000000000000000000000000000000 4!
b00000000000000000000000000000000 5!
b00000000000000000000000000000000 6!
b00000000000000000000000000000000 7!
b00000000000000000000000000000000 8!
b00000000000000000000000000000000 9!
b00000000000000000000000000100000 :!
b00 ;!
1<!
1=!
0>!
b00000000000000000000000000100000 ?!
1@!
b00000001000000000000000000000000 A!
b00000000000000000000000000000000 B!
b00000001000000000000000000000000 C!
b00000000000100000000000000000000 D!
b00000000000000000000000000000000 E!
#500
0<!
#1000
b00000000000000000000000000000010 2
1<!
#1500
0<!
#2000
b00000000000000000000000000000011 2
1<!
#2500
0<!
#3000
b00000000000000000000000000000100 2
1<!
#3500
0<!
#4000
b00000000000000000000000000000101 2
1<!
#4500
0<!
#5000
b00000000000000000000000000000110 2
b00000011001001010000010100010011 A
1<!
0=!
#5500
0<!
#6000
b00000000000000000000000000000111 2
14
15
16
b0000 ;
b1111000000000 <
b00000001000000000000000000000100 ?
b00000001000000000000000000000100 @
b00000110010001011000010110010011 A
b00000001000000000000000000000000 B
b00000011001001010000010100010011 C
b0010011 D
b01010 E
b01010 F
b0000001 H
b10010 J
b00000000000000000000000000110010 K
b1111 p
b00000000000000000000000000000100 u
1<!
#6500
0<!
#7000
b00000000000000000000000000001000 2
b0000000001110 <
b1111000000000 =
b00000001000000000000000000001000 ?
b00000001000000000000000000001000 @
b11111101000000010000000100010011 A
b00000001000000000000000000000100 B
b00000110010001011000010110010011 C
b01011 E
b01011 F
b0000011 H
b00100 J
b00000000000000000000000001100100 K
b00000011001001010000010100010011 N
b0010011 O
b01010 P
b01010 Q
b0000001 S
b00000000000000000000000000110010 U
b00000001000000000000000000000000 V
b00000000000000000000000000110010 Z
b00000000000000000000000000110010 [
b0000 p
b00000000000000000000000000001000 u
1<!
#7500
0<!
#8000
b00000000000000000000000000001001 2
b0000000001110 =
b1111000000000 >
b00000001000000000000000000001100 ?
b00000001000000000000000000001100 @
b00000000000000000000000000010011 A
b00000001000000000000000000001000 B
b11111101000000010000000100010011 C
b00010 E
b00010 F
b1111110 H
b10000 J
b11111111111111111111111111010000 K
b00000001000100000000000000000000 L
b00000110010001011000010110010011 N
b01011 P
b01011 Q
b0000011 S
b00000000000000000000000001100100 U
b00000001000000000000000000000100 V
b00000000000000000000000001100100 Z
b00000000000000000000000001100100 [
b00000001000000000000000000000000 ]
b0010011 ^
b00000000000000000000000000110010 `
b00000000000000000000000000110010 a
b01010 c
b00000000000000000000000000001100 u
b11111111000000000000000000110010 v
1<!
#8500
0<!
#9000
b00000000000000000000000000001010 2
b0000000001110 >
b00000001000000000000000000010000 ?
b00000001000000000000000000010000 @
b00000001000000000000000000001100 B
b00000000000000000000000000010011 C
b00000 E
b00000 F
b0000000 H
b00000 J
b00000000000000000000000000000000 K
b00000000000000000000000000000000 L
b11111101000000010000000100010011 N
b00010 P
b00010 Q
b1111110 S
b11111111111111111111111111010000 U
b00000001000000000000000000001000 V
b00000001000100000000000000000000 W
b00000001000100000000000000000000 Y
b11111111111111111111111111010000 Z
b00000001000011111111111111010000 [
b00000001000000000000000000000100 ]
b00000000000000000000000001100100 `
b00000000000000000000000001100100 a
b01011 c
b00000001000000000000000000000000 h
b00000000000000000000000000110010 i
b00000000000000000000000000110010 k
b01010 l
b00000000000000000000000000110010 m
b00000000000000000000000000010000 u
b11111111000000000000000001100100 v
1w
1<!
#9500
0<!
#10000
b00000000000000000000000000001011 2
b00000001000000000000000000010100 ?
b00000001000000000000000000010100 @
b00000001000000000000000000010000 B
b00000000000000000000000000010011 N
b00000 P
b00000 Q
b0000000 S
b00000000000000000000000000000000 U
b00000001000000000000000000001100 V
b00000000000000000000000000000000 W
b00000000000000000000000000000000 Y
b00000000000000000000000000000000 Z
b00000000000000000000000000000000 [
b00000001000000000000000000001000 ]
b11111111111111111111111111010000 `
b00000001000011111111111111010000 a
b00010 c
b00000001000000000000000000000100 h
b00000000000000000000000001100100 i
b00000000000000000000000001100100 k
b01011 l
b00000000000000000000000001100100 m
b00000000000000000000000000110010 n
b01010 o
b00000000000000000000000000010100 u
b00000000000011111111111111010000 v
1<!
#10500
0<!
#11000
b00000000000000000000000000001100 2
b00000001000000000000000000011000 ?
b00000001000000000000000000011000 @
b00000001000000000000000000010100 B
b00000001000000000000000000010000 V
b00000001000000000000000000001100 ]
b00000000000000000000000000000000 `
b00000000000000000000000000000000 a
b00000 c
b00000001000000000000000000001000 h
b00000001000011111111111111010000 i
b11111111111111111111111111010000 k
b00010 l
b00000001000011111111111111010000 m
b00000000000000000000000001100100 n
b01011 o
b00000000000000000000000000011000 u
b11111111000000000000000000000000 v
b00000000000000000000000000110010 $!
1<!
#11500
0<!
#12000
b00000000000000000000000000001101 2
b00000001000000000000000000011100 ?
b00000001000000000000000000011100 @
b00000001000000000000000000011000 B
b00000001000000000000000000010100 V
b00000001000000000000000000010000 ]
b00000001000000000000000000001100 h
b00000000000000000000000000000000 i
b00000000000000000000000000000000 k
b00000 l
b00000000000000000000000000000000 m
b00000001000011111111111111010000 n
b00010 o
b00000000000000000000000000011100 u
b00000000000000000000000001100100 %!
1<!
#12500
0<!
#13000
b00000000000000000000000000001110 2
b00000001000000000000000000100000 ?
b00000001000000000000000000100000 @
b00000010101000010010011000100011 A
b00000001000000000000000000011100 B
b00000001000000000000000000011000 V
b00000001000000000000000000010100 ]
b00000001000000000000000000010000 h
b00000000000000000000000000000000 n
b00000 o
b00000000000000000000000000100000 u
b00000001000011111111111111010000 z
1<!
#13500
0<!
#14000
b00000000000000000000000000001111 2
05
19
b00000001000000000000000000100100 ?
b00000001000000000000000000100100 @
b00000010101000010010010000100011 A
b00000001000000000000000000100000 B
b00000010101000010010011000100011 C
b0100011 D
b00010 F
b01010 G
b0000001 H
b010 I
b01100 J
b00000000000000000000000000101100 K
b00000001000011111111111111010000 L
b00000000000000000000000000110010 M
b00000001000000000000000000011100 V
b00000001000000000000000000011000 ]
b00000001000000000000000000010100 h
b00000000000000000000000000100100 u
1<!
#14500
0<!
#15000
b00000000000000000000000000010000 2
b0000001001010 <
b00000001000000000000000000101000 ?
b00000001000000000000000000101000 @
b00000010100000010010010100000011 A
b00000001000000000000000000100100 B
b00000010101000010010010000100011 C
b01000 J
b00000000000000000000000000101000 K
b00000010101000010010011000100011 N
b0100011 O
b00010 Q
b01010 R
b0000001 S
b010 T
b00000000000000000000000000101100 U
b00000001000000000000000000100000 V
b00000001000011111111111111010000 W
b00000000000000000000000000110010 X
b00000001000011111111111111010000 Y
b00000000000000000000000000101100 Z
b00000001000011111111111111111100 [
b00000001000000000000000000011100 ]
b00000001000000000000000000011000 h
b00000000000000000000000000101000 u
1<!
#15500
0<!
#16000
b00000000000000000000000000010001 2
15
18
09
b01 :
b0000001001010 =
b00000001000000000000000000101100 ?
b00000001000000000000000000101100 @
b00000000101001011000011000110011 A
b00000001000000000000000000101000 B
b00000010100000010010010100000011 C
b0000011 D
b01010 E
b00000 G
b00000000000000000000000000000000 M
b00000010101000010010010000100011 N
b00000000000000000000000000101000 U
b00000001000000000000000000100100 V
b00000000000000000000000000101000 Z
b00000001000011111111111111111000 [
b00000001000000000000000000100000 ]
b0100011 ^
b010 _
b00000000000000000000000000101100 `
b00000001000011111111111111111100 a
b00000000000000000000000000110010 b
b10 f
b00000001000000000000000000011100 h
1t
b00000000000000000000000000101100 u
b00000000000011111111111111111100 v
1<!
#16500
0<!
#17000
b00000000000000000000000000010010 2
04
17
08
b00 :
b0000010101110 <
b0000001001010 >
b00000001000000000000000000110000 ?
b00000001000000000000000000110000 @
b00000010110000010010010110000011 A
b00000001000000000000000000101100 B
b00000000101001011000011000110011 C
b0110011 D
b01100 E
b01011 F
b01010 G
b0000000 H
b000 I
b00000 J
b00000000000000000000000000000000 K
b00000000000000000000000001100100 L
b00000000000000000000000000110010 M
b00000010100000010010010100000011 N
b0000011 O
b01010 P
b00000 R
b00000001000000000000000000101000 V
b00000000000000000000000000000000 X
b00000001000000000000000000100100 ]
b00000000000000000000000000101000 `
b00000001000011111111111111111000 a
b00000001000000000000000000100000 h
b00000001000011111111111111111100 i
b00000000000000000000000000101100 k
b00000001000011111111111111111100 m
b00000000000000000000000000110000 u
b00000000000011111111111111111000 v
0w
1<!
#17500
0<!
#18000
b00000000000000000000000000010011 2
14
07
18
b01 :
b0000000011100 <
b0000010101110 =
b00000001000000000000000000110100 ?
b00000001000000000000000000110100 @
b00000000101101010000011010110011 A
b00000001000000000000000000110000 B
b00000010110000010010010110000011 C
b0000011 D
b01011 E
b00010 F
b00000 G
b0000001 H
b010 I
b01100 J
b00000000000000000000000000101100 K
b00000001000011111111111111010000 L
b00000000000000000000000000000000 M
b00000000101001011000011000110011 N
b0110011 O
b01100 P
b01011 Q
b01010 R
b0000000 S
b000 T
b00000000000000000000000000000000 U
b00000001000000000000000000101100 V
b00000000000000000000000001100100 W
b00000000000000000000000000110010 X
b00000000000000000000000001100100 Y
b00000000000000000000000000110010 Z
b00000000000000000000000010010110 [
b00000001000000000000000000101000 ]
b0000011 ^
b00000000000000000000000000000000 b
b01010 c
b00000000000000000000000000110010 e
b00000001000000000000000000100100 h
b00000001000011111111111111111000 i
b00000000000000000000000000101000 k
b00000001000011111111111111111000 m
b00000001000011111111111111111100 n
1s
0t
b00000000000000000000000000110100 u
1<!
#18500
0<!
#19000
b00000000000000000000000000010100 2
04
17
08
b00 :
b0000010101110 <
b0000000011100 =
b0000010101110 >
b00000001000000000000000000111000 ?
b00000001000000000000000000111000 @
b00000000000000000000000000000000 A
b00000001000000000000000000110100 B
b00000000101101010000011010110011 C
b0110011 D
b01101 E
b01010 F
b01011 G
b0000000 H
b000 I
b00000 J
b00000000000000000000000000000000 K
b00000000000000000000000000110010 L
b00000000000000000000000001100100 M
b00000010110000010010010110000011 N
b0000011 O
b01011 P
b00010 Q
b00000 R
b0000001 S
b010 T
b00000000000000000000000000101100 U
b00000001000000000000000000110000 V
b00000001000011111111111111010000 W
b00000000000000000000000000000000 X
b00000001000011111111111111010000 Y
b00000000000000000000000000101100 Z
b00000001000011111111111111111100 [
b00000001000000000000000000101100 ]
b0110011 ^
b000 _
b00000000000000000000000000000000 `
b00000000000000000000000010010110 a
b00000000000000000000000000110010 b
b01100 c
b00000000000000000000000000000000 e
b00 f
b00000001000000000000000000101000 h
b00000000000000000000000000110010 j
b01010 l
b00000000000000000000000000110010 m
b00000001000011111111111111111000 n
0s
b00000000000000000000000000111000 u
b11111111000000000000000010010110 v
1w
b01 ;!
1<!
#19500
0<!
#20000
b00000000000000000000000000010101 2
05
06
07
b1111 ;
b0000000011100 <
b0000010101110 =
b0000000011100 >
b00000001000000000000000000111100 ?
b00000001000000000000000000111100 @
b00000001000000000000000000111000 B
b00000000000000000000000000000000 C
b0000000 D
b00000 E
b00000 F
b00000 G
b00000000000000000000000000000000 L
b00000000000000000000000000000000 M
b00000000101101010000011010110011 N
b0110011 O
b01101 P
b01010 Q
b01011 R
b0000000 S
b000 T
b00000000000000000000000000000000 U
b00000001000000000000000000110100 V
b00000000000000000000000000110010 W
b00000000000000000000000001100100 X
b00000000000000000000000000110010 Y
b00000000000000000000000001100100 Z
b00000000000000000000000010010110 [
b00000001000000000000000000110000 ]
b0000011 ^
b010 _
b00000000000000000000000000101100 `
b00000001000011111111111111111100 a
b00000000000000000000000000000000 b
b01011 c
b00000000000000000000000000110010 e
b10 f
b00000001000000000000000000101100 h
b00000000000000000000000010010110 i
b00000000000000000000000000000000 j
b00000000000000000000000000000000 k
b01100 l
b00000000000000000000000010010110 m
b00000000000000000000000000110010 n
b01010 o
1s
b00000000000000000000000000111100 u
b00000000000011111111111111111100 v
b00 ;!
1<!
