project/pd2/verif/sim/verilator/test_pd/test1.vcd
$version Generated by VerilatedVcd $end
$timescale 1ps $end
 $scope module TOP $end
  $scope module $unit $end
   $var wire 32 ," ZERO [31:0] $end
  $upscope $end
  $scope module top $end
   $var wire 1 w! clock $end
   $var wire 1 $ reset $end
   $scope module clkg $end
    $var wire 1 w! clk $end
    $var wire 1 $ rst $end
    $var wire 32 % counter [31:0] $end
   $upscope $end
   $scope module dut $end
    $var wire 1 w! clk $end
    $var wire 1 $ reset $end
    $scope module core $end
     $var wire 32 x! AWIDTH [31:0] $end
     $var wire 32 x! DWIDTH [31:0] $end
     $var wire 1 w! clk $end
     $var wire 1 $ reset $end
     $var wire 32 y! addr_i [31:0] $end
     $var wire 32 z! data_i [31:0] $end
     $var wire 1 {! write_en $end
     $var wire 1 |! read_en $end
     $var wire 32 & f_pc [31:0] $end
     $var wire 32 ' f_insn [31:0] $end
     $var wire 32 ( d_pc [31:0] $end
     $var wire 32 ' d_insn [31:0] $end
     $var wire 7 ) d_opcode [6:0] $end
     $var wire 5 * d_rd [4:0] $end
     $var wire 5 + d_rs1 [4:0] $end
     $var wire 5 , d_rs2 [4:0] $end
     $var wire 7 - d_funct7 [6:0] $end
     $var wire 3 . d_funct3 [2:0] $end
     $var wire 5 / d_shamt [4:0] $end
     $var wire 32 0 d_imm [31:0] $end
     $var wire 32 0 igen_imm [31:0] $end
     $var wire 1 1 c_pcsel $end
     $var wire 1 2 c_immsel $end
     $var wire 1 3 c_regwren $end
     $var wire 1 4 c_rs1sel $end
     $var wire 1 5 c_rs2sel $end
     $var wire 1 6 c_memren $end
     $var wire 1 7 c_memwren $end
     $var wire 2 8 c_wbsel [1:0] $end
     $var wire 4 9 c_alusel [3:0] $end
     $scope module control1 $end
      $var wire 32 x! DWIDTH [31:0] $end
      $var wire 32 ' insn_i [31:0] $end
      $var wire 7 ) opcode_i [6:0] $end
      $var wire 7 - funct7_i [6:0] $end
      $var wire 3 . funct3_i [2:0] $end
      $var wire 1 1 pcsel_o $end
      $var wire 1 2 immsel_o $end
      $var wire 1 3 regwren_o $end
      $var wire 1 4 rs1sel_o $end
      $var wire 1 5 rs2sel_o $end
      $var wire 1 6 memren_o $end
      $var wire 1 7 memwren_o $end
      $var wire 2 8 wbsel_o [1:0] $end
      $var wire 4 9 alusel_o [3:0] $end
     $upscope $end
     $scope module decode1 $end
      $var wire 32 x! DWIDTH [31:0] $end
      $var wire 32 x! AWIDTH [31:0] $end
      $var wire 1 w! clk $end
      $var wire 1 $ rst $end
      $var wire 32 ' insn_i [31:0] $end
      $var wire 32 & pc_i [31:0] $end
      $var wire 32 ( pc_o [31:0] $end
      $var wire 32 ' insn_o [31:0] $end
      $var wire 7 ) opcode_o [6:0] $end
      $var wire 5 * rd_o [4:0] $end
      $var wire 5 + rs1_o [4:0] $end
      $var wire 5 , rs2_o [4:0] $end
      $var wire 7 - funct7_o [6:0] $end
      $var wire 3 . funct3_o [2:0] $end
      $var wire 5 / shamt_o [4:0] $end
      $var wire 32 0 imm_o [31:0] $end
      $var wire 7 ) opcode [6:0] $end
     $upscope $end
     $scope module fetch1 $end
      $var wire 32 x! DWIDTH [31:0] $end
      $var wire 32 x! AWIDTH [31:0] $end
      $var wire 32 }! BASEADDR [31:0] $end
      $var wire 1 w! clk $end
      $var wire 1 $ rst $end
      $var wire 32 & pc_o [31:0] $end
      $var wire 32 ' insn_o [31:0] $end
      $var wire 32 ( pc [31:0] $end
     $upscope $end
     $scope module igen1 $end
      $var wire 32 x! DWIDTH [31:0] $end
      $var wire 7 ) opcode_i [6:0] $end
      $var wire 32 ' insn_i [31:0] $end
      $var wire 32 0 imm_o [31:0] $end
      $var wire 3 . funct3 [2:0] $end
      $var wire 12 : itype_imm [11:0] $end
      $var wire 12 ; stype_imm [11:0] $end
      $var wire 13 < btype_imm [12:0] $end
      $var wire 20 = utype_imm [19:0] $end
      $var wire 20 > jtype_imm [19:0] $end
     $upscope $end
     $scope module memory1 $end
      $var wire 32 x! AWIDTH [31:0] $end
      $var wire 32 x! DWIDTH [31:0] $end
      $var wire 32 ~! BASE_ADDR [31:0] $end
      $var wire 1 w! clk $end
      $var wire 1 $ rst $end
      $var wire 32 & addr_i [31:0] $end
      $var wire 32 z! data_i [31:0] $end
      $var wire 1 |! read_en_i $end
      $var wire 1 {! write_en_i $end
      $var wire 32 ' data_o [31:0] $end
      $var wire 32 !" MEM_BYTES [31:0] $end
      $var wire 32 ? address [31:0] $end
      $var wire 32 # i [31:0] $end
     $upscope $end
    $upscope $end
   $upscope $end
   $scope module genblk3 $end
    $var wire 32 @ tick [31:0] $end
    $scope module genblk3 $end
     $scope module check_D__Vstatic__check_D_func $end
      $var wire 32 A pc [31:0] $end
      $var wire 7 B opcode [6:0] $end
      $var wire 5 C rd [4:0] $end
      $var wire 5 D rs1 [4:0] $end
      $var wire 5 E rs2 [4:0] $end
      $var wire 3 F funct3 [2:0] $end
      $var wire 7 G funct7 [6:0] $end
      $var wire 32 H imm [31:0] $end
      $var wire 5 "" shamt [4:0] $end
      $var wire 128 I p [127:0] $end
      $var wire 224 #" t [223:0] $end
     $upscope $end
     $scope module check_F__Vstatic__check_F_func $end
      $var wire 32 M pc [31:0] $end
      $var wire 32 N insn [31:0] $end
      $var wire 128 O p [127:0] $end
     $upscope $end
    $upscope $end
    $scope module pre_check $end
     $var wire 32 *" res [31:0] $end
    $upscope $end
    $scope module tick_check $end
     $var wire 1 S res $end
     $var wire 1 +" tick_ok $end
     $var wire 1 T correct $end
     $var wire 4096 U msg [4095:0] $end
    $upscope $end
   $upscope $end
  $upscope $end
 $upscope $end
$enddefinitions $end


#0
b00000000000000000000000001111111 #
1$
b00000000000000000000000000000000 %
b00000000000000000000000000000000 &
b11011110101011011011111011101111 '
b00000000000000000000000000000000 (
b1101111 )
b11101 *
b00000 +
b00000 ,
b0000000 -
b011 .
b01010 /
b11111111111111011011010111101010 0
11
12
13
04
05
06
07
b10 8
b0000 9
b110111101010 :
b110111111101 ;
b1110111111100 <
b11011110101011011011 =
b11101101101011110101 >
b11111111000000000000000000000000 ?
b00000000000000000000000000000000 @
b00000000000000000000000000000000 A
b0000000 B
b00000 C
b00000 D
b00000 E
b000 F
b0000000 G
b00000000000000000000000000000000 H
b00000000000000000000000000000000000000000000000000000000000000000000000000000000000000000000000000000000000000000000000000000000 I
b00000000000000000000000000000000 M
b00000000000000000000000000000000 N
b00000000000000000000000000000000000000000000000000000000000000000000000000000000000000000000000000000000000000000000000000000000 O
0S
1T
b0000000000000000000000000000000000000000000000000000000000000000000000000000000000000000000000000000000000000000000000000000000000000000000000000000000000000000000000000000000000000000000000000000000000000000000000000000000000000000000000000000000000000000000000000000000000000000000000000000000000000000000000000000000000000000000000000000000000000000000000000000000000000000000000000000000000000000000000000000000000000000000000000000000000000000000000000000000000000000000000000000000000000000000000000000000000000000000000000000000000000000000000000000000000000000000000000000000000000000000000000000000000000000000000000000000000000000000000000000000000000000000000000000000000000000000000000000000000000000000000000000000000000000000000000000000000000000000000000000000000000000000000000000000000000000000000000000000000000000000000000000000000000000000000000000000000000000000000000000000000000000000000000000000000000000000000000000000000000000000000000000000000000000000000000000000000000000000000000000000000000000000000000000000000000000000000000000000000000000000000000000000000000000000000000000000000000000000000000000000000000000000000000000000000000000000000000000000000000000000000000000000000000000000000000000000000000000000000000000000000000000000000000000000000000000000000000000000000000000000000000000000000000000000000000000000000000000000000000000000000000000000000000000000000000000000000000000000000000000000000000000000000000000000000000000000000000000000000000000000000000000000000000000000000000000000000000000000000000000000000000000000000000000000000000000000000000000000000000000000000000000000000000000000000000000000000000000000000000000000000000000000000000000000000000000000000000000000000000000000000000000000000000000000000000000000000000000000000000000000000000000000000000000000000000000000000000000000000000000000000000000000000000000000000000000000000000000000000000000000000000000000000000000000000000000000000000000000000000000000000000000000000000000000000000000000000000000000000000000000000000000000000000000000000000000000000000000000000000000000000000000000000000000000000000000000000000000000000000000000000000000000000000000000000000000000000000000000000000000000000000000000000000000000000000000000000000000000000000000000000000000000000000000000000000000000000000000000000000000000000000000000000000000000000000000000000000000000000000000000000000000000000000000000000000000000000000000000000000000000000000000000000000000000000000000000000000000000000000000000000000000000000000000000000000000000000000000000000000000000000000000000000000000000000000000000000000000000000000000000000000000000000000000000000000000000000000000000000000000000000000000000000000000000000000000000000000000000000000000000000000000000000000000000000000000000000000000000000000000000000000000000000000000000000000000000000000000000000000000000000000000000000000000000000000000000000000000000000000000000000000000000000000000000000000000000000000000000000000000000000000000000000000000000000000000000000000000000000000000000000000000000000000000000000000000000000000000000000000000000000000000000000000000000000000000000000000000000000000000000000000000000000000000000000000000000000000000000000000000000000000000000000000000000000000000000000000000000000000000000000000000000000000000000000000000000000000000000000000000000000000000000000000000000000000000000000000000000000000000000000000000000000000000000000000000000000000000000000000000000000000000000000000000000000000000000000000000000000000000000000000000000000000000000000000000000000000000000000000000000000000000000000000000000000000000000000000000000000000000000000000000000000000000000000000000000000000000000000000000000000000000000000000000000000000000000000000000000000000000000000000000000000000000000000000000000000000000000000000000000000000000000000000000000000000000000000000000000000000000000000000000000000000000000000000000000000000000000000000000000000000000000000000000000000000000000000000000000000000000000000000000000000000000000000000000000000000000000000000000000000000000000000000000 U
0w!
b00000000000000000000000000100000 x!
b00000000000000000000000000000000 y!
b00000000000000000000000000000000 z!
0{!
1|!
b00000001000000000000000000000000 }!
b00000001000000000000000000000000 ~!
b00000000000000000000000111111100 !"
b00000 ""
b00000000000000000000000000000000000000000000000000000000000000000000000000000000000000000000000000000000000000000000000000000000000000000000000000000000000000000000000000000000000000000000000000000000000000000000000000000000 #"
b00000000000000000000000000000000 *"
0+"
b00000000000000000000000000000000 ,"
#1
b00000000000000000000000000000001 %
b00000001000000000000000000000000 &
b11111101000000010000000100010011 '
b00000001000000000000000000000000 (
b0010011 )
b00010 *
b00010 +
b000 .
b10000 /
b11111111111111111111111111010000 0
01
14
b00 8
b111111010000 :
b111111000010 ;
b1011111000010 <
b11111101000000010000 =
b10001000001111101000 >
b00000000000000000000000000000000 ?
1w!
#2
0w!
#3
b00000000000000000000000000000010 %
1w!
#4
0w!
#5
b00000000000000000000000000000011 %
1w!
#6
0w!
#7
b00000000000000000000000000000100 %
1w!
#8
0w!
#9
b00000000000000000000000000000101 %
1w!
#10
0w!
#11
0$
b00000000000000000000000000000110 %
1w!
#12
b00000000000000000000000000000001 @
b00000001000000000000000000000000 A
b0010011 B
b00010 C
b00010 D
b11111111111111111111111111010000 H
b00000000000000000000000000000000111111111111111111111111110100000000000000000000001000010001001100000001000000000000000000000000 I
b00000001000000000000000000000000 M
b11111101000000010000000100010011 N
b00000000000000000000000000000000000000000000000000000000000000001111110100000001000000010001001100000001000000000000000000000000 O
1S
0w!
#13
b00000000000000000000000000000111 %
b00000001000000000000000000000100 &
b00000010000100010010011000100011 '
b00000001000000000000000000000100 (
b0100011 )
b00000 *
b00001 ,
b010 .
b01100 /
b00000000000000000000000000101100 0
03
15
17
b000000100001 :
b000000101100 ;
b0000000101100 <
b00000010000100010010 =
b00001001010000010000 >
b00000000000000000000000000000100 ?
1w!
#14
b00000000000000000000000000000010 @
b00000001000000000000000000000100 A
b0100011 B
b00000 C
b00001 E
b010 F
b00000000000000000000000000101100 H
b00000000000000000000000000000000000000000000000000000000001011000000000010000010001000000010001100000001000000000000000000000100 I
b00000001000000000000000000000100 M
b00000010000100010010011000100011 N
b00000000000000000000000000000000000000000000000000000000000000000000001000010001001001100010001100000001000000000000000000000100 O
0w!
#15
b00000000000000000000000000001000 %
b00000001000000000000000000001000 &
b00000000000000010010111000100011 '
b00000001000000000000000000001000 (
b00000 ,
b11100 /
b00000000000000000000000000011100 0
b000000000000 :
b000000011100 ;
b0000000011100 <
b00000000000000010010 =
b00001001000000000000 >
b00000000000000000000000000001000 ?
1w!
#16
b00000000000000000000000000000011 @
b00000001000000000000000000001000 A
b00000 E
b00000000000000000000000000011100 H
b00000000000000000000000000000000000000000000000000000000000111000000000010000000001000000010001100000001000000000000000000001000 I
b00000001000000000000000000001000 M
b00000000000000010010111000100011 N
b00000000000000000000000000000000000000000000000000000000000000000000000000000001001011100010001100000001000000000000000000001000 O
0w!
#17
b00000000000000000000000000001001 %
b00000001000000000000000000001100 &
b00000000000000010010110000100011 '
b00000001000000000000000000001100 (
b11000 /
b00000000000000000000000000011000 0
b000000011000 ;
b0000000011000 <
b00000000000000000000000000001100 ?
1w!
#18
b00000000000000000000000000000100 @
b00000001000000000000000000001100 A
b00000000000000000000000000011000 H
b00000000000000000000000000000000000000000000000000000000000110000000000010000000001000000010001100000001000000000000000000001100 I
b00000001000000000000000000001100 M
b00000000000000010010110000100011 N
b00000000000000000000000000000000000000000000000000000000000000000000000000000001001011000010001100000001000000000000000000001100 O
0w!
#19
b00000000000000000000000000001010 %
b00000001000000000000000000010000 &
b00000001000000000000011110110111 '
b00000001000000000000000000010000 (
b0110111 )
b01111 *
b00000 +
b000 .
b00000 /
b00000001000000000000000000000000 0
13
04
05
07
b11 8
b1111 9
b000000010000 :
b000000001111 ;
b0100000001110 <
b00000001000000000000 =
b00000000000000001000 >
b00000000000000000000000000010000 ?
1w!
#20
b00000000000000000000000000000101 @
b00000001000000000000000000010000 A
b0110111 B
b01111 C
b00000 D
b000 F
b00000001000000000000000000000000 H
b00000000000000000000000000000000000000010000000000000000000000000000000000000000000001111011011100000001000000000000000000010000 I
b00000001000000000000000000010000 M
b00000001000000000000011110110111 N
b00000000000000000000000000000000000000000000000000000000000000000000000100000000000001111011011100000001000000000000000000010000 O
0w!
#21
b00000000000000000000000000001011 %
b00000001000000000000000000010100 &
b00011110100001111010011000000011 '
b00000001000000000000000000010100 (
b0000011 )
b01100 *
b01111 +
b010 .
b01000 /
b00000000000000000000000111101000 0
14
16
b01 8
b0000 9
b000111101000 :
b000111101100 ;
b0000111101100 <
b00011110100001111010 =
b00111101000011110100 >
b00000000000000000000000000010100 ?
1w!
#22
b00000000000000000000000000000110 @
b00000001000000000000000000010100 A
b0000011 B
b01100 C
b01111 D
b010 F
b00000000000000000000000111101000 H
b00000000000000000000000000000000000000000000000000000001111010000000000010000000111101100000001100000001000000000000000000010100 I
b00000001000000000000000000010100 M
b00011110100001111010011000000011 N
b00000000000000000000000000000000000000000000000000000000000000000001111010000111101001100000001100000001000000000000000000010100 O
0w!
#23
b00000000000000000000000000001100 %
b00000001000000000000000000011000 &
b00011110100001111000011100010011 '
b00000001000000000000000000011000 (
b0010011 )
b01110 *
b000 .
06
b00 8
b000111101110 ;
b0000111101110 <
b00011110100001111000 =
b00111100000011110100 >
b00000000000000000000000000011000 ?
1w!
#24
b00000000000000000000000000000111 @
b00000001000000000000000000011000 A
b0010011 B
b01110 C
b000 F
b00000000000000000000000000000000000000000000000000000001111010000000000000000000111101110001001100000001000000000000000000011000 I
b00000001000000000000000000011000 M
b00011110100001111000011100010011 N
b00000000000000000000000000000000000000000000000000000000000000000001111010000111100001110001001100000001000000000000000000011000 O
0w!
#25
b00000000000000000000000000001101 %
b00000001000000000000000000011100 &
b00000000010001110010011010000011 '
b00000001000000000000000000011100 (
b0000011 )
b01101 *
b01110 +
b010 .
b00100 /
b00000000000000000000000000000100 0
16
b01 8
b000000000100 :
b000000001101 ;
b0100000001100 <
b00000000010001110010 =
b00111001000000000010 >
b00000000000000000000000000011100 ?
1w!
#26
b00000000000000000000000000001000 @
b00000001000000000000000000011100 A
b0000011 B
b01101 C
b01110 D
b010 F
b00000000000000000000000000000100 H
b00000000000000000000000000000000000000000000000000000000000001000000000010000000111001101000001100000001000000000000000000011100 I
b00000001000000000000000000011100 M
b00000000010001110010011010000011 N
b00000000000000000000000000000000000000000000000000000000000000000000000001000111001001101000001100000001000000000000000000011100 O
0w!
#27
b00000000000000000000000000001110 %
b00000001000000000000000000100000 &
b00011110100001111000011100010011 '
b00000001000000000000000000100000 (
b0010011 )
b01110 *
b01111 +
b000 .
b01000 /
b00000000000000000000000111101000 0
06
b00 8
b000111101000 :
b000111101110 ;
b0000111101110 <
b00011110100001111000 =
b00111100000011110100 >
b00000000000000000000000000100000 ?
1w!
#28
b00000000000000000000000000001001 @
b00000001000000000000000000100000 A
b0010011 B
b01110 C
b01111 D
b000 F
b00000000000000000000000111101000 H
b00000000000000000000000000000000000000000000000000000001111010000000000000000000111101110001001100000001000000000000000000100000 I
b00000001000000000000000000100000 M
b00011110100001111000011100010011 N
b00000000000000000000000000000000000000000000000000000000000000000001111010000111100001110001001100000001000000000000000000100000 O
0w!
#29
b00000000000000000000000000001111 %
b00000001000000000000000000100100 &
b00000000100001110010011100000011 '
b00000001000000000000000000100100 (
b0000011 )
b01110 +
b010 .
b00000000000000000000000000001000 0
16
b01 8
b000000001000 :
b000000001110 ;
b0000000001110 <
b00000000100001110010 =
b00111001000000000100 >
b00000000000000000000000000100100 ?
1w!
#30
b00000000000000000000000000001010 @
b00000001000000000000000000100100 A
b0000011 B
b01110 D
b010 F
b00000000000000000000000000001000 H
b00000000000000000000000000000000000000000000000000000000000010000000000010000000111001110000001100000001000000000000000000100100 I
b00000001000000000000000000100100 M
b00000000100001110010011100000011 N
b00000000000000000000000000000000000000000000000000000000000000000000000010000111001001110000001100000001000000000000000000100100 O
0w!
#31
b00000000000000000000000000010000 %
b00000001000000000000000000101000 &
b00000000110000010010001000100011 '
b00000001000000000000000000101000 (
b0100011 )
b00000 *
b00010 +
b01100 ,
b00100 /
b00000000000000000000000000000100 0
03
15
06
17
b00 8
b000000001100 :
b000000000100 ;
b0000000000100 <
b00000000110000010010 =
b00001001000000000110 >
b00000000000000000000000000101000 ?
1w!
#32
b00000000000000000000000000001011 @
b00000001000000000000000000101000 A
b0100011 B
b00000 C
b00010 D
b01100 E
b00000000000000000000000000000100 H
b00000000000000000000000000000000000000000000000000000000000001000000000010011000001000000010001100000001000000000000000000101000 I
b00000001000000000000000000101000 M
b00000000110000010010001000100011 N
b00000000000000000000000000000000000000000000000000000000000000000000000011000001001000100010001100000001000000000000000000101000 O
0w!
#33
b00000000000000000000000000010001 %
b00000001000000000000000000101100 &
b00000000110100010010010000100011 '
b00000001000000000000000000101100 (
b01101 ,
b01000 /
b00000000000000000000000000001000 0
b000000001101 :
b000000001000 ;
b0000000001000 <
b00000000110100010010 =
b00001001010000000110 >
b00000000000000000000000000101100 ?
1w!
#34
b00000000000000000000000000001100 @
b00000001000000000000000000101100 A
b01101 E
b00000000000000000000000000001000 H
b00000000000000000000000000000000000000000000000000000000000010000000000010011010001000000010001100000001000000000000000000101100 I
b00000001000000000000000000101100 M
b00000000110100010010010000100011 N
b00000000000000000000000000000000000000000000000000000000000000000000000011010001001001000010001100000001000000000000000000101100 O
0w!
#35
b00000000000000000000000000010010 %
b00000001000000000000000000110000 &
b00000000111000010010011000100011 '
b00000001000000000000000000110000 (
b01110 ,
b01100 /
b00000000000000000000000000001100 0
b000000001110 :
b000000001100 ;
b0000000001100 <
b00000000111000010010 =
b00001001000000000111 >
b00000000000000000000000000110000 ?
1w!
#36
b00000000000000000000000000001101 @
b00000001000000000000000000110000 A
b01110 E
b00000000000000000000000000001100 H
b00000000000000000000000000000000000000000000000000000000000011000000000010011100001000000010001100000001000000000000000000110000 I
b00000001000000000000000000110000 M
b00000000111000010010011000100011 N
b00000000000000000000000000000000000000000000000000000000000000000000000011100001001001100010001100000001000000000000000000110000 O
0w!
#37
b00000000000000000000000000010011 %
b00000001000000000000000000110100 &
b00011110100001111000011110010011 '
b00000001000000000000000000110100 (
b0010011 )
b01111 *
b01111 +
b00000 ,
b000 .
b01000 /
b00000000000000000000000111101000 0
13
05
07
b000111101000 :
b000111101111 ;
b0100111101110 <
b00011110100001111000 =
b00111100000011110100 >
b00000000000000000000000000110100 ?
1w!
#38
b00000000000000000000000000001110 @
b00000001000000000000000000110100 A
b0010011 B
b01111 C
b01111 D
b00000 E
b000 F
b00000000000000000000000111101000 H
b00000000000000000000000000000000000000000000000000000001111010000000000000000000111101111001001100000001000000000000000000110100 I
b00000001000000000000000000110100 M
b00011110100001111000011110010011 N
b00000000000000000000000000000000000000000000000000000000000000000001111010000111100001111001001100000001000000000000000000110100 O
0w!
#39
b00000000000000000000000000010100 %
b00000001000000000000000000111000 &
b00000000110001111100011110000011 '
b00000001000000000000000000111000 (
b0000011 )
b100 .
b01100 /
b00000000000000000000000000001100 0
16
b01 8
b000000001100 :
b000000001111 ;
b0100000001110 <
b00000000110001111100 =
b00111110000000000110 >
b00000000000000000000000000111000 ?
1w!
#40
b00000000000000000000000000001111 @
b00000001000000000000000000111000 A
b0000011 B
b100 F
b00000000000000000000000000001100 H
b00000000000000000000000000000000000000000000000000000000000011000000000100000000111101111000001100000001000000000000000000111000 I
b00000001000000000000000000111000 M
b00000000110001111100011110000011 N
b00000000000000000000000000000000000000000000000000000000000000000000000011000111110001111000001100000001000000000000000000111000 O
0w!
#41
b00000000000000000000000000010101 %
b00000001000000000000000000111100 &
b00000000111100010000100000100011 '
b00000001000000000000000000111100 (
b0100011 )
b00000 *
b00010 +
b01111 ,
b000 .
b10000 /
b00000000000000000000000000010000 0
03
15
06
17
b00 8
b000000001111 :
b000000010000 ;
b0000000010000 <
b00000000111100010000 =
b00001000010000000111 >
b00000000000000000000000000111100 ?
1w!
#42
b00000000000000000000000000010000 @
b00000001000000000000000000111100 A
b0100011 B
b00000 C
b00010 D
b01111 E
b000 F
b00000000000000000000000000010000 H
b00000000000000000000000000000000000000000000000000000000000100000000000000011110001000000010001100000001000000000000000000111100 I
b00000001000000000000000000111100 M
b00000000111100010000100000100011 N
b00000000000000000000000000000000000000000000000000000000000000000000000011110001000010000010001100000001000000000000000000111100 O
0w!
#43
b00000000000000000000000000010110 %
b00000001000000000000000001000000 &
b00000000000000010000100010100011 '
b00000001000000000000000001000000 (
b00000 ,
b10001 /
b00000000000000000000000000010001 0
b000000000000 :
b000000010001 ;
b0100000010000 <
b00000000000000010000 =
b00001000000000000000 >
b00000000000000000000000001000000 ?
1w!
#44
b00000000000000000000000000010001 @
b00000001000000000000000001000000 A
b00000 E
b00000000000000000000000000010001 H
b00000000000000000000000000000000000000000000000000000000000100010000000000000000001000000010001100000001000000000000000001000000 I
b00000001000000000000000001000000 M
b00000000000000010000100010100011 N
b00000000000000000000000000000000000000000000000000000000000000000000000000000001000010001010001100000001000000000000000001000000 O
0w!
#45
b00000000000000000000000000010111 %
b00000001000000000000000001000100 &
b00000000000000010000100100100011 '
b00000001000000000000000001000100 (
b10010 /
b00000000000000000000000000010010 0
b000000010010 ;
b0000000010010 <
b00000000000000000000000001000100 ?
1w!
#46
b00000000000000000000000000010010 @
b00000001000000000000000001000100 A
b00000000000000000000000000010010 H
b00000000000000000000000000000000000000000000000000000000000100100000000000000000001000000010001100000001000000000000000001000100 I
b00000001000000000000000001000100 M
b00000000000000010000100100100011 N
b00000000000000000000000000000000000000000000000000000000000000000000000000000001000010010010001100000001000000000000000001000100 O
0w!
#47
b00000000000000000000000000011000 %
b00000001000000000000000001001000 &
b00000000000000010000100110100011 '
b00000001000000000000000001001000 (
b10011 /
b00000000000000000000000000010011 0
b000000010011 ;
b0100000010010 <
b00000000000000000000000001001000 ?
1w!
#48
b00000000000000000000000000010011 @
b00000001000000000000000001001000 A
b00000000000000000000000000010011 H
b00000000000000000000000000000000000000000000000000000000000100110000000000000000001000000010001100000001000000000000000001001000 I
b00000001000000000000000001001000 M
b00000000000000010000100110100011 N
b00000000000000000000000000000000000000000000000000000000000000000000000000000001000010011010001100000001000000000000000001001000 O
0w!
#49
b00000000000000000000000000011001 %
b00000001000000000000000001001100 &
b00000000000000010000101000100011 '
b00000001000000000000000001001100 (
b10100 /
b00000000000000000000000000010100 0
b000000010100 ;
b0000000010100 <
b00000000000000000000000001001100 ?
1w!
#50
b00000000000000000000000000010100 @
b00000001000000000000000001001100 A
b00000000000000000000000000010100 H
b00000000000000000000000000000000000000000000000000000000000101000000000000000000001000000010001100000001000000000000000001001100 I
b00000001000000000000000001001100 M
b00000000000000010000101000100011 N
b00000000000000000000000000000000000000000000000000000000000000000000000000000001000010100010001100000001000000000000000001001100 O
0w!
#51
b00000000000000000000000000011010 %
b00000001000000000000000001010000 &
b00000000000000010000101010100011 '
b00000001000000000000000001010000 (
b10101 /
b00000000000000000000000000010101 0
b000000010101 ;
b0100000010100 <
b00000000000000000000000001010000 ?
1w!
#52
b00000000000000000000000000010101 @
b00000001000000000000000001010000 A
b00000000000000000000000000010101 H
b00000000000000000000000000000000000000000000000000000000000101010000000000000000001000000010001100000001000000000000000001010000 I
b00000001000000000000000001010000 M
b00000000000000010000101010100011 N
b00000000000000000000000000000000000000000000000000000000000000000000000000000001000010101010001100000001000000000000000001010000 O
0w!
#53
b00000000000000000000000000011011 %
b00000001000000000000000001010100 &
b00000000000000010000101100100011 '
b00000001000000000000000001010100 (
b10110 /
b00000000000000000000000000010110 0
b000000010110 ;
b0000000010110 <
b00000000000000000000000001010100 ?
1w!
#54
b00000000000000000000000000010110 @
b00000001000000000000000001010100 A
b00000000000000000000000000010110 H
b00000000000000000000000000000000000000000000000000000000000101100000000000000000001000000010001100000001000000000000000001010100 I
b00000001000000000000000001010100 M
b00000000000000010000101100100011 N
b00000000000000000000000000000000000000000000000000000000000000000000000000000001000010110010001100000001000000000000000001010100 O
0w!
#55
b00000000000000000000000000011100 %
b00000001000000000000000001011000 &
b00000000000000010000101110100011 '
b00000001000000000000000001011000 (
b10111 /
b00000000000000000000000000010111 0
b000000010111 ;
b0100000010110 <
b00000000000000000000000001011000 ?
1w!
#56
b00000000000000000000000000010111 @
b00000001000000000000000001011000 A
b00000000000000000000000000010111 H
b00000000000000000000000000000000000000000000000000000000000101110000000000000000001000000010001100000001000000000000000001011000 I
b00000001000000000000000001011000 M
b00000000000000010000101110100011 N
b00000000000000000000000000000000000000000000000000000000000000000000000000000001000010111010001100000001000000000000000001011000 O
0w!
#57
b00000000000000000000000000011101 %
b00000001000000000000000001011100 &
b00000000000000010010111000100011 '
b00000001000000000000000001011100 (
b010 .
b11100 /
b00000000000000000000000000011100 0
b000000011100 ;
b0000000011100 <
b00000000000000010010 =
b00001001000000000000 >
b00000000000000000000000001011100 ?
1w!
#58
b00000000000000000000000000011000 @
b00000001000000000000000001011100 A
b010 F
b00000000000000000000000000011100 H
b00000000000000000000000000000000000000000000000000000000000111000000000010000000001000000010001100000001000000000000000001011100 I
b00000001000000000000000001011100 M
b00000000000000010010111000100011 N
b00000000000000000000000000000000000000000000000000000000000000000000000000000001001011100010001100000001000000000000000001011100 O
0w!
#59
b00000000000000000000000000011110 %
b00000001000000000000000001100000 &
b00010000110000000000000001101111 '
b00000001000000000000000001100000 (
b1101111 )
b00000 +
b000 .
b01100 /
b00000000000000000000000100001100 0
11
13
04
05
07
b10 8
b000100001100 :
b000100000000 ;
b0000100000000 <
b00010000110000000000 =
b00000000000010000110 >
b00000000000000000000000001100000 ?
1w!
#60
b00000000000000000000000000011001 @
b00000001000000000000000001100000 A
b1101111 B
b00000 D
b000 F
b00000000000000000000000100001100 H
b00000000000000000000000000000000000000000000000000000001000011000000000000000000000000000110111100000001000000000000000001100000 I
b00000001000000000000000001100000 M
b00010000110000000000000001101111 N
b00000000000000000000000000000000000000000000000000000000000000000001000011000000000000000110111100000001000000000000000001100000 O
0w!
#61
b00000000000000000000000000011111 %
b00000001000000000000000001100100 &
b00000001110000010010011110000011 '
b00000001000000000000000001100100 (
b0000011 )
b01111 *
b00010 +
b010 .
b11100 /
b00000000000000000000000000011100 0
01
14
16
b01 8
b000000011100 :
b000000001111 ;
b0100000001110 <
b00000001110000010010 =
b00001001000000001110 >
b00000000000000000000000001100100 ?
1w!
#62
b00000000000000000000000000011010 @
b00000001000000000000000001100100 A
b0000011 B
b01111 C
b00010 D
b010 F
b00000000000000000000000000011100 H
b00000000000000000000000000000000000000000000000000000000000111000000000010000000001001111000001100000001000000000000000001100100 I
b00000001000000000000000001100100 M
b00000001110000010010011110000011 N
b00000000000000000000000000000000000000000000000000000000000000000000000111000001001001111000001100000001000000000000000001100100 O
0w!
#63
b00000000000000000000000000100000 %
b00000001000000000000000001101000 &
b00000010000000010000011100010011 '
b00000001000000000000000001101000 (
b0010011 )
b01110 *
b000 .
b00000 /
b00000000000000000000000000100000 0
06
b00 8
b000000100000 :
b000000101110 ;
b0000000101110 <
b00000010000000010000 =
b00001000000000010000 >
b00000000000000000000000001101000 ?
1w!
#64
b00000000000000000000000000011011 @
b00000001000000000000000001101000 A
b0010011 B
b01110 C
b000 F
b00000000000000000000000000100000 H
b00000000000000000000000000000000000000000000000000000000001000000000000000000000001001110001001100000001000000000000000001101000 I
b00000001000000000000000001101000 M
b00000010000000010000011100010011 N
b00000000000000000000000000000000000000000000000000000000000000000000001000000001000001110001001100000001000000000000000001101000 O
0w!
#65
b00000000000000000000000000100001 %
b00000001000000000000000001101100 &
b00000000111101110000011110110011 '
b00000001000000000000000001101100 (
b0110011 )
b01111 *
b01110 +
b01111 ,
b00000000000000000000000000000000 0
02
15
b000000001111 :
b000000001111 ;
b0100000001110 <
b00000000111101110000 =
b00111000010000000111 >
b00000000000000000000000001101100 ?
1w!
#66
b00000000000000000000000000011100 @
b00000001000000000000000001101100 A
b0110011 B
b01111 C
b01110 D
b01111 E
b00000000000000000000000000000000 H
b00000000000000000000000000000000000000000000000000000000000000000000000000011110111001111011001100000001000000000000000001101100 I
b00000001000000000000000001101100 M
b00000000111101110000011110110011 N
b00000000000000000000000000000000000000000000000000000000000000000000000011110111000001111011001100000001000000000000000001101100 O
0w!
