project/pd2/verif/sim/verilator/test_pd/test3.vcd
$version Generated by VerilatedVcd $end
$timescale 1ps $end
 $scope module TOP $end
  $scope module $unit $end
   $var wire 32 '" ZERO [31:0] $end
  $upscope $end
  $scope module top $end
   $var wire 1 r! clock $end
   $var wire 1 $ reset $end
   $scope module clkg $end
    $var wire 1 r! clk $end
    $var wire 1 $ rst $end
    $var wire 32 % counter [31:0] $end
   $upscope $end
   $scope module dut $end
    $var wire 1 r! clk $end
    $var wire 1 $ reset $end
    $scope module core $end
     $var wire 32 s! AWIDTH [31:0] $end
     $var wire 32 s! DWIDTH [31:0] $end
     $var wire 1 r! clk $end
     $var wire 1 $ reset $end
     $var wire 32 t! addr_i [31:0] $end
     $var wire 32 u! data_i [31:0] $end
     $var wire 1 v! write_en $end
     $var wire 1 w! read_en $end
     $var wire 32 & f_pc [31:0] $end
     $var wire 32 ' f_insn [31:0] $end
     $var wire 32 ( d_pc [31:0] $end
     $var wire 32 ' d_insn [31:0] $end
     $var wire 7 ) d_opcode [6:0] $end
     $var wire 5 * d_rd [4:0] $end
     $var wire 5 + d_rs1 [4:0] $end
     $var wire 5 , d_rs2 [4:0] $end
     $var wire 7 - d_funct7 [6:0] $end
     $var wire 3 . d_funct3 [2:0] $end
     $var wire 5 / d_shamt [4:0] $end
     $var wire 32 0 d_imm [31:0] $end
     $var wire 32 0 igen_imm [31:0] $end
     $var wire 1 1 c_pcsel $end
     $var wire 1 2 c_immsel $end
     $var wire 1 3 c_regwren $end
     $var wire 1 4 c_rs1sel $end
     $var wire 1 5 c_rs2sel $end
     $var wire 1 6 c_memren $end
     $var wire 1 7 c_memwren $end
     $var wire 2 8 c_wbsel [1:0] $end
     $var wire 4 9 c_alusel [3:0] $end
     $scope module control1 $end
      $var wire 32 s! DWIDTH [31:0] $end
      $var wire 32 ' insn_i [31:0] $end
      $var wire 7 ) opcode_i [6:0] $end
      $var wire 7 - funct7_i [6:0] $end
      $var wire 3 . funct3_i [2:0] $end
      $var wire 1 1 pcsel_o $end
      $var wire 1 2 immsel_o $end
      $var wire 1 3 regwren_o $end
      $var wire 1 4 rs1sel_o $end
      $var wire 1 5 rs2sel_o $end
      $var wire 1 6 memren_o $end
      $var wire 1 7 memwren_o $end
      $var wire 2 8 wbsel_o [1:0] $end
      $var wire 4 9 alusel_o [3:0] $end
     $upscope $end
     $scope module decode1 $end
      $var wire 32 s! DWIDTH [31:0] $end
      $var wire 32 s! AWIDTH [31:0] $end
      $var wire 1 r! clk $end
      $var wire 1 $ rst $end
      $var wire 32 ' insn_i [31:0] $end
      $var wire 32 & pc_i [31:0] $end
      $var wire 32 ( pc_o [31:0] $end
      $var wire 32 ' insn_o [31:0] $end
      $var wire 7 ) opcode_o [6:0] $end
      $var wire 5 * rd_o [4:0] $end
      $var wire 5 + rs1_o [4:0] $end
      $var wire 5 , rs2_o [4:0] $end
      $var wire 7 - funct7_o [6:0] $end
      $var wire 3 . funct3_o [2:0] $end
      $var wire 5 / shamt_o [4:0] $end
      $var wire 32 0 imm_o [31:0] $end
     $upscope $end
     $scope module fetch1 $end
      $var wire 32 s! DWIDTH [31:0] $end
      $var wire 32 s! AWIDTH [31:0] $end
      $var wire 32 x! BASEADDR [31:0] $end
      $var wire 1 r! clk $end
      $var wire 1 $ rst $end
      $var wire 32 & pc_o [31:0] $end
      $var wire 32 ' insn_o [31:0] $end
      $var wire 32 ( pc [31:0] $end
     $upscope $end
     $scope module igen1 $end
      $var wire 32 s! DWIDTH [31:0] $end
      $var wire 7 ) opcode_i [6:0] $end
      $var wire 32 ' insn_i [31:0] $end
      $var wire 32 0 imm_o [31:0] $end
     $upscope $end
     $scope module memory1 $end
      $var wire 32 s! AWIDTH [31:0] $end
      $var wire 32 s! DWIDTH [31:0] $end
      $var wire 32 y! BASE_ADDR [31:0] $end
      $var wire 1 r! clk $end
      $var wire 1 $ rst $end
      $var wire 32 & addr_i [31:0] $end
      $var wire 32 u! data_i [31:0] $end
      $var wire 1 w! read_en_i $end
      $var wire 1 v! write_en_i $end
      $var wire 32 ' data_o [31:0] $end
      $var wire 32 z! MEM_BYTES [31:0] $end
      $var wire 32 : address [31:0] $end
      $var wire 32 # i [31:0] $end
     $upscope $end
    $upscope $end
   $upscope $end
   $scope module genblk3 $end
    $var wire 32 ; tick [31:0] $end
    $scope module genblk3 $end
     $scope module check_D__Vstatic__check_D_func $end
      $var wire 32 < pc [31:0] $end
      $var wire 7 = opcode [6:0] $end
      $var wire 5 > rd [4:0] $end
      $var wire 5 ? rs1 [4:0] $end
      $var wire 5 @ rs2 [4:0] $end
      $var wire 3 A funct3 [2:0] $end
      $var wire 7 B funct7 [6:0] $end
      $var wire 32 C imm [31:0] $end
      $var wire 5 {! shamt [4:0] $end
      $var wire 128 D p [127:0] $end
      $var wire 224 |! t [223:0] $end
     $upscope $end
     $scope module check_F__Vstatic__check_F_func $end
      $var wire 32 H pc [31:0] $end
      $var wire 32 I insn [31:0] $end
      $var wire 128 J p [127:0] $end
     $upscope $end
    $upscope $end
    $scope module pre_check $end
     $var wire 32 %" res [31:0] $end
    $upscope $end
    $scope module tick_check $end
     $var wire 1 N res $end
     $var wire 1 &" tick_ok $end
     $var wire 1 O correct $end
     $var wire 4096 P msg [4095:0] $end
    $upscope $end
   $upscope $end
  $upscope $end
 $upscope $end
$enddefinitions $end


#0
b00000000000000000000000000110011 #
1$
b00000000000000000000000000000000 %
b00000000000000000000000000000000 &
b11011110101011011011111011101111 '
b00000000000000000000000000000000 (
b1101111 )
b11101 *
b00000 +
b00000 ,
b0000000 -
b011 .
b01010 /
b11111111111111011011010111101010 0
11
12
13
04
05
06
07
b10 8
b0000 9
b11111111000000000000000000000000 :
b00000000000000000000000000000000 ;
b00000000000000000000000000000000 <
b0000000 =
b00000 >
b00000 ?
b00000 @
b000 A
b0000000 B
b00000000000000000000000000000000 C
b00000000000000000000000000000000000000000000000000000000000000000000000000000000000000000000000000000000000000000000000000000000 D
b00000000000000000000000000000000 H
b00000000000000000000000000000000 I
b00000000000000000000000000000000000000000000000000000000000000000000000000000000000000000000000000000000000000000000000000000000 J
0N
1O
b0000000000000000000000000000000000000000000000000000000000000000000000000000000000000000000000000000000000000000000000000000000000000000000000000000000000000000000000000000000000000000000000000000000000000000000000000000000000000000000000000000000000000000000000000000000000000000000000000000000000000000000000000000000000000000000000000000000000000000000000000000000000000000000000000000000000000000000000000000000000000000000000000000000000000000000000000000000000000000000000000000000000000000000000000000000000000000000000000000000000000000000000000000000000000000000000000000000000000000000000000000000000000000000000000000000000000000000000000000000000000000000000000000000000000000000000000000000000000000000000000000000000000000000000000000000000000000000000000000000000000000000000000000000000000000000000000000000000000000000000000000000000000000000000000000000000000000000000000000000000000000000000000000000000000000000000000000000000000000000000000000000000000000000000000000000000000000000000000000000000000000000000000000000000000000000000000000000000000000000000000000000000000000000000000000000000000000000000000000000000000000000000000000000000000000000000000000000000000000000000000000000000000000000000000000000000000000000000000000000000000000000000000000000000000000000000000000000000000000000000000000000000000000000000000000000000000000000000000000000000000000000000000000000000000000000000000000000000000000000000000000000000000000000000000000000000000000000000000000000000000000000000000000000000000000000000000000000000000000000000000000000000000000000000000000000000000000000000000000000000000000000000000000000000000000000000000000000000000000000000000000000000000000000000000000000000000000000000000000000000000000000000000000000000000000000000000000000000000000000000000000000000000000000000000000000000000000000000000000000000000000000000000000000000000000000000000000000000000000000000000000000000000000000000000000000000000000000000000000000000000000000000000000000000000000000000000000000000000000000000000000000000000000000000000000000000000000000000000000000000000000000000000000000000000000000000000000000000000000000000000000000000000000000000000000000000000000000000000000000000000000000000000000000000000000000000000000000000000000000000000000000000000000000000000000000000000000000000000000000000000000000000000000000000000000000000000000000000000000000000000000000000000000000000000000000000000000000000000000000000000000000000000000000000000000000000000000000000000000000000000000000000000000000000000000000000000000000000000000000000000000000000000000000000000000000000000000000000000000000000000000000000000000000000000000000000000000000000000000000000000000000000000000000000000000000000000000000000000000000000000000000000000000000000000000000000000000000000000000000000000000000000000000000000000000000000000000000000000000000000000000000000000000000000000000000000000000000000000000000000000000000000000000000000000000000000000000000000000000000000000000000000000000000000000000000000000000000000000000000000000000000000000000000000000000000000000000000000000000000000000000000000000000000000000000000000000000000000000000000000000000000000000000000000000000000000000000000000000000000000000000000000000000000000000000000000000000000000000000000000000000000000000000000000000000000000000000000000000000000000000000000000000000000000000000000000000000000000000000000000000000000000000000000000000000000000000000000000000000000000000000000000000000000000000000000000000000000000000000000000000000000000000000000000000000000000000000000000000000000000000000000000000000000000000000000000000000000000000000000000000000000000000000000000000000000000000000000000000000000000000000000000000000000000000000000000000000000000000000000000000000000000000000000000000000000000000000000000000000000000000000000000000000000000000000000000000000000000000000000000000000000000000000000000000000000000000000000000000000000000000000000000000000000000000000000000000000000000000000000000000000000000000000000000000000000000000000000000000000000000000000000000000000 P
0r!
b00000000000000000000000000100000 s!
b00000000000000000000000000000000 t!
b00000000000000000000000000000000 u!
0v!
1w!
b00000001000000000000000000000000 x!
b00000001000000000000000000000000 y!
b00000000000000000000000011001100 z!
b00000 {!
b00000000000000000000000000000000000000000000000000000000000000000000000000000000000000000000000000000000000000000000000000000000000000000000000000000000000000000000000000000000000000000000000000000000000000000000000000000000 |!
b00000000000000000000000000000000 %"
0&"
b00000000000000000000000000000000 '"
#1
b00000000000000000000000000000001 %
b00000001000000000000000000000000 &
b11111110000000010000000100010011 '
b00000001000000000000000000000000 (
b0010011 )
b00010 *
b00010 +
b000 .
b00000 /
b11111111111111111111111111100000 0
01
14
b00 8
b00000000000000000000000000000000 :
1r!
#2
0r!
#3
b00000000000000000000000000000010 %
1r!
#4
0r!
#5
b00000000000000000000000000000011 %
1r!
#6
0r!
#7
b00000000000000000000000000000100 %
1r!
#8
0r!
#9
b00000000000000000000000000000101 %
1r!
#10
0r!
#11
0$
b00000000000000000000000000000110 %
1r!
#12
b00000000000000000000000000000001 ;
b00000001000000000000000000000000 <
b0010011 =
b00010 >
b00010 ?
b11111111111111111111111111100000 C
b00000000000000000000000000000000111111111111111111111111111000000000000000000000001000010001001100000001000000000000000000000000 D
b00000001000000000000000000000000 H
b11111110000000010000000100010011 I
b00000000000000000000000000000000000000000000000000000000000000001111111000000001000000010001001100000001000000000000000000000000 J
1N
0r!
#13
b00000000000000000000000000000111 %
b00000001000000000000000000000100 &
b00000000000100010010111000100011 '
b00000001000000000000000000000100 (
b0100011 )
b00000 *
b00001 ,
b010 .
b11100 /
b00000000000000000000000000011100 0
03
15
17
b00000000000000000000000000000100 :
1r!
#14
b00000000000000000000000000000010 ;
b00000001000000000000000000000100 <
b0100011 =
b00000 >
b00001 @
b010 A
b00000000000000000000000000011100 C
b00000000000000000000000000000000000000000000000000000000000111000000000010000010001000000010001100000001000000000000000000000100 D
b00000001000000000000000000000100 H
b00000000000100010010111000100011 I
b00000000000000000000000000000000000000000000000000000000000000000000000000010001001011100010001100000001000000000000000000000100 J
0r!
#15
b00000000000000000000000000001000 %
b00000001000000000000000000001000 &
b00000000001100000000011110010011 '
b00000001000000000000000000001000 (
b0010011 )
b01111 *
b00000 +
b00000 ,
b000 .
b00011 /
b00000000000000000000000000000011 0
13
05
07
b00000000000000000000000000001000 :
1r!
#16
b00000000000000000000000000000011 ;
b00000001000000000000000000001000 <
b0010011 =
b01111 >
b00000 ?
b00000 @
b000 A
b00000000000000000000000000000011 C
b00000000000000000000000000000000000000000000000000000000000000110000000000000000000001111001001100000001000000000000000000001000 D
b00000001000000000000000000001000 H
b00000000001100000000011110010011 I
b00000000000000000000000000000000000000000000000000000000000000000000000000110000000001111001001100000001000000000000000000001000 J
0r!
#17
b00000000000000000000000000001001 %
b00000001000000000000000000001100 &
b00000000111100010010011000100011 '
b00000001000000000000000000001100 (
b0100011 )
b00000 *
b00010 +
b01111 ,
b010 .
b01100 /
b00000000000000000000000000001100 0
03
15
17
b00000000000000000000000000001100 :
1r!
#18
b00000000000000000000000000000100 ;
b00000001000000000000000000001100 <
b0100011 =
b00000 >
b00010 ?
b01111 @
b010 A
b00000000000000000000000000001100 C
b00000000000000000000000000000000000000000000000000000000000011000000000010011110001000000010001100000001000000000000000000001100 D
b00000001000000000000000000001100 H
b00000000111100010010011000100011 I
b00000000000000000000000000000000000000000000000000000000000000000000000011110001001001100010001100000001000000000000000000001100 J
0r!
#19
b00000000000000000000000000001010 %
b00000001000000000000000000010000 &
b00000000001000000000011110010011 '
b00000001000000000000000000010000 (
b0010011 )
b01111 *
b00000 +
b00000 ,
b000 .
b00010 /
b00000000000000000000000000000010 0
13
05
07
b00000000000000000000000000010000 :
1r!
#20
b00000000000000000000000000000101 ;
b00000001000000000000000000010000 <
b0010011 =
b01111 >
b00000 ?
b00000 @
b000 A
b00000000000000000000000000000010 C
b00000000000000000000000000000000000000000000000000000000000000100000000000000000000001111001001100000001000000000000000000010000 D
b00000001000000000000000000010000 H
b00000000001000000000011110010011 I
b00000000000000000000000000000000000000000000000000000000000000000000000000100000000001111001001100000001000000000000000000010000 J
0r!
#21
b00000000000000000000000000001011 %
b00000001000000000000000000010100 &
b00000000111100010010010000100011 '
b00000001000000000000000000010100 (
b0100011 )
b00000 *
b00010 +
b01111 ,
b010 .
b01000 /
b00000000000000000000000000001000 0
03
15
17
b00000000000000000000000000010100 :
1r!
#22
b00000000000000000000000000000110 ;
b00000001000000000000000000010100 <
b0100011 =
b00000 >
b00010 ?
b01111 @
b010 A
b00000000000000000000000000001000 C
b00000000000000000000000000000000000000000000000000000000000010000000000010011110001000000010001100000001000000000000000000010100 D
b00000001000000000000000000010100 H
b00000000111100010010010000100011 I
b00000000000000000000000000000000000000000000000000000000000000000000000011110001001001000010001100000001000000000000000000010100 J
0r!
#23
b00000000000000000000000000001100 %
b00000001000000000000000000011000 &
b00000000000000010010001000100011 '
b00000001000000000000000000011000 (
b00000 ,
b00100 /
b00000000000000000000000000000100 0
b00000000000000000000000000011000 :
1r!
#24
b00000000000000000000000000000111 ;
b00000001000000000000000000011000 <
b00000 @
b00000000000000000000000000000100 C
b00000000000000000000000000000000000000000000000000000000000001000000000010000000001000000010001100000001000000000000000000011000 D
b00000001000000000000000000011000 H
b00000000000000010010001000100011 I
b00000000000000000000000000000000000000000000000000000000000000000000000000000001001000100010001100000001000000000000000000011000 J
0r!
#25
b00000000000000000000000000001101 %
b00000001000000000000000000011100 &
b00000000110000010010011100000011 '
b00000001000000000000000000011100 (
b0000011 )
b01110 *
b01100 /
b00000000000000000000000000001100 0
13
05
16
07
b01 8
b00000000000000000000000000011100 :
1r!
#26
b00000000000000000000000000001000 ;
b00000001000000000000000000011100 <
b0000011 =
b01110 >
b00000000000000000000000000001100 C
b00000000000000000000000000000000000000000000000000000000000011000000000010000000001001110000001100000001000000000000000000011100 D
b00000001000000000000000000011100 H
b00000000110000010010011100000011 I
b00000000000000000000000000000000000000000000000000000000000000000000000011000001001001110000001100000001000000000000000000011100 J
0r!
#27
b00000000000000000000000000001110 %
b00000001000000000000000000100000 &
b00000000010000000000011110010011 '
b00000001000000000000000000100000 (
b0010011 )
b01111 *
b00000 +
b000 .
b00100 /
b00000000000000000000000000000100 0
06
b00 8
b00000000000000000000000000100000 :
1r!
#28
b00000000000000000000000000001001 ;
b00000001000000000000000000100000 <
b0010011 =
b01111 >
b00000 ?
b000 A
b00000000000000000000000000000100 C
b00000000000000000000000000000000000000000000000000000000000001000000000000000000000001111001001100000001000000000000000000100000 D
b00000001000000000000000000100000 H
b00000000010000000000011110010011 I
b00000000000000000000000000000000000000000000000000000000000000000000000001000000000001111001001100000001000000000000000000100000 J
0r!
#29
b00000000000000000000000000001111 %
b00000001000000000000000000100100 &
b00000000111001111100110001100011 '
b00000001000000000000000000100100 (
b1100011 )
b00000 *
b01111 +
b01110 ,
b100 .
b11000 /
b00000000000000000000000000011000 0
11
03
15
b00000000000000000000000000100100 :
1r!
#30
b00000000000000000000000000001010 ;
b00000001000000000000000000100100 <
b1100011 =
b00000 >
b01111 ?
b01110 @
b100 A
b00000000000000000000000000011000 C
b00000000000000000000000000000000000000000000000000000000000110000000000100011100111100000110001100000001000000000000000000100100 D
b00000001000000000000000000100100 H
b00000000111001111100110001100011 I
b00000000000000000000000000000000000000000000000000000000000000000000000011100111110011000110001100000001000000000000000000100100 J
0r!
#31
b00000000000000000000000000010000 %
b00000001000000000000000000101000 &
b00000000110000010010011100000011 '
b00000001000000000000000000101000 (
b0000011 )
b01110 *
b00010 +
b00000 ,
b010 .
b01100 /
b00000000000000000000000000001100 0
01
13
05
16
b01 8
b00000000000000000000000000101000 :
1r!
#32
b00000000000000000000000000001011 ;
b00000001000000000000000000101000 <
b0000011 =
b01110 >
b00010 ?
b00000 @
b010 A
b00000000000000000000000000001100 C
b00000000000000000000000000000000000000000000000000000000000011000000000010000000001001110000001100000001000000000000000000101000 D
b00000001000000000000000000101000 H
b00000000110000010010011100000011 I
b00000000000000000000000000000000000000000000000000000000000000000000000011000001001001110000001100000001000000000000000000101000 J
0r!
#33
b00000000000000000000000000010001 %
b00000001000000000000000000101100 &
b00000000100000010010011110000011 '
b00000001000000000000000000101100 (
b01111 *
b01000 /
b00000000000000000000000000001000 0
b00000000000000000000000000101100 :
1r!
#34
b00000000000000000000000000001100 ;
b00000001000000000000000000101100 <
b01111 >
b00000000000000000000000000001000 C
b00000000000000000000000000000000000000000000000000000000000010000000000010000000001001111000001100000001000000000000000000101100 D
b00000001000000000000000000101100 H
b00000000100000010010011110000011 I
b00000000000000000000000000000000000000000000000000000000000000000000000010000001001001111000001100000001000000000000000000101100 J
0r!
#35
b00000000000000000000000000010010 %
b00000001000000000000000000110000 &
b00000000111101110000011110110011 '
b00000001000000000000000000110000 (
b0110011 )
b01110 +
b01111 ,
b000 .
b00000 /
b00000000000000000000000000000000 0
02
15
06
b00 8
b00000000000000000000000000110000 :
1r!
#36
b00000000000000000000000000001101 ;
b00000001000000000000000000110000 <
b0110011 =
b01110 ?
b01111 @
b000 A
b00000000000000000000000000000000 C
b00000000000000000000000000000000000000000000000000000000000000000000000000011110111001111011001100000001000000000000000000110000 D
b00000001000000000000000000110000 H
b00000000111101110000011110110011 I
b00000000000000000000000000000000000000000000000000000000000000000000000011110111000001111011001100000001000000000000000000110000 J
0r!
#37
b00000000000000000000000000010011 %
b00000001000000000000000000110100 &
b00000000111100010010011000100011 '
b00000001000000000000000000110100 (
b0100011 )
b00000 *
b00010 +
b010 .
b01100 /
b00000000000000000000000000001100 0
12
03
17
b00000000000000000000000000110100 :
1r!
#38
b00000000000000000000000000001110 ;
b00000001000000000000000000110100 <
b0100011 =
b00000 >
b00010 ?
b010 A
b00000000000000000000000000001100 C
b00000000000000000000000000000000000000000000000000000000000011000000000010011110001000000010001100000001000000000000000000110100 D
b00000001000000000000000000110100 H
b00000000111100010010011000100011 I
b00000000000000000000000000000000000000000000000000000000000000000000000011110001001001100010001100000001000000000000000000110100 J
0r!
#39
b00000000000000000000000000010100 %
b00000001000000000000000000111000 &
b00000001010000000000000001101111 '
b00000001000000000000000000111000 (
b1101111 )
b00000 +
b00000 ,
b000 .
b10100 /
b00000000000000000000000000010100 0
11
13
04
05
07
b10 8
b00000000000000000000000000111000 :
1r!
#40
b00000000000000000000000000001111 ;
b00000001000000000000000000111000 <
b1101111 =
b00000 ?
b00000 @
b000 A
b00000000000000000000000000010100 C
b00000000000000000000000000000000000000000000000000000000000101000000000000000000000000000110111100000001000000000000000000111000 D
b00000001000000000000000000111000 H
b00000001010000000000000001101111 I
b00000000000000000000000000000000000000000000000000000000000000000000000101000000000000000110111100000001000000000000000000111000 J
0r!
#41
b00000000000000000000000000010101 %
b00000001000000000000000000111100 &
b00000000110000010010011100000011 '
b00000001000000000000000000111100 (
b0000011 )
b01110 *
b00010 +
b010 .
b01100 /
b00000000000000000000000000001100 0
01
14
16
b01 8
b00000000000000000000000000111100 :
1r!
#42
b00000000000000000000000000010000 ;
b00000001000000000000000000111100 <
b0000011 =
b01110 >
b00010 ?
b010 A
b00000000000000000000000000001100 C
b00000000000000000000000000000000000000000000000000000000000011000000000010000000001001110000001100000001000000000000000000111100 D
b00000001000000000000000000111100 H
b00000000110000010010011100000011 I
b00000000000000000000000000000000000000000000000000000000000000000000000011000001001001110000001100000001000000000000000000111100 J
0r!
#43
b00000000000000000000000000010110 %
b00000001000000000000000001000000 &
b00000000100000010010011110000011 '
b00000001000000000000000001000000 (
b01111 *
b01000 /
b00000000000000000000000000001000 0
b00000000000000000000000001000000 :
1r!
#44
b00000000000000000000000000010001 ;
b00000001000000000000000001000000 <
b01111 >
b00000000000000000000000000001000 C
b00000000000000000000000000000000000000000000000000000000000010000000000010000000001001111000001100000001000000000000000001000000 D
b00000001000000000000000001000000 H
b00000000100000010010011110000011 I
b00000000000000000000000000000000000000000000000000000000000000000000000010000001001001111000001100000001000000000000000001000000 J
0r!
#45
b00000000000000000000000000010111 %
b00000001000000000000000001000100 &
b01000000111101110000011110110011 '
b00000001000000000000000001000100 (
b0110011 )
b01110 +
b01111 ,
b0100000 -
b000 .
b00000 /
b00000000000000000000000000000000 0
02
15
06
b00 8
b0001 9
b00000000000000000000000001000100 :
1r!
#46
b00000000000000000000000000010010 ;
b00000001000000000000000001000100 <
b0110011 =
b01110 ?
b01111 @
b000 A
b0100000 B
b00000000000000000000000000000000 C
b00000000000000000000000000000000000000000000000000000000000000000100000000011110111001111011001100000001000000000000000001000100 D
b00000001000000000000000001000100 H
b01000000111101110000011110110011 I
b00000000000000000000000000000000000000000000000000000000000000000100000011110111000001111011001100000001000000000000000001000100 J
0r!
#47
b00000000000000000000000000011000 %
b00000001000000000000000001001000 &
b00000000111100010010011000100011 '
b00000001000000000000000001001000 (
b0100011 )
b00000 *
b00010 +
b0000000 -
b010 .
b01100 /
b00000000000000000000000000001100 0
12
03
17
b0000 9
b00000000000000000000000001001000 :
1r!
#48
b00000000000000000000000000010011 ;
b00000001000000000000000001001000 <
b0100011 =
b00000 >
b00010 ?
b010 A
b0000000 B
b00000000000000000000000000001100 C
b00000000000000000000000000000000000000000000000000000000000011000000000010011110001000000010001100000001000000000000000001001000 D
b00000001000000000000000001001000 H
b00000000111100010010011000100011 I
b00000000000000000000000000000000000000000000000000000000000000000000000011110001001001100010001100000001000000000000000001001000 J
0r!
#49
b00000000000000000000000000011001 %
b00000001000000000000000001001100 &
b00000000110000010010011100000011 '
b00000001000000000000000001001100 (
b0000011 )
b01110 *
b00000 ,
13
05
16
07
b01 8
b00000000000000000000000001001100 :
1r!
#50
b00000000000000000000000000010100 ;
b00000001000000000000000001001100 <
b0000011 =
b01110 >
b00000 @
b00000000000000000000000000000000000000000000000000000000000011000000000010000000001001110000001100000001000000000000000001001100 D
b00000001000000000000000001001100 H
b00000000110000010010011100000011 I
b00000000000000000000000000000000000000000000000000000000000000000000000011000001001001110000001100000001000000000000000001001100 J
0r!
#51
b00000000000000000000000000011010 %
b00000001000000000000000001010000 &
b00000000100000010010011110000011 '
b00000001000000000000000001010000 (
b01111 *
b01000 /
b00000000000000000000000000001000 0
b00000000000000000000000001010000 :
1r!
#52
b00000000000000000000000000010101 ;
b00000001000000000000000001010000 <
b01111 >
b00000000000000000000000000001000 C
b00000000000000000000000000000000000000000000000000000000000010000000000010000000001001111000001100000001000000000000000001010000 D
b00000001000000000000000001010000 H
b00000000100000010010011110000011 I
b00000000000000000000000000000000000000000000000000000000000000000000000010000001001001111000001100000001000000000000000001010000 J
0r!
#53
b00000000000000000000000000011011 %
b00000001000000000000000001010100 &
b00000000111101110000011110110011 '
b00000001000000000000000001010100 (
b0110011 )
b01110 +
b01111 ,
b000 .
b00000 /
b00000000000000000000000000000000 0
02
15
06
b00 8
b00000000000000000000000001010100 :
1r!
#54
b00000000000000000000000000010110 ;
b00000001000000000000000001010100 <
b0110011 =
b01110 ?
b01111 @
b000 A
b00000000000000000000000000000000 C
b00000000000000000000000000000000000000000000000000000000000000000000000000011110111001111011001100000001000000000000000001010100 D
b00000001000000000000000001010100 H
b00000000111101110000011110110011 I
b00000000000000000000000000000000000000000000000000000000000000000000000011110111000001111011001100000001000000000000000001010100 J
0r!
#55
b00000000000000000000000000011100 %
b00000001000000000000000001011000 &
b00000000111100010010001000100011 '
b00000001000000000000000001011000 (
b0100011 )
b00000 *
b00010 +
b010 .
b00100 /
b00000000000000000000000000000100 0
12
03
17
b00000000000000000000000001011000 :
1r!
#56
b00000000000000000000000000010111 ;
b00000001000000000000000001011000 <
b0100011 =
b00000 >
b00010 ?
b010 A
b00000000000000000000000000000100 C
b00000000000000000000000000000000000000000000000000000000000001000000000010011110001000000010001100000001000000000000000001011000 D
b00000001000000000000000001011000 H
b00000000111100010010001000100011 I
b00000000000000000000000000000000000000000000000000000000000000000000000011110001001000100010001100000001000000000000000001011000 J
0r!
#57
b00000000000000000000000000011101 %
b00000001000000000000000001011100 &
b00000000010000010010010100000011 '
b00000001000000000000000001011100 (
b0000011 )
b01010 *
b00000 ,
13
05
16
07
b01 8
b00000000000000000000000001011100 :
1r!
#58
b00000000000000000000000000011000 ;
b00000001000000000000000001011100 <
b0000011 =
b01010 >
b00000 @
b00000000000000000000000000000000000000000000000000000000000001000000000010000000001001010000001100000001000000000000000001011100 D
b00000001000000000000000001011100 H
b00000000010000010010010100000011 I
b00000000000000000000000000000000000000000000000000000000000000000000000001000001001001010000001100000001000000000000000001011100 J
0r!
#59
b00000000000000000000000000011110 %
b00000001000000000000000001100000 &
b00000001100000000000000011101111 '
b00000001000000000000000001100000 (
b1101111 )
b00001 *
b00000 +
b000 .
b11000 /
b00000000000000000000000000011000 0
11
04
06
b10 8
b00000000000000000000000001100000 :
1r!
#60
b00000000000000000000000000011001 ;
b00000001000000000000000001100000 <
b1101111 =
b00001 >
b00000 ?
b000 A
b00000000000000000000000000011000 C
b00000000000000000000000000000000000000000000000000000000000110000000000000000000000000001110111100000001000000000000000001100000 D
b00000001000000000000000001100000 H
b00000001100000000000000011101111 I
b00000000000000000000000000000000000000000000000000000000000000000000000110000000000000001110111100000001000000000000000001100000 J
0r!
#61
b00000000000000000000000000011111 %
b00000001000000000000000001100100 &
b00000000000001010000011110010011 '
b00000001000000000000000001100100 (
b0010011 )
b01111 *
b01010 +
b00000 /
b00000000000000000000000000000000 0
01
14
b00 8
b00000000000000000000000001100100 :
1r!
#62
b00000000000000000000000000011010 ;
b00000001000000000000000001100100 <
b0010011 =
b01111 >
b01010 ?
b00000000000000000000000000000000 C
b00000000000000000000000000000000000000000000000000000000000000000000000000000000101001111001001100000001000000000000000001100100 D
b00000001000000000000000001100100 H
b00000000000001010000011110010011 I
b00000000000000000000000000000000000000000000000000000000000000000000000000000101000001111001001100000001000000000000000001100100 J
0r!
#63
b00000000000000000000000000100000 %
b00000001000000000000000001101000 &
b00000000000001111000010100010011 '
b00000001000000000000000001101000 (
b01010 *
b01111 +
b00000000000000000000000001101000 :
1r!
#64
b00000000000000000000000000011011 ;
b00000001000000000000000001101000 <
b01010 >
b01111 ?
b00000000000000000000000000000000000000000000000000000000000000000000000000000000111101010001001100000001000000000000000001101000 D
b00000001000000000000000001101000 H
b00000000000001111000010100010011 I
b00000000000000000000000000000000000000000000000000000000000000000000000000000111100001010001001100000001000000000000000001101000 J
0r!
#65
b00000000000000000000000000100001 %
b00000001000000000000000001101100 &
b00000001110000010010000010000011 '
b00000001000000000000000001101100 (
b0000011 )
b00001 *
b00010 +
b010 .
b11100 /
b00000000000000000000000000011100 0
16
b01 8
b00000000000000000000000001101100 :
1r!
#66
b00000000000000000000000000011100 ;
b00000001000000000000000001101100 <
b0000011 =
b00001 >
b00010 ?
b010 A
b00000000000000000000000000011100 C
b00000000000000000000000000000000000000000000000000000000000111000000000010000000001000001000001100000001000000000000000001101100 D
b00000001000000000000000001101100 H
b00000001110000010010000010000011 I
b00000000000000000000000000000000000000000000000000000000000000000000000111000001001000001000001100000001000000000000000001101100 J
0r!
#67
b00000000000000000000000000100010 %
b00000001000000000000000001110000 &
b00000010000000010000000100010011 '
b00000001000000000000000001110000 (
b0010011 )
b00010 *
b000 .
b00000 /
b00000000000000000000000000100000 0
06
b00 8
b00000000000000000000000001110000 :
1r!
#68
b00000000000000000000000000011101 ;
b00000001000000000000000001110000 <
b0010011 =
b00010 >
b000 A
b00000000000000000000000000100000 C
b00000000000000000000000000000000000000000000000000000000001000000000000000000000001000010001001100000001000000000000000001110000 D
b00000001000000000000000001110000 H
b00000010000000010000000100010011 I
b00000000000000000000000000000000000000000000000000000000000000000000001000000001000000010001001100000001000000000000000001110000 J
0r!
#69
b00000000000000000000000000100011 %
b00000001000000000000000001110100 &
b00000000000000001000000001100111 '
b00000001000000000000000001110100 (
b1100111 )
b00000 *
b00001 +
b00000000000000000000000000000000 0
11
b10 8
b00000000000000000000000001110100 :
1r!
#70
b00000000000000000000000000011110 ;
b00000001000000000000000001110100 <
b1100111 =
b00000 >
b00001 ?
b00000000000000000000000000000000 C
b00000000000000000000000000000000000000000000000000000000000000000000000000000000000100000110011100000001000000000000000001110100 D
b00000001000000000000000001110100 H
b00000000000000001000000001100111 I
b00000000000000000000000000000000000000000000000000000000000000000000000000000000100000000110011100000001000000000000000001110100 J
0r!
#71
b00000000000000000000000000100100 %
b00000001000000000000000001111000 &
b11111110000000010000000100010011 '
b00000001000000000000000001111000 (
b0010011 )
b00010 *
b00010 +
b11111111111111111111111111100000 0
01
b00 8
b00000000000000000000000001111000 :
1r!
